[Info]
Version 1
Dimension 3
NumNodes 1331
Num3DElements 1000
Num2DElements 0
Num1DElements 0
NumNodeBC 734
NumSaveNodes 0
NumSaveElements 0
Num 2d-line      : 0
Num 2d-line,quad : 0
Num 3d-line      : 0
Num 3d-line,quad : 0
Num triangle     : 0
Num triangle,quad: 0
Num quadr        : 0
Num quadr,quad   : 0
Num tetra        : 0
Num tetra,quad   : 0
Num brick        : 1000
Num brick,quad   : 0
Num pyramid      : 0
Num pyramid,quad : 0
Num wedge        : 0
Num wedge,quad   : 0

[Nodes]
#NodeNr x-coord y-coord z-coord
1  0.0  0.0  0.0
2  0.1  0.0  0.0
3  0.2  0.0  0.0
4  0.3  0.0  0.0
5  0.4  0.0  0.0
6  0.5  0.0  0.0
7  0.6  0.0  0.0
8  0.7  0.0  0.0
9  0.8  0.0  0.0
10  0.9  0.0  0.0
11  1.0  0.0  0.0
12  0.0  0.1  0.0
13  0.1  0.1  0.0
14  0.2  0.1  0.0
15  0.3  0.1  0.0
16  0.4  0.1  0.0
17  0.5  0.1  0.0
18  0.6  0.1  0.0
19  0.7  0.1  0.0
20  0.8  0.1  0.0
21  0.9  0.1  0.0
22  1.0  0.1  0.0
23  0.0  0.2  0.0
24  0.1  0.2  0.0
25  0.2  0.2  0.0
26  0.3  0.2  0.0
27  0.4  0.2  0.0
28  0.5  0.2  0.0
29  0.6  0.2  0.0
30  0.7  0.2  0.0
31  0.8  0.2  0.0
32  0.9  0.2  0.0
33  1.0  0.2  0.0
34  0.0  0.3  0.0
35  0.1  0.3  0.0
36  0.2  0.3  0.0
37  0.3  0.3  0.0
38  0.4  0.3  0.0
39  0.5  0.3  0.0
40  0.6  0.3  0.0
41  0.7  0.3  0.0
42  0.8  0.3  0.0
43  0.9  0.3  0.0
44  1.0  0.3  0.0
45  0.0  0.4  0.0
46  0.1  0.4  0.0
47  0.2  0.4  0.0
48  0.3  0.4  0.0
49  0.4  0.4  0.0
50  0.5  0.4  0.0
51  0.6  0.4  0.0
52  0.7  0.4  0.0
53  0.8  0.4  0.0
54  0.9  0.4  0.0
55  1.0  0.4  0.0
56  0.0  0.5  0.0
57  0.1  0.5  0.0
58  0.2  0.5  0.0
59  0.3  0.5  0.0
60  0.4  0.5  0.0
61  0.5  0.5  0.0
62  0.6  0.5  0.0
63  0.7  0.5  0.0
64  0.8  0.5  0.0
65  0.9  0.5  0.0
66  1.0  0.5  0.0
67  0.0  0.6  0.0
68  0.1  0.6  0.0
69  0.2  0.6  0.0
70  0.3  0.6  0.0
71  0.4  0.6  0.0
72  0.5  0.6  0.0
73  0.6  0.6  0.0
74  0.7  0.6  0.0
75  0.8  0.6  0.0
76  0.9  0.6  0.0
77  1.0  0.6  0.0
78  0.0  0.7  0.0
79  0.1  0.7  0.0
80  0.2  0.7  0.0
81  0.3  0.7  0.0
82  0.4  0.7  0.0
83  0.5  0.7  0.0
84  0.6  0.7  0.0
85  0.7  0.7  0.0
86  0.8  0.7  0.0
87  0.9  0.7  0.0
88  1.0  0.7  0.0
89  0.0  0.8  0.0
90  0.1  0.8  0.0
91  0.2  0.8  0.0
92  0.3  0.8  0.0
93  0.4  0.8  0.0
94  0.5  0.8  0.0
95  0.6  0.8  0.0
96  0.7  0.8  0.0
97  0.8  0.8  0.0
98  0.9  0.8  0.0
99  1.0  0.8  0.0
100  0.0  0.9  0.0
101  0.1  0.9  0.0
102  0.2  0.9  0.0
103  0.3  0.9  0.0
104  0.4  0.9  0.0
105  0.5  0.9  0.0
106  0.6  0.9  0.0
107  0.7  0.9  0.0
108  0.8  0.9  0.0
109  0.9  0.9  0.0
110  1.0  0.9  0.0
111  0.0  1.0  0.0
112  0.1  1.0  0.0
113  0.2  1.0  0.0
114  0.3  1.0  0.0
115  0.4  1.0  0.0
116  0.5  1.0  0.0
117  0.6  1.0  0.0
118  0.7  1.0  0.0
119  0.8  1.0  0.0
120  0.9  1.0  0.0
121  1.0  1.0  0.0
122  0.0  0.0  0.1
123  0.1  0.0  0.1
124  0.2  0.0  0.1
125  0.3  0.0  0.1
126  0.4  0.0  0.1
127  0.5  0.0  0.1
128  0.6  0.0  0.1
129  0.7  0.0  0.1
130  0.8  0.0  0.1
131  0.9  0.0  0.1
132  1.0  0.0  0.1
133  0.0  0.1  0.1
134  0.1  0.1  0.1
135  0.2  0.1  0.1
136  0.3  0.1  0.1
137  0.4  0.1  0.1
138  0.5  0.1  0.1
139  0.6  0.1  0.1
140  0.7  0.1  0.1
141  0.8  0.1  0.1
142  0.9  0.1  0.1
143  1.0  0.1  0.1
144  0.0  0.2  0.1
145  0.1  0.2  0.1
146  0.2  0.2  0.1
147  0.3  0.2  0.1
148  0.4  0.2  0.1
149  0.5  0.2  0.1
150  0.6  0.2  0.1
151  0.7  0.2  0.1
152  0.8  0.2  0.1
153  0.9  0.2  0.1
154  1.0  0.2  0.1
155  0.0  0.3  0.1
156  0.1  0.3  0.1
157  0.2  0.3  0.1
158  0.3  0.3  0.1
159  0.4  0.3  0.1
160  0.5  0.3  0.1
161  0.6  0.3  0.1
162  0.7  0.3  0.1
163  0.8  0.3  0.1
164  0.9  0.3  0.1
165  1.0  0.3  0.1
166  0.0  0.4  0.1
167  0.1  0.4  0.1
168  0.2  0.4  0.1
169  0.3  0.4  0.1
170  0.4  0.4  0.1
171  0.5  0.4  0.1
172  0.6  0.4  0.1
173  0.7  0.4  0.1
174  0.8  0.4  0.1
175  0.9  0.4  0.1
176  1.0  0.4  0.1
177  0.0  0.5  0.1
178  0.1  0.5  0.1
179  0.2  0.5  0.1
180  0.3  0.5  0.1
181  0.4  0.5  0.1
182  0.5  0.5  0.1
183  0.6  0.5  0.1
184  0.7  0.5  0.1
185  0.8  0.5  0.1
186  0.9  0.5  0.1
187  1.0  0.5  0.1
188  0.0  0.6  0.1
189  0.1  0.6  0.1
190  0.2  0.6  0.1
191  0.3  0.6  0.1
192  0.4  0.6  0.1
193  0.5  0.6  0.1
194  0.6  0.6  0.1
195  0.7  0.6  0.1
196  0.8  0.6  0.1
197  0.9  0.6  0.1
198  1.0  0.6  0.1
199  0.0  0.7  0.1
200  0.1  0.7  0.1
201  0.2  0.7  0.1
202  0.3  0.7  0.1
203  0.4  0.7  0.1
204  0.5  0.7  0.1
205  0.6  0.7  0.1
206  0.7  0.7  0.1
207  0.8  0.7  0.1
208  0.9  0.7  0.1
209  1.0  0.7  0.1
210  0.0  0.8  0.1
211  0.1  0.8  0.1
212  0.2  0.8  0.1
213  0.3  0.8  0.1
214  0.4  0.8  0.1
215  0.5  0.8  0.1
216  0.6  0.8  0.1
217  0.7  0.8  0.1
218  0.8  0.8  0.1
219  0.9  0.8  0.1
220  1.0  0.8  0.1
221  0.0  0.9  0.1
222  0.1  0.9  0.1
223  0.2  0.9  0.1
224  0.3  0.9  0.1
225  0.4  0.9  0.1
226  0.5  0.9  0.1
227  0.6  0.9  0.1
228  0.7  0.9  0.1
229  0.8  0.9  0.1
230  0.9  0.9  0.1
231  1.0  0.9  0.1
232  0.0  1.0  0.1
233  0.1  1.0  0.1
234  0.2  1.0  0.1
235  0.3  1.0  0.1
236  0.4  1.0  0.1
237  0.5  1.0  0.1
238  0.6  1.0  0.1
239  0.7  1.0  0.1
240  0.8  1.0  0.1
241  0.9  1.0  0.1
242  1.0  1.0  0.1
243  0.0  0.0  0.2
244  0.1  0.0  0.2
245  0.2  0.0  0.2
246  0.3  0.0  0.2
247  0.4  0.0  0.2
248  0.5  0.0  0.2
249  0.6  0.0  0.2
250  0.7  0.0  0.2
251  0.8  0.0  0.2
252  0.9  0.0  0.2
253  1.0  0.0  0.2
254  0.0  0.1  0.2
255  0.1  0.1  0.2
256  0.2  0.1  0.2
257  0.3  0.1  0.2
258  0.4  0.1  0.2
259  0.5  0.1  0.2
260  0.6  0.1  0.2
261  0.7  0.1  0.2
262  0.8  0.1  0.2
263  0.9  0.1  0.2
264  1.0  0.1  0.2
265  0.0  0.2  0.2
266  0.1  0.2  0.2
267  0.2  0.2  0.2
268  0.3  0.2  0.2
269  0.4  0.2  0.2
270  0.5  0.2  0.2
271  0.6  0.2  0.2
272  0.7  0.2  0.2
273  0.8  0.2  0.2
274  0.9  0.2  0.2
275  1.0  0.2  0.2
276  0.0  0.3  0.2
277  0.1  0.3  0.2
278  0.2  0.3  0.2
279  0.3  0.3  0.2
280  0.4  0.3  0.2
281  0.5  0.3  0.2
282  0.6  0.3  0.2
283  0.7  0.3  0.2
284  0.8  0.3  0.2
285  0.9  0.3  0.2
286  1.0  0.3  0.2
287  0.0  0.4  0.2
288  0.1  0.4  0.2
289  0.2  0.4  0.2
290  0.3  0.4  0.2
291  0.4  0.4  0.2
292  0.5  0.4  0.2
293  0.6  0.4  0.2
294  0.7  0.4  0.2
295  0.8  0.4  0.2
296  0.9  0.4  0.2
297  1.0  0.4  0.2
298  0.0  0.5  0.2
299  0.1  0.5  0.2
300  0.2  0.5  0.2
301  0.3  0.5  0.2
302  0.4  0.5  0.2
303  0.5  0.5  0.2
304  0.6  0.5  0.2
305  0.7  0.5  0.2
306  0.8  0.5  0.2
307  0.9  0.5  0.2
308  1.0  0.5  0.2
309  0.0  0.6  0.2
310  0.1  0.6  0.2
311  0.2  0.6  0.2
312  0.3  0.6  0.2
313  0.4  0.6  0.2
314  0.5  0.6  0.2
315  0.6  0.6  0.2
316  0.7  0.6  0.2
317  0.8  0.6  0.2
318  0.9  0.6  0.2
319  1.0  0.6  0.2
320  0.0  0.7  0.2
321  0.1  0.7  0.2
322  0.2  0.7  0.2
323  0.3  0.7  0.2
324  0.4  0.7  0.2
325  0.5  0.7  0.2
326  0.6  0.7  0.2
327  0.7  0.7  0.2
328  0.8  0.7  0.2
329  0.9  0.7  0.2
330  1.0  0.7  0.2
331  0.0  0.8  0.2
332  0.1  0.8  0.2
333  0.2  0.8  0.2
334  0.3  0.8  0.2
335  0.4  0.8  0.2
336  0.5  0.8  0.2
337  0.6  0.8  0.2
338  0.7  0.8  0.2
339  0.8  0.8  0.2
340  0.9  0.8  0.2
341  1.0  0.8  0.2
342  0.0  0.9  0.2
343  0.1  0.9  0.2
344  0.2  0.9  0.2
345  0.3  0.9  0.2
346  0.4  0.9  0.2
347  0.5  0.9  0.2
348  0.6  0.9  0.2
349  0.7  0.9  0.2
350  0.8  0.9  0.2
351  0.9  0.9  0.2
352  1.0  0.9  0.2
353  0.0  1.0  0.2
354  0.1  1.0  0.2
355  0.2  1.0  0.2
356  0.3  1.0  0.2
357  0.4  1.0  0.2
358  0.5  1.0  0.2
359  0.6  1.0  0.2
360  0.7  1.0  0.2
361  0.8  1.0  0.2
362  0.9  1.0  0.2
363  1.0  1.0  0.2
364  0.0  0.0  0.3
365  0.1  0.0  0.3
366  0.2  0.0  0.3
367  0.3  0.0  0.3
368  0.4  0.0  0.3
369  0.5  0.0  0.3
370  0.6  0.0  0.3
371  0.7  0.0  0.3
372  0.8  0.0  0.3
373  0.9  0.0  0.3
374  1.0  0.0  0.3
375  0.0  0.1  0.3
376  0.1  0.1  0.3
377  0.2  0.1  0.3
378  0.3  0.1  0.3
379  0.4  0.1  0.3
380  0.5  0.1  0.3
381  0.6  0.1  0.3
382  0.7  0.1  0.3
383  0.8  0.1  0.3
384  0.9  0.1  0.3
385  1.0  0.1  0.3
386  0.0  0.2  0.3
387  0.1  0.2  0.3
388  0.2  0.2  0.3
389  0.3  0.2  0.3
390  0.4  0.2  0.3
391  0.5  0.2  0.3
392  0.6  0.2  0.3
393  0.7  0.2  0.3
394  0.8  0.2  0.3
395  0.9  0.2  0.3
396  1.0  0.2  0.3
397  0.0  0.3  0.3
398  0.1  0.3  0.3
399  0.2  0.3  0.3
400  0.3  0.3  0.3
401  0.4  0.3  0.3
402  0.5  0.3  0.3
403  0.6  0.3  0.3
404  0.7  0.3  0.3
405  0.8  0.3  0.3
406  0.9  0.3  0.3
407  1.0  0.3  0.3
408  0.0  0.4  0.3
409  0.1  0.4  0.3
410  0.2  0.4  0.3
411  0.3  0.4  0.3
412  0.4  0.4  0.3
413  0.5  0.4  0.3
414  0.6  0.4  0.3
415  0.7  0.4  0.3
416  0.8  0.4  0.3
417  0.9  0.4  0.3
418  1.0  0.4  0.3
419  0.0  0.5  0.3
420  0.1  0.5  0.3
421  0.2  0.5  0.3
422  0.3  0.5  0.3
423  0.4  0.5  0.3
424  0.5  0.5  0.3
425  0.6  0.5  0.3
426  0.7  0.5  0.3
427  0.8  0.5  0.3
428  0.9  0.5  0.3
429  1.0  0.5  0.3
430  0.0  0.6  0.3
431  0.1  0.6  0.3
432  0.2  0.6  0.3
433  0.3  0.6  0.3
434  0.4  0.6  0.3
435  0.5  0.6  0.3
436  0.6  0.6  0.3
437  0.7  0.6  0.3
438  0.8  0.6  0.3
439  0.9  0.6  0.3
440  1.0  0.6  0.3
441  0.0  0.7  0.3
442  0.1  0.7  0.3
443  0.2  0.7  0.3
444  0.3  0.7  0.3
445  0.4  0.7  0.3
446  0.5  0.7  0.3
447  0.6  0.7  0.3
448  0.7  0.7  0.3
449  0.8  0.7  0.3
450  0.9  0.7  0.3
451  1.0  0.7  0.3
452  0.0  0.8  0.3
453  0.1  0.8  0.3
454  0.2  0.8  0.3
455  0.3  0.8  0.3
456  0.4  0.8  0.3
457  0.5  0.8  0.3
458  0.6  0.8  0.3
459  0.7  0.8  0.3
460  0.8  0.8  0.3
461  0.9  0.8  0.3
462  1.0  0.8  0.3
463  0.0  0.9  0.3
464  0.1  0.9  0.3
465  0.2  0.9  0.3
466  0.3  0.9  0.3
467  0.4  0.9  0.3
468  0.5  0.9  0.3
469  0.6  0.9  0.3
470  0.7  0.9  0.3
471  0.8  0.9  0.3
472  0.9  0.9  0.3
473  1.0  0.9  0.3
474  0.0  1.0  0.3
475  0.1  1.0  0.3
476  0.2  1.0  0.3
477  0.3  1.0  0.3
478  0.4  1.0  0.3
479  0.5  1.0  0.3
480  0.6  1.0  0.3
481  0.7  1.0  0.3
482  0.8  1.0  0.3
483  0.9  1.0  0.3
484  1.0  1.0  0.3
485  0.0  0.0  0.4
486  0.1  0.0  0.4
487  0.2  0.0  0.4
488  0.3  0.0  0.4
489  0.4  0.0  0.4
490  0.5  0.0  0.4
491  0.6  0.0  0.4
492  0.7  0.0  0.4
493  0.8  0.0  0.4
494  0.9  0.0  0.4
495  1.0  0.0  0.4
496  0.0  0.1  0.4
497  0.1  0.1  0.4
498  0.2  0.1  0.4
499  0.3  0.1  0.4
500  0.4  0.1  0.4
501  0.5  0.1  0.4
502  0.6  0.1  0.4
503  0.7  0.1  0.4
504  0.8  0.1  0.4
505  0.9  0.1  0.4
506  1.0  0.1  0.4
507  0.0  0.2  0.4
508  0.1  0.2  0.4
509  0.2  0.2  0.4
510  0.3  0.2  0.4
511  0.4  0.2  0.4
512  0.5  0.2  0.4
513  0.6  0.2  0.4
514  0.7  0.2  0.4
515  0.8  0.2  0.4
516  0.9  0.2  0.4
517  1.0  0.2  0.4
518  0.0  0.3  0.4
519  0.1  0.3  0.4
520  0.2  0.3  0.4
521  0.3  0.3  0.4
522  0.4  0.3  0.4
523  0.5  0.3  0.4
524  0.6  0.3  0.4
525  0.7  0.3  0.4
526  0.8  0.3  0.4
527  0.9  0.3  0.4
528  1.0  0.3  0.4
529  0.0  0.4  0.4
530  0.1  0.4  0.4
531  0.2  0.4  0.4
532  0.3  0.4  0.4
533  0.4  0.4  0.4
534  0.5  0.4  0.4
535  0.6  0.4  0.4
536  0.7  0.4  0.4
537  0.8  0.4  0.4
538  0.9  0.4  0.4
539  1.0  0.4  0.4
540  0.0  0.5  0.4
541  0.1  0.5  0.4
542  0.2  0.5  0.4
543  0.3  0.5  0.4
544  0.4  0.5  0.4
545  0.5  0.5  0.4
546  0.6  0.5  0.4
547  0.7  0.5  0.4
548  0.8  0.5  0.4
549  0.9  0.5  0.4
550  1.0  0.5  0.4
551  0.0  0.6  0.4
552  0.1  0.6  0.4
553  0.2  0.6  0.4
554  0.3  0.6  0.4
555  0.4  0.6  0.4
556  0.5  0.6  0.4
557  0.6  0.6  0.4
558  0.7  0.6  0.4
559  0.8  0.6  0.4
560  0.9  0.6  0.4
561  1.0  0.6  0.4
562  0.0  0.7  0.4
563  0.1  0.7  0.4
564  0.2  0.7  0.4
565  0.3  0.7  0.4
566  0.4  0.7  0.4
567  0.5  0.7  0.4
568  0.6  0.7  0.4
569  0.7  0.7  0.4
570  0.8  0.7  0.4
571  0.9  0.7  0.4
572  1.0  0.7  0.4
573  0.0  0.8  0.4
574  0.1  0.8  0.4
575  0.2  0.8  0.4
576  0.3  0.8  0.4
577  0.4  0.8  0.4
578  0.5  0.8  0.4
579  0.6  0.8  0.4
580  0.7  0.8  0.4
581  0.8  0.8  0.4
582  0.9  0.8  0.4
583  1.0  0.8  0.4
584  0.0  0.9  0.4
585  0.1  0.9  0.4
586  0.2  0.9  0.4
587  0.3  0.9  0.4
588  0.4  0.9  0.4
589  0.5  0.9  0.4
590  0.6  0.9  0.4
591  0.7  0.9  0.4
592  0.8  0.9  0.4
593  0.9  0.9  0.4
594  1.0  0.9  0.4
595  0.0  1.0  0.4
596  0.1  1.0  0.4
597  0.2  1.0  0.4
598  0.3  1.0  0.4
599  0.4  1.0  0.4
600  0.5  1.0  0.4
601  0.6  1.0  0.4
602  0.7  1.0  0.4
603  0.8  1.0  0.4
604  0.9  1.0  0.4
605  1.0  1.0  0.4
606  0.0  0.0  0.5
607  0.1  0.0  0.5
608  0.2  0.0  0.5
609  0.3  0.0  0.5
610  0.4  0.0  0.5
611  0.5  0.0  0.5
612  0.6  0.0  0.5
613  0.7  0.0  0.5
614  0.8  0.0  0.5
615  0.9  0.0  0.5
616  1.0  0.0  0.5
617  0.0  0.1  0.5
618  0.1  0.1  0.5
619  0.2  0.1  0.5
620  0.3  0.1  0.5
621  0.4  0.1  0.5
622  0.5  0.1  0.5
623  0.6  0.1  0.5
624  0.7  0.1  0.5
625  0.8  0.1  0.5
626  0.9  0.1  0.5
627  1.0  0.1  0.5
628  0.0  0.2  0.5
629  0.1  0.2  0.5
630  0.2  0.2  0.5
631  0.3  0.2  0.5
632  0.4  0.2  0.5
633  0.5  0.2  0.5
634  0.6  0.2  0.5
635  0.7  0.2  0.5
636  0.8  0.2  0.5
637  0.9  0.2  0.5
638  1.0  0.2  0.5
639  0.0  0.3  0.5
640  0.1  0.3  0.5
641  0.2  0.3  0.5
642  0.3  0.3  0.5
643  0.4  0.3  0.5
644  0.5  0.3  0.5
645  0.6  0.3  0.5
646  0.7  0.3  0.5
647  0.8  0.3  0.5
648  0.9  0.3  0.5
649  1.0  0.3  0.5
650  0.0  0.4  0.5
651  0.1  0.4  0.5
652  0.2  0.4  0.5
653  0.3  0.4  0.5
654  0.4  0.4  0.5
655  0.5  0.4  0.5
656  0.6  0.4  0.5
657  0.7  0.4  0.5
658  0.8  0.4  0.5
659  0.9  0.4  0.5
660  1.0  0.4  0.5
661  0.0  0.5  0.5
662  0.1  0.5  0.5
663  0.2  0.5  0.5
664  0.3  0.5  0.5
665  0.4  0.5  0.5
666  0.5  0.5  0.5
667  0.6  0.5  0.5
668  0.7  0.5  0.5
669  0.8  0.5  0.5
670  0.9  0.5  0.5
671  1.0  0.5  0.5
672  0.0  0.6  0.5
673  0.1  0.6  0.5
674  0.2  0.6  0.5
675  0.3  0.6  0.5
676  0.4  0.6  0.5
677  0.5  0.6  0.5
678  0.6  0.6  0.5
679  0.7  0.6  0.5
680  0.8  0.6  0.5
681  0.9  0.6  0.5
682  1.0  0.6  0.5
683  0.0  0.7  0.5
684  0.1  0.7  0.5
685  0.2  0.7  0.5
686  0.3  0.7  0.5
687  0.4  0.7  0.5
688  0.5  0.7  0.5
689  0.6  0.7  0.5
690  0.7  0.7  0.5
691  0.8  0.7  0.5
692  0.9  0.7  0.5
693  1.0  0.7  0.5
694  0.0  0.8  0.5
695  0.1  0.8  0.5
696  0.2  0.8  0.5
697  0.3  0.8  0.5
698  0.4  0.8  0.5
699  0.5  0.8  0.5
700  0.6  0.8  0.5
701  0.7  0.8  0.5
702  0.8  0.8  0.5
703  0.9  0.8  0.5
704  1.0  0.8  0.5
705  0.0  0.9  0.5
706  0.1  0.9  0.5
707  0.2  0.9  0.5
708  0.3  0.9  0.5
709  0.4  0.9  0.5
710  0.5  0.9  0.5
711  0.6  0.9  0.5
712  0.7  0.9  0.5
713  0.8  0.9  0.5
714  0.9  0.9  0.5
715  1.0  0.9  0.5
716  0.0  1.0  0.5
717  0.1  1.0  0.5
718  0.2  1.0  0.5
719  0.3  1.0  0.5
720  0.4  1.0  0.5
721  0.5  1.0  0.5
722  0.6  1.0  0.5
723  0.7  1.0  0.5
724  0.8  1.0  0.5
725  0.9  1.0  0.5
726  1.0  1.0  0.5
727  0.0  0.0  0.6
728  0.1  0.0  0.6
729  0.2  0.0  0.6
730  0.3  0.0  0.6
731  0.4  0.0  0.6
732  0.5  0.0  0.6
733  0.6  0.0  0.6
734  0.7  0.0  0.6
735  0.8  0.0  0.6
736  0.9  0.0  0.6
737  1.0  0.0  0.6
738  0.0  0.1  0.6
739  0.1  0.1  0.6
740  0.2  0.1  0.6
741  0.3  0.1  0.6
742  0.4  0.1  0.6
743  0.5  0.1  0.6
744  0.6  0.1  0.6
745  0.7  0.1  0.6
746  0.8  0.1  0.6
747  0.9  0.1  0.6
748  1.0  0.1  0.6
749  0.0  0.2  0.6
750  0.1  0.2  0.6
751  0.2  0.2  0.6
752  0.3  0.2  0.6
753  0.4  0.2  0.6
754  0.5  0.2  0.6
755  0.6  0.2  0.6
756  0.7  0.2  0.6
757  0.8  0.2  0.6
758  0.9  0.2  0.6
759  1.0  0.2  0.6
760  0.0  0.3  0.6
761  0.1  0.3  0.6
762  0.2  0.3  0.6
763  0.3  0.3  0.6
764  0.4  0.3  0.6
765  0.5  0.3  0.6
766  0.6  0.3  0.6
767  0.7  0.3  0.6
768  0.8  0.3  0.6
769  0.9  0.3  0.6
770  1.0  0.3  0.6
771  0.0  0.4  0.6
772  0.1  0.4  0.6
773  0.2  0.4  0.6
774  0.3  0.4  0.6
775  0.4  0.4  0.6
776  0.5  0.4  0.6
777  0.6  0.4  0.6
778  0.7  0.4  0.6
779  0.8  0.4  0.6
780  0.9  0.4  0.6
781  1.0  0.4  0.6
782  0.0  0.5  0.6
783  0.1  0.5  0.6
784  0.2  0.5  0.6
785  0.3  0.5  0.6
786  0.4  0.5  0.6
787  0.5  0.5  0.6
788  0.6  0.5  0.6
789  0.7  0.5  0.6
790  0.8  0.5  0.6
791  0.9  0.5  0.6
792  1.0  0.5  0.6
793  0.0  0.6  0.6
794  0.1  0.6  0.6
795  0.2  0.6  0.6
796  0.3  0.6  0.6
797  0.4  0.6  0.6
798  0.5  0.6  0.6
799  0.6  0.6  0.6
800  0.7  0.6  0.6
801  0.8  0.6  0.6
802  0.9  0.6  0.6
803  1.0  0.6  0.6
804  0.0  0.7  0.6
805  0.1  0.7  0.6
806  0.2  0.7  0.6
807  0.3  0.7  0.6
808  0.4  0.7  0.6
809  0.5  0.7  0.6
810  0.6  0.7  0.6
811  0.7  0.7  0.6
812  0.8  0.7  0.6
813  0.9  0.7  0.6
814  1.0  0.7  0.6
815  0.0  0.8  0.6
816  0.1  0.8  0.6
817  0.2  0.8  0.6
818  0.3  0.8  0.6
819  0.4  0.8  0.6
820  0.5  0.8  0.6
821  0.6  0.8  0.6
822  0.7  0.8  0.6
823  0.8  0.8  0.6
824  0.9  0.8  0.6
825  1.0  0.8  0.6
826  0.0  0.9  0.6
827  0.1  0.9  0.6
828  0.2  0.9  0.6
829  0.3  0.9  0.6
830  0.4  0.9  0.6
831  0.5  0.9  0.6
832  0.6  0.9  0.6
833  0.7  0.9  0.6
834  0.8  0.9  0.6
835  0.9  0.9  0.6
836  1.0  0.9  0.6
837  0.0  1.0  0.6
838  0.1  1.0  0.6
839  0.2  1.0  0.6
840  0.3  1.0  0.6
841  0.4  1.0  0.6
842  0.5  1.0  0.6
843  0.6  1.0  0.6
844  0.7  1.0  0.6
845  0.8  1.0  0.6
846  0.9  1.0  0.6
847  1.0  1.0  0.6
848  0.0  0.0  0.7
849  0.1  0.0  0.7
850  0.2  0.0  0.7
851  0.3  0.0  0.7
852  0.4  0.0  0.7
853  0.5  0.0  0.7
854  0.6  0.0  0.7
855  0.7  0.0  0.7
856  0.8  0.0  0.7
857  0.9  0.0  0.7
858  1.0  0.0  0.7
859  0.0  0.1  0.7
860  0.1  0.1  0.7
861  0.2  0.1  0.7
862  0.3  0.1  0.7
863  0.4  0.1  0.7
864  0.5  0.1  0.7
865  0.6  0.1  0.7
866  0.7  0.1  0.7
867  0.8  0.1  0.7
868  0.9  0.1  0.7
869  1.0  0.1  0.7
870  0.0  0.2  0.7
871  0.1  0.2  0.7
872  0.2  0.2  0.7
873  0.3  0.2  0.7
874  0.4  0.2  0.7
875  0.5  0.2  0.7
876  0.6  0.2  0.7
877  0.7  0.2  0.7
878  0.8  0.2  0.7
879  0.9  0.2  0.7
880  1.0  0.2  0.7
881  0.0  0.3  0.7
882  0.1  0.3  0.7
883  0.2  0.3  0.7
884  0.3  0.3  0.7
885  0.4  0.3  0.7
886  0.5  0.3  0.7
887  0.6  0.3  0.7
888  0.7  0.3  0.7
889  0.8  0.3  0.7
890  0.9  0.3  0.7
891  1.0  0.3  0.7
892  0.0  0.4  0.7
893  0.1  0.4  0.7
894  0.2  0.4  0.7
895  0.3  0.4  0.7
896  0.4  0.4  0.7
897  0.5  0.4  0.7
898  0.6  0.4  0.7
899  0.7  0.4  0.7
900  0.8  0.4  0.7
901  0.9  0.4  0.7
902  1.0  0.4  0.7
903  0.0  0.5  0.7
904  0.1  0.5  0.7
905  0.2  0.5  0.7
906  0.3  0.5  0.7
907  0.4  0.5  0.7
908  0.5  0.5  0.7
909  0.6  0.5  0.7
910  0.7  0.5  0.7
911  0.8  0.5  0.7
912  0.9  0.5  0.7
913  1.0  0.5  0.7
914  0.0  0.6  0.7
915  0.1  0.6  0.7
916  0.2  0.6  0.7
917  0.3  0.6  0.7
918  0.4  0.6  0.7
919  0.5  0.6  0.7
920  0.6  0.6  0.7
921  0.7  0.6  0.7
922  0.8  0.6  0.7
923  0.9  0.6  0.7
924  1.0  0.6  0.7
925  0.0  0.7  0.7
926  0.1  0.7  0.7
927  0.2  0.7  0.7
928  0.3  0.7  0.7
929  0.4  0.7  0.7
930  0.5  0.7  0.7
931  0.6  0.7  0.7
932  0.7  0.7  0.7
933  0.8  0.7  0.7
934  0.9  0.7  0.7
935  1.0  0.7  0.7
936  0.0  0.8  0.7
937  0.1  0.8  0.7
938  0.2  0.8  0.7
939  0.3  0.8  0.7
940  0.4  0.8  0.7
941  0.5  0.8  0.7
942  0.6  0.8  0.7
943  0.7  0.8  0.7
944  0.8  0.8  0.7
945  0.9  0.8  0.7
946  1.0  0.8  0.7
947  0.0  0.9  0.7
948  0.1  0.9  0.7
949  0.2  0.9  0.7
950  0.3  0.9  0.7
951  0.4  0.9  0.7
952  0.5  0.9  0.7
953  0.6  0.9  0.7
954  0.7  0.9  0.7
955  0.8  0.9  0.7
956  0.9  0.9  0.7
957  1.0  0.9  0.7
958  0.0  1.0  0.7
959  0.1  1.0  0.7
960  0.2  1.0  0.7
961  0.3  1.0  0.7
962  0.4  1.0  0.7
963  0.5  1.0  0.7
964  0.6  1.0  0.7
965  0.7  1.0  0.7
966  0.8  1.0  0.7
967  0.9  1.0  0.7
968  1.0  1.0  0.7
969  0.0  0.0  0.8
970  0.1  0.0  0.8
971  0.2  0.0  0.8
972  0.3  0.0  0.8
973  0.4  0.0  0.8
974  0.5  0.0  0.8
975  0.6  0.0  0.8
976  0.7  0.0  0.8
977  0.8  0.0  0.8
978  0.9  0.0  0.8
979  1.0  0.0  0.8
980  0.0  0.1  0.8
981  0.1  0.1  0.8
982  0.2  0.1  0.8
983  0.3  0.1  0.8
984  0.4  0.1  0.8
985  0.5  0.1  0.8
986  0.6  0.1  0.8
987  0.7  0.1  0.8
988  0.8  0.1  0.8
989  0.9  0.1  0.8
990  1.0  0.1  0.8
991  0.0  0.2  0.8
992  0.1  0.2  0.8
993  0.2  0.2  0.8
994  0.3  0.2  0.8
995  0.4  0.2  0.8
996  0.5  0.2  0.8
997  0.6  0.2  0.8
998  0.7  0.2  0.8
999  0.8  0.2  0.8
1000  0.9  0.2  0.8
1001  1.0  0.2  0.8
1002  0.0  0.3  0.8
1003  0.1  0.3  0.8
1004  0.2  0.3  0.8
1005  0.3  0.3  0.8
1006  0.4  0.3  0.8
1007  0.5  0.3  0.8
1008  0.6  0.3  0.8
1009  0.7  0.3  0.8
1010  0.8  0.3  0.8
1011  0.9  0.3  0.8
1012  1.0  0.3  0.8
1013  0.0  0.4  0.8
1014  0.1  0.4  0.8
1015  0.2  0.4  0.8
1016  0.3  0.4  0.8
1017  0.4  0.4  0.8
1018  0.5  0.4  0.8
1019  0.6  0.4  0.8
1020  0.7  0.4  0.8
1021  0.8  0.4  0.8
1022  0.9  0.4  0.8
1023  1.0  0.4  0.8
1024  0.0  0.5  0.8
1025  0.1  0.5  0.8
1026  0.2  0.5  0.8
1027  0.3  0.5  0.8
1028  0.4  0.5  0.8
1029  0.5  0.5  0.8
1030  0.6  0.5  0.8
1031  0.7  0.5  0.8
1032  0.8  0.5  0.8
1033  0.9  0.5  0.8
1034  1.0  0.5  0.8
1035  0.0  0.6  0.8
1036  0.1  0.6  0.8
1037  0.2  0.6  0.8
1038  0.3  0.6  0.8
1039  0.4  0.6  0.8
1040  0.5  0.6  0.8
1041  0.6  0.6  0.8
1042  0.7  0.6  0.8
1043  0.8  0.6  0.8
1044  0.9  0.6  0.8
1045  1.0  0.6  0.8
1046  0.0  0.7  0.8
1047  0.1  0.7  0.8
1048  0.2  0.7  0.8
1049  0.3  0.7  0.8
1050  0.4  0.7  0.8
1051  0.5  0.7  0.8
1052  0.6  0.7  0.8
1053  0.7  0.7  0.8
1054  0.8  0.7  0.8
1055  0.9  0.7  0.8
1056  1.0  0.7  0.8
1057  0.0  0.8  0.8
1058  0.1  0.8  0.8
1059  0.2  0.8  0.8
1060  0.3  0.8  0.8
1061  0.4  0.8  0.8
1062  0.5  0.8  0.8
1063  0.6  0.8  0.8
1064  0.7  0.8  0.8
1065  0.8  0.8  0.8
1066  0.9  0.8  0.8
1067  1.0  0.8  0.8
1068  0.0  0.9  0.8
1069  0.1  0.9  0.8
1070  0.2  0.9  0.8
1071  0.3  0.9  0.8
1072  0.4  0.9  0.8
1073  0.5  0.9  0.8
1074  0.6  0.9  0.8
1075  0.7  0.9  0.8
1076  0.8  0.9  0.8
1077  0.9  0.9  0.8
1078  1.0  0.9  0.8
1079  0.0  1.0  0.8
1080  0.1  1.0  0.8
1081  0.2  1.0  0.8
1082  0.3  1.0  0.8
1083  0.4  1.0  0.8
1084  0.5  1.0  0.8
1085  0.6  1.0  0.8
1086  0.7  1.0  0.8
1087  0.8  1.0  0.8
1088  0.9  1.0  0.8
1089  1.0  1.0  0.8
1090  0.0  0.0  0.9
1091  0.1  0.0  0.9
1092  0.2  0.0  0.9
1093  0.3  0.0  0.9
1094  0.4  0.0  0.9
1095  0.5  0.0  0.9
1096  0.6  0.0  0.9
1097  0.7  0.0  0.9
1098  0.8  0.0  0.9
1099  0.9  0.0  0.9
1100  1.0  0.0  0.9
1101  0.0  0.1  0.9
1102  0.1  0.1  0.9
1103  0.2  0.1  0.9
1104  0.3  0.1  0.9
1105  0.4  0.1  0.9
1106  0.5  0.1  0.9
1107  0.6  0.1  0.9
1108  0.7  0.1  0.9
1109  0.8  0.1  0.9
1110  0.9  0.1  0.9
1111  1.0  0.1  0.9
1112  0.0  0.2  0.9
1113  0.1  0.2  0.9
1114  0.2  0.2  0.9
1115  0.3  0.2  0.9
1116  0.4  0.2  0.9
1117  0.5  0.2  0.9
1118  0.6  0.2  0.9
1119  0.7  0.2  0.9
1120  0.8  0.2  0.9
1121  0.9  0.2  0.9
1122  1.0  0.2  0.9
1123  0.0  0.3  0.9
1124  0.1  0.3  0.9
1125  0.2  0.3  0.9
1126  0.3  0.3  0.9
1127  0.4  0.3  0.9
1128  0.5  0.3  0.9
1129  0.6  0.3  0.9
1130  0.7  0.3  0.9
1131  0.8  0.3  0.9
1132  0.9  0.3  0.9
1133  1.0  0.3  0.9
1134  0.0  0.4  0.9
1135  0.1  0.4  0.9
1136  0.2  0.4  0.9
1137  0.3  0.4  0.9
1138  0.4  0.4  0.9
1139  0.5  0.4  0.9
1140  0.6  0.4  0.9
1141  0.7  0.4  0.9
1142  0.8  0.4  0.9
1143  0.9  0.4  0.9
1144  1.0  0.4  0.9
1145  0.0  0.5  0.9
1146  0.1  0.5  0.9
1147  0.2  0.5  0.9
1148  0.3  0.5  0.9
1149  0.4  0.5  0.9
1150  0.5  0.5  0.9
1151  0.6  0.5  0.9
1152  0.7  0.5  0.9
1153  0.8  0.5  0.9
1154  0.9  0.5  0.9
1155  1.0  0.5  0.9
1156  0.0  0.6  0.9
1157  0.1  0.6  0.9
1158  0.2  0.6  0.9
1159  0.3  0.6  0.9
1160  0.4  0.6  0.9
1161  0.5  0.6  0.9
1162  0.6  0.6  0.9
1163  0.7  0.6  0.9
1164  0.8  0.6  0.9
1165  0.9  0.6  0.9
1166  1.0  0.6  0.9
1167  0.0  0.7  0.9
1168  0.1  0.7  0.9
1169  0.2  0.7  0.9
1170  0.3  0.7  0.9
1171  0.4  0.7  0.9
1172  0.5  0.7  0.9
1173  0.6  0.7  0.9
1174  0.7  0.7  0.9
1175  0.8  0.7  0.9
1176  0.9  0.7  0.9
1177  1.0  0.7  0.9
1178  0.0  0.8  0.9
1179  0.1  0.8  0.9
1180  0.2  0.8  0.9
1181  0.3  0.8  0.9
1182  0.4  0.8  0.9
1183  0.5  0.8  0.9
1184  0.6  0.8  0.9
1185  0.7  0.8  0.9
1186  0.8  0.8  0.9
1187  0.9  0.8  0.9
1188  1.0  0.8  0.9
1189  0.0  0.9  0.9
1190  0.1  0.9  0.9
1191  0.2  0.9  0.9
1192  0.3  0.9  0.9
1193  0.4  0.9  0.9
1194  0.5  0.9  0.9
1195  0.6  0.9  0.9
1196  0.7  0.9  0.9
1197  0.8  0.9  0.9
1198  0.9  0.9  0.9
1199  1.0  0.9  0.9
1200  0.0  1.0  0.9
1201  0.1  1.0  0.9
1202  0.2  1.0  0.9
1203  0.3  1.0  0.9
1204  0.4  1.0  0.9
1205  0.5  1.0  0.9
1206  0.6  1.0  0.9
1207  0.7  1.0  0.9
1208  0.8  1.0  0.9
1209  0.9  1.0  0.9
1210  1.0  1.0  0.9
1211  0.0  0.0  1.0
1212  0.1  0.0  1.0
1213  0.2  0.0  1.0
1214  0.3  0.0  1.0
1215  0.4  0.0  1.0
1216  0.5  0.0  1.0
1217  0.6  0.0  1.0
1218  0.7  0.0  1.0
1219  0.8  0.0  1.0
1220  0.9  0.0  1.0
1221  1.0  0.0  1.0
1222  0.0  0.1  1.0
1223  0.1  0.1  1.0
1224  0.2  0.1  1.0
1225  0.3  0.1  1.0
1226  0.4  0.1  1.0
1227  0.5  0.1  1.0
1228  0.6  0.1  1.0
1229  0.7  0.1  1.0
1230  0.8  0.1  1.0
1231  0.9  0.1  1.0
1232  1.0  0.1  1.0
1233  0.0  0.2  1.0
1234  0.1  0.2  1.0
1235  0.2  0.2  1.0
1236  0.3  0.2  1.0
1237  0.4  0.2  1.0
1238  0.5  0.2  1.0
1239  0.6  0.2  1.0
1240  0.7  0.2  1.0
1241  0.8  0.2  1.0
1242  0.9  0.2  1.0
1243  1.0  0.2  1.0
1244  0.0  0.3  1.0
1245  0.1  0.3  1.0
1246  0.2  0.3  1.0
1247  0.3  0.3  1.0
1248  0.4  0.3  1.0
1249  0.5  0.3  1.0
1250  0.6  0.3  1.0
1251  0.7  0.3  1.0
1252  0.8  0.3  1.0
1253  0.9  0.3  1.0
1254  1.0  0.3  1.0
1255  0.0  0.4  1.0
1256  0.1  0.4  1.0
1257  0.2  0.4  1.0
1258  0.3  0.4  1.0
1259  0.4  0.4  1.0
1260  0.5  0.4  1.0
1261  0.6  0.4  1.0
1262  0.7  0.4  1.0
1263  0.8  0.4  1.0
1264  0.9  0.4  1.0
1265  1.0  0.4  1.0
1266  0.0  0.5  1.0
1267  0.1  0.5  1.0
1268  0.2  0.5  1.0
1269  0.3  0.5  1.0
1270  0.4  0.5  1.0
1271  0.5  0.5  1.0
1272  0.6  0.5  1.0
1273  0.7  0.5  1.0
1274  0.8  0.5  1.0
1275  0.9  0.5  1.0
1276  1.0  0.5  1.0
1277  0.0  0.6  1.0
1278  0.1  0.6  1.0
1279  0.2  0.6  1.0
1280  0.3  0.6  1.0
1281  0.4  0.6  1.0
1282  0.5  0.6  1.0
1283  0.6  0.6  1.0
1284  0.7  0.6  1.0
1285  0.8  0.6  1.0
1286  0.9  0.6  1.0
1287  1.0  0.6  1.0
1288  0.0  0.7  1.0
1289  0.1  0.7  1.0
1290  0.2  0.7  1.0
1291  0.3  0.7  1.0
1292  0.4  0.7  1.0
1293  0.5  0.7  1.0
1294  0.6  0.7  1.0
1295  0.7  0.7  1.0
1296  0.8  0.7  1.0
1297  0.9  0.7  1.0
1298  1.0  0.7  1.0
1299  0.0  0.8  1.0
1300  0.1  0.8  1.0
1301  0.2  0.8  1.0
1302  0.3  0.8  1.0
1303  0.4  0.8  1.0
1304  0.5  0.8  1.0
1305  0.6  0.8  1.0
1306  0.7  0.8  1.0
1307  0.8  0.8  1.0
1308  0.9  0.8  1.0
1309  1.0  0.8  1.0
1310  0.0  0.9  1.0
1311  0.1  0.9  1.0
1312  0.2  0.9  1.0
1313  0.3  0.9  1.0
1314  0.4  0.9  1.0
1315  0.5  0.9  1.0
1316  0.6  0.9  1.0
1317  0.7  0.9  1.0
1318  0.8  0.9  1.0
1319  0.9  0.9  1.0
1320  1.0  0.9  1.0
1321  0.0  1.0  1.0
1322  0.1  1.0  1.0
1323  0.2  1.0  1.0
1324  0.3  1.0  1.0
1325  0.4  1.0  1.0
1326  0.5  1.0  1.0
1327  0.6  1.0  1.0
1328  0.7  1.0  1.0
1329  0.8  1.0  1.0
1330  0.9  1.0  1.0
1331  1.0  1.0  1.0

[1D Elements]
#ElemNr  ElemType  NrOfNodes  Level
#Node1 Node2 ... NodeNrOfNodes

[2D Elements]
#ElemNr  ElemType  NrOfNodes  Level
#Node1 Node2 ... NodeNrOfNodes

[3D Elements]
#ElemNr  ElemType  NrOfNodes  Level
#Node1 Node2 ... NodeNrOfNodes
1 10 8 mech
12 13 134 133 1 2 123 122
2 10 8 mech
13 14 135 134 2 3 124 123
3 10 8 mech
14 15 136 135 3 4 125 124
4 10 8 mech
15 16 137 136 4 5 126 125
5 10 8 mech
16 17 138 137 5 6 127 126
6 10 8 mech
17 18 139 138 6 7 128 127
7 10 8 mech
18 19 140 139 7 8 129 128
8 10 8 mech
19 20 141 140 8 9 130 129
9 10 8 mech
20 21 142 141 9 10 131 130
10 10 8 mech
21 22 143 142 10 11 132 131
11 10 8 mech
23 24 145 144 12 13 134 133
12 10 8 mech
24 25 146 145 13 14 135 134
13 10 8 mech
25 26 147 146 14 15 136 135
14 10 8 mech
26 27 148 147 15 16 137 136
15 10 8 mech
27 28 149 148 16 17 138 137
16 10 8 mech
28 29 150 149 17 18 139 138
17 10 8 mech
29 30 151 150 18 19 140 139
18 10 8 mech
30 31 152 151 19 20 141 140
19 10 8 mech
31 32 153 152 20 21 142 141
20 10 8 mech
32 33 154 153 21 22 143 142
21 10 8 mech
34 35 156 155 23 24 145 144
22 10 8 mech
35 36 157 156 24 25 146 145
23 10 8 mech
36 37 158 157 25 26 147 146
24 10 8 mech
37 38 159 158 26 27 148 147
25 10 8 mech
38 39 160 159 27 28 149 148
26 10 8 mech
39 40 161 160 28 29 150 149
27 10 8 mech
40 41 162 161 29 30 151 150
28 10 8 mech
41 42 163 162 30 31 152 151
29 10 8 mech
42 43 164 163 31 32 153 152
30 10 8 mech
43 44 165 164 32 33 154 153
31 10 8 mech
45 46 167 166 34 35 156 155
32 10 8 mech
46 47 168 167 35 36 157 156
33 10 8 mech
47 48 169 168 36 37 158 157
34 10 8 mech
48 49 170 169 37 38 159 158
35 10 8 mech
49 50 171 170 38 39 160 159
36 10 8 mech
50 51 172 171 39 40 161 160
37 10 8 mech
51 52 173 172 40 41 162 161
38 10 8 mech
52 53 174 173 41 42 163 162
39 10 8 mech
53 54 175 174 42 43 164 163
40 10 8 mech
54 55 176 175 43 44 165 164
41 10 8 mech
56 57 178 177 45 46 167 166
42 10 8 mech
57 58 179 178 46 47 168 167
43 10 8 mech
58 59 180 179 47 48 169 168
44 10 8 mech
59 60 181 180 48 49 170 169
45 10 8 mech
60 61 182 181 49 50 171 170
46 10 8 mech
61 62 183 182 50 51 172 171
47 10 8 mech
62 63 184 183 51 52 173 172
48 10 8 mech
63 64 185 184 52 53 174 173
49 10 8 mech
64 65 186 185 53 54 175 174
50 10 8 mech
65 66 187 186 54 55 176 175
51 10 8 mech
67 68 189 188 56 57 178 177
52 10 8 mech
68 69 190 189 57 58 179 178
53 10 8 mech
69 70 191 190 58 59 180 179
54 10 8 mech
70 71 192 191 59 60 181 180
55 10 8 mech
71 72 193 192 60 61 182 181
56 10 8 mech
72 73 194 193 61 62 183 182
57 10 8 mech
73 74 195 194 62 63 184 183
58 10 8 mech
74 75 196 195 63 64 185 184
59 10 8 mech
75 76 197 196 64 65 186 185
60 10 8 mech
76 77 198 197 65 66 187 186
61 10 8 mech
78 79 200 199 67 68 189 188
62 10 8 mech
79 80 201 200 68 69 190 189
63 10 8 mech
80 81 202 201 69 70 191 190
64 10 8 mech
81 82 203 202 70 71 192 191
65 10 8 mech
82 83 204 203 71 72 193 192
66 10 8 mech
83 84 205 204 72 73 194 193
67 10 8 mech
84 85 206 205 73 74 195 194
68 10 8 mech
85 86 207 206 74 75 196 195
69 10 8 mech
86 87 208 207 75 76 197 196
70 10 8 mech
87 88 209 208 76 77 198 197
71 10 8 mech
89 90 211 210 78 79 200 199
72 10 8 mech
90 91 212 211 79 80 201 200
73 10 8 mech
91 92 213 212 80 81 202 201
74 10 8 mech
92 93 214 213 81 82 203 202
75 10 8 mech
93 94 215 214 82 83 204 203
76 10 8 mech
94 95 216 215 83 84 205 204
77 10 8 mech
95 96 217 216 84 85 206 205
78 10 8 mech
96 97 218 217 85 86 207 206
79 10 8 mech
97 98 219 218 86 87 208 207
80 10 8 mech
98 99 220 219 87 88 209 208
81 10 8 mech
100 101 222 221 89 90 211 210
82 10 8 mech
101 102 223 222 90 91 212 211
83 10 8 mech
102 103 224 223 91 92 213 212
84 10 8 mech
103 104 225 224 92 93 214 213
85 10 8 mech
104 105 226 225 93 94 215 214
86 10 8 mech
105 106 227 226 94 95 216 215
87 10 8 mech
106 107 228 227 95 96 217 216
88 10 8 mech
107 108 229 228 96 97 218 217
89 10 8 mech
108 109 230 229 97 98 219 218
90 10 8 mech
109 110 231 230 98 99 220 219
91 10 8 mech
111 112 233 232 100 101 222 221
92 10 8 mech
112 113 234 233 101 102 223 222
93 10 8 mech
113 114 235 234 102 103 224 223
94 10 8 mech
114 115 236 235 103 104 225 224
95 10 8 mech
115 116 237 236 104 105 226 225
96 10 8 mech
116 117 238 237 105 106 227 226
97 10 8 mech
117 118 239 238 106 107 228 227
98 10 8 mech
118 119 240 239 107 108 229 228
99 10 8 mech
119 120 241 240 108 109 230 229
100 10 8 mech
120 121 242 241 109 110 231 230
101 10 8 mech
133 134 255 254 122 123 244 243
102 10 8 mech
134 135 256 255 123 124 245 244
103 10 8 mech
135 136 257 256 124 125 246 245
104 10 8 mech
136 137 258 257 125 126 247 246
105 10 8 mech
137 138 259 258 126 127 248 247
106 10 8 mech
138 139 260 259 127 128 249 248
107 10 8 mech
139 140 261 260 128 129 250 249
108 10 8 mech
140 141 262 261 129 130 251 250
109 10 8 mech
141 142 263 262 130 131 252 251
110 10 8 mech
142 143 264 263 131 132 253 252
111 10 8 mech
144 145 266 265 133 134 255 254
112 10 8 mech
145 146 267 266 134 135 256 255
113 10 8 mech
146 147 268 267 135 136 257 256
114 10 8 mech
147 148 269 268 136 137 258 257
115 10 8 mech
148 149 270 269 137 138 259 258
116 10 8 mech
149 150 271 270 138 139 260 259
117 10 8 mech
150 151 272 271 139 140 261 260
118 10 8 mech
151 152 273 272 140 141 262 261
119 10 8 mech
152 153 274 273 141 142 263 262
120 10 8 mech
153 154 275 274 142 143 264 263
121 10 8 mech
155 156 277 276 144 145 266 265
122 10 8 mech
156 157 278 277 145 146 267 266
123 10 8 mech
157 158 279 278 146 147 268 267
124 10 8 mech
158 159 280 279 147 148 269 268
125 10 8 mech
159 160 281 280 148 149 270 269
126 10 8 mech
160 161 282 281 149 150 271 270
127 10 8 mech
161 162 283 282 150 151 272 271
128 10 8 mech
162 163 284 283 151 152 273 272
129 10 8 mech
163 164 285 284 152 153 274 273
130 10 8 mech
164 165 286 285 153 154 275 274
131 10 8 mech
166 167 288 287 155 156 277 276
132 10 8 mech
167 168 289 288 156 157 278 277
133 10 8 mech
168 169 290 289 157 158 279 278
134 10 8 mech
169 170 291 290 158 159 280 279
135 10 8 mech
170 171 292 291 159 160 281 280
136 10 8 mech
171 172 293 292 160 161 282 281
137 10 8 mech
172 173 294 293 161 162 283 282
138 10 8 mech
173 174 295 294 162 163 284 283
139 10 8 mech
174 175 296 295 163 164 285 284
140 10 8 mech
175 176 297 296 164 165 286 285
141 10 8 mech
177 178 299 298 166 167 288 287
142 10 8 mech
178 179 300 299 167 168 289 288
143 10 8 mech
179 180 301 300 168 169 290 289
144 10 8 mech
180 181 302 301 169 170 291 290
145 10 8 mech
181 182 303 302 170 171 292 291
146 10 8 mech
182 183 304 303 171 172 293 292
147 10 8 mech
183 184 305 304 172 173 294 293
148 10 8 mech
184 185 306 305 173 174 295 294
149 10 8 mech
185 186 307 306 174 175 296 295
150 10 8 mech
186 187 308 307 175 176 297 296
151 10 8 mech
188 189 310 309 177 178 299 298
152 10 8 mech
189 190 311 310 178 179 300 299
153 10 8 mech
190 191 312 311 179 180 301 300
154 10 8 mech
191 192 313 312 180 181 302 301
155 10 8 mech
192 193 314 313 181 182 303 302
156 10 8 mech
193 194 315 314 182 183 304 303
157 10 8 mech
194 195 316 315 183 184 305 304
158 10 8 mech
195 196 317 316 184 185 306 305
159 10 8 mech
196 197 318 317 185 186 307 306
160 10 8 mech
197 198 319 318 186 187 308 307
161 10 8 mech
199 200 321 320 188 189 310 309
162 10 8 mech
200 201 322 321 189 190 311 310
163 10 8 mech
201 202 323 322 190 191 312 311
164 10 8 mech
202 203 324 323 191 192 313 312
165 10 8 mech
203 204 325 324 192 193 314 313
166 10 8 mech
204 205 326 325 193 194 315 314
167 10 8 mech
205 206 327 326 194 195 316 315
168 10 8 mech
206 207 328 327 195 196 317 316
169 10 8 mech
207 208 329 328 196 197 318 317
170 10 8 mech
208 209 330 329 197 198 319 318
171 10 8 mech
210 211 332 331 199 200 321 320
172 10 8 mech
211 212 333 332 200 201 322 321
173 10 8 mech
212 213 334 333 201 202 323 322
174 10 8 mech
213 214 335 334 202 203 324 323
175 10 8 mech
214 215 336 335 203 204 325 324
176 10 8 mech
215 216 337 336 204 205 326 325
177 10 8 mech
216 217 338 337 205 206 327 326
178 10 8 mech
217 218 339 338 206 207 328 327
179 10 8 mech
218 219 340 339 207 208 329 328
180 10 8 mech
219 220 341 340 208 209 330 329
181 10 8 mech
221 222 343 342 210 211 332 331
182 10 8 mech
222 223 344 343 211 212 333 332
183 10 8 mech
223 224 345 344 212 213 334 333
184 10 8 mech
224 225 346 345 213 214 335 334
185 10 8 mech
225 226 347 346 214 215 336 335
186 10 8 mech
226 227 348 347 215 216 337 336
187 10 8 mech
227 228 349 348 216 217 338 337
188 10 8 mech
228 229 350 349 217 218 339 338
189 10 8 mech
229 230 351 350 218 219 340 339
190 10 8 mech
230 231 352 351 219 220 341 340
191 10 8 mech
232 233 354 353 221 222 343 342
192 10 8 mech
233 234 355 354 222 223 344 343
193 10 8 mech
234 235 356 355 223 224 345 344
194 10 8 mech
235 236 357 356 224 225 346 345
195 10 8 mech
236 237 358 357 225 226 347 346
196 10 8 mech
237 238 359 358 226 227 348 347
197 10 8 mech
238 239 360 359 227 228 349 348
198 10 8 mech
239 240 361 360 228 229 350 349
199 10 8 mech
240 241 362 361 229 230 351 350
200 10 8 mech
241 242 363 362 230 231 352 351
201 10 8 mech
254 255 376 375 243 244 365 364
202 10 8 mech
255 256 377 376 244 245 366 365
203 10 8 mech
256 257 378 377 245 246 367 366
204 10 8 mech
257 258 379 378 246 247 368 367
205 10 8 mech
258 259 380 379 247 248 369 368
206 10 8 mech
259 260 381 380 248 249 370 369
207 10 8 mech
260 261 382 381 249 250 371 370
208 10 8 mech
261 262 383 382 250 251 372 371
209 10 8 mech
262 263 384 383 251 252 373 372
210 10 8 mech
263 264 385 384 252 253 374 373
211 10 8 mech
265 266 387 386 254 255 376 375
212 10 8 mech
266 267 388 387 255 256 377 376
213 10 8 mech
267 268 389 388 256 257 378 377
214 10 8 mech
268 269 390 389 257 258 379 378
215 10 8 mech
269 270 391 390 258 259 380 379
216 10 8 mech
270 271 392 391 259 260 381 380
217 10 8 mech
271 272 393 392 260 261 382 381
218 10 8 mech
272 273 394 393 261 262 383 382
219 10 8 mech
273 274 395 394 262 263 384 383
220 10 8 mech
274 275 396 395 263 264 385 384
221 10 8 mech
276 277 398 397 265 266 387 386
222 10 8 mech
277 278 399 398 266 267 388 387
223 10 8 mech
278 279 400 399 267 268 389 388
224 10 8 mech
279 280 401 400 268 269 390 389
225 10 8 mech
280 281 402 401 269 270 391 390
226 10 8 mech
281 282 403 402 270 271 392 391
227 10 8 mech
282 283 404 403 271 272 393 392
228 10 8 mech
283 284 405 404 272 273 394 393
229 10 8 mech
284 285 406 405 273 274 395 394
230 10 8 mech
285 286 407 406 274 275 396 395
231 10 8 mech
287 288 409 408 276 277 398 397
232 10 8 mech
288 289 410 409 277 278 399 398
233 10 8 mech
289 290 411 410 278 279 400 399
234 10 8 mech
290 291 412 411 279 280 401 400
235 10 8 mech
291 292 413 412 280 281 402 401
236 10 8 mech
292 293 414 413 281 282 403 402
237 10 8 mech
293 294 415 414 282 283 404 403
238 10 8 mech
294 295 416 415 283 284 405 404
239 10 8 mech
295 296 417 416 284 285 406 405
240 10 8 mech
296 297 418 417 285 286 407 406
241 10 8 mech
298 299 420 419 287 288 409 408
242 10 8 mech
299 300 421 420 288 289 410 409
243 10 8 mech
300 301 422 421 289 290 411 410
244 10 8 mech
301 302 423 422 290 291 412 411
245 10 8 mech
302 303 424 423 291 292 413 412
246 10 8 mech
303 304 425 424 292 293 414 413
247 10 8 mech
304 305 426 425 293 294 415 414
248 10 8 mech
305 306 427 426 294 295 416 415
249 10 8 mech
306 307 428 427 295 296 417 416
250 10 8 mech
307 308 429 428 296 297 418 417
251 10 8 mech
309 310 431 430 298 299 420 419
252 10 8 mech
310 311 432 431 299 300 421 420
253 10 8 mech
311 312 433 432 300 301 422 421
254 10 8 mech
312 313 434 433 301 302 423 422
255 10 8 mech
313 314 435 434 302 303 424 423
256 10 8 mech
314 315 436 435 303 304 425 424
257 10 8 mech
315 316 437 436 304 305 426 425
258 10 8 mech
316 317 438 437 305 306 427 426
259 10 8 mech
317 318 439 438 306 307 428 427
260 10 8 mech
318 319 440 439 307 308 429 428
261 10 8 mech
320 321 442 441 309 310 431 430
262 10 8 mech
321 322 443 442 310 311 432 431
263 10 8 mech
322 323 444 443 311 312 433 432
264 10 8 mech
323 324 445 444 312 313 434 433
265 10 8 mech
324 325 446 445 313 314 435 434
266 10 8 mech
325 326 447 446 314 315 436 435
267 10 8 mech
326 327 448 447 315 316 437 436
268 10 8 mech
327 328 449 448 316 317 438 437
269 10 8 mech
328 329 450 449 317 318 439 438
270 10 8 mech
329 330 451 450 318 319 440 439
271 10 8 mech
331 332 453 452 320 321 442 441
272 10 8 mech
332 333 454 453 321 322 443 442
273 10 8 mech
333 334 455 454 322 323 444 443
274 10 8 mech
334 335 456 455 323 324 445 444
275 10 8 mech
335 336 457 456 324 325 446 445
276 10 8 mech
336 337 458 457 325 326 447 446
277 10 8 mech
337 338 459 458 326 327 448 447
278 10 8 mech
338 339 460 459 327 328 449 448
279 10 8 mech
339 340 461 460 328 329 450 449
280 10 8 mech
340 341 462 461 329 330 451 450
281 10 8 mech
342 343 464 463 331 332 453 452
282 10 8 mech
343 344 465 464 332 333 454 453
283 10 8 mech
344 345 466 465 333 334 455 454
284 10 8 mech
345 346 467 466 334 335 456 455
285 10 8 mech
346 347 468 467 335 336 457 456
286 10 8 mech
347 348 469 468 336 337 458 457
287 10 8 mech
348 349 470 469 337 338 459 458
288 10 8 mech
349 350 471 470 338 339 460 459
289 10 8 mech
350 351 472 471 339 340 461 460
290 10 8 mech
351 352 473 472 340 341 462 461
291 10 8 mech
353 354 475 474 342 343 464 463
292 10 8 mech
354 355 476 475 343 344 465 464
293 10 8 mech
355 356 477 476 344 345 466 465
294 10 8 mech
356 357 478 477 345 346 467 466
295 10 8 mech
357 358 479 478 346 347 468 467
296 10 8 mech
358 359 480 479 347 348 469 468
297 10 8 mech
359 360 481 480 348 349 470 469
298 10 8 mech
360 361 482 481 349 350 471 470
299 10 8 mech
361 362 483 482 350 351 472 471
300 10 8 mech
362 363 484 483 351 352 473 472
301 10 8 mech
375 376 497 496 364 365 486 485
302 10 8 mech
376 377 498 497 365 366 487 486
303 10 8 mech
377 378 499 498 366 367 488 487
304 10 8 mech
378 379 500 499 367 368 489 488
305 10 8 mech
379 380 501 500 368 369 490 489
306 10 8 mech
380 381 502 501 369 370 491 490
307 10 8 mech
381 382 503 502 370 371 492 491
308 10 8 mech
382 383 504 503 371 372 493 492
309 10 8 mech
383 384 505 504 372 373 494 493
310 10 8 mech
384 385 506 505 373 374 495 494
311 10 8 mech
386 387 508 507 375 376 497 496
312 10 8 mech
387 388 509 508 376 377 498 497
313 10 8 mech
388 389 510 509 377 378 499 498
314 10 8 mech
389 390 511 510 378 379 500 499
315 10 8 mech
390 391 512 511 379 380 501 500
316 10 8 mech
391 392 513 512 380 381 502 501
317 10 8 mech
392 393 514 513 381 382 503 502
318 10 8 mech
393 394 515 514 382 383 504 503
319 10 8 mech
394 395 516 515 383 384 505 504
320 10 8 mech
395 396 517 516 384 385 506 505
321 10 8 mech
397 398 519 518 386 387 508 507
322 10 8 mech
398 399 520 519 387 388 509 508
323 10 8 mech
399 400 521 520 388 389 510 509
324 10 8 mech
400 401 522 521 389 390 511 510
325 10 8 mech
401 402 523 522 390 391 512 511
326 10 8 mech
402 403 524 523 391 392 513 512
327 10 8 mech
403 404 525 524 392 393 514 513
328 10 8 mech
404 405 526 525 393 394 515 514
329 10 8 mech
405 406 527 526 394 395 516 515
330 10 8 mech
406 407 528 527 395 396 517 516
331 10 8 mech
408 409 530 529 397 398 519 518
332 10 8 mech
409 410 531 530 398 399 520 519
333 10 8 mech
410 411 532 531 399 400 521 520
334 10 8 mech
411 412 533 532 400 401 522 521
335 10 8 mech
412 413 534 533 401 402 523 522
336 10 8 mech
413 414 535 534 402 403 524 523
337 10 8 mech
414 415 536 535 403 404 525 524
338 10 8 mech
415 416 537 536 404 405 526 525
339 10 8 mech
416 417 538 537 405 406 527 526
340 10 8 mech
417 418 539 538 406 407 528 527
341 10 8 mech
419 420 541 540 408 409 530 529
342 10 8 mech
420 421 542 541 409 410 531 530
343 10 8 mech
421 422 543 542 410 411 532 531
344 10 8 mech
422 423 544 543 411 412 533 532
345 10 8 mech
423 424 545 544 412 413 534 533
346 10 8 mech
424 425 546 545 413 414 535 534
347 10 8 mech
425 426 547 546 414 415 536 535
348 10 8 mech
426 427 548 547 415 416 537 536
349 10 8 mech
427 428 549 548 416 417 538 537
350 10 8 mech
428 429 550 549 417 418 539 538
351 10 8 mech
430 431 552 551 419 420 541 540
352 10 8 mech
431 432 553 552 420 421 542 541
353 10 8 mech
432 433 554 553 421 422 543 542
354 10 8 mech
433 434 555 554 422 423 544 543
355 10 8 mech
434 435 556 555 423 424 545 544
356 10 8 mech
435 436 557 556 424 425 546 545
357 10 8 mech
436 437 558 557 425 426 547 546
358 10 8 mech
437 438 559 558 426 427 548 547
359 10 8 mech
438 439 560 559 427 428 549 548
360 10 8 mech
439 440 561 560 428 429 550 549
361 10 8 mech
441 442 563 562 430 431 552 551
362 10 8 mech
442 443 564 563 431 432 553 552
363 10 8 mech
443 444 565 564 432 433 554 553
364 10 8 mech
444 445 566 565 433 434 555 554
365 10 8 mech
445 446 567 566 434 435 556 555
366 10 8 mech
446 447 568 567 435 436 557 556
367 10 8 mech
447 448 569 568 436 437 558 557
368 10 8 mech
448 449 570 569 437 438 559 558
369 10 8 mech
449 450 571 570 438 439 560 559
370 10 8 mech
450 451 572 571 439 440 561 560
371 10 8 mech
452 453 574 573 441 442 563 562
372 10 8 mech
453 454 575 574 442 443 564 563
373 10 8 mech
454 455 576 575 443 444 565 564
374 10 8 mech
455 456 577 576 444 445 566 565
375 10 8 mech
456 457 578 577 445 446 567 566
376 10 8 mech
457 458 579 578 446 447 568 567
377 10 8 mech
458 459 580 579 447 448 569 568
378 10 8 mech
459 460 581 580 448 449 570 569
379 10 8 mech
460 461 582 581 449 450 571 570
380 10 8 mech
461 462 583 582 450 451 572 571
381 10 8 mech
463 464 585 584 452 453 574 573
382 10 8 mech
464 465 586 585 453 454 575 574
383 10 8 mech
465 466 587 586 454 455 576 575
384 10 8 mech
466 467 588 587 455 456 577 576
385 10 8 mech
467 468 589 588 456 457 578 577
386 10 8 mech
468 469 590 589 457 458 579 578
387 10 8 mech
469 470 591 590 458 459 580 579
388 10 8 mech
470 471 592 591 459 460 581 580
389 10 8 mech
471 472 593 592 460 461 582 581
390 10 8 mech
472 473 594 593 461 462 583 582
391 10 8 mech
474 475 596 595 463 464 585 584
392 10 8 mech
475 476 597 596 464 465 586 585
393 10 8 mech
476 477 598 597 465 466 587 586
394 10 8 mech
477 478 599 598 466 467 588 587
395 10 8 mech
478 479 600 599 467 468 589 588
396 10 8 mech
479 480 601 600 468 469 590 589
397 10 8 mech
480 481 602 601 469 470 591 590
398 10 8 mech
481 482 603 602 470 471 592 591
399 10 8 mech
482 483 604 603 471 472 593 592
400 10 8 mech
483 484 605 604 472 473 594 593
401 10 8 mech
496 497 618 617 485 486 607 606
402 10 8 mech
497 498 619 618 486 487 608 607
403 10 8 mech
498 499 620 619 487 488 609 608
404 10 8 mech
499 500 621 620 488 489 610 609
405 10 8 mech
500 501 622 621 489 490 611 610
406 10 8 mech
501 502 623 622 490 491 612 611
407 10 8 mech
502 503 624 623 491 492 613 612
408 10 8 mech
503 504 625 624 492 493 614 613
409 10 8 mech
504 505 626 625 493 494 615 614
410 10 8 mech
505 506 627 626 494 495 616 615
411 10 8 mech
507 508 629 628 496 497 618 617
412 10 8 mech
508 509 630 629 497 498 619 618
413 10 8 mech
509 510 631 630 498 499 620 619
414 10 8 mech
510 511 632 631 499 500 621 620
415 10 8 mech
511 512 633 632 500 501 622 621
416 10 8 mech
512 513 634 633 501 502 623 622
417 10 8 mech
513 514 635 634 502 503 624 623
418 10 8 mech
514 515 636 635 503 504 625 624
419 10 8 mech
515 516 637 636 504 505 626 625
420 10 8 mech
516 517 638 637 505 506 627 626
421 10 8 mech
518 519 640 639 507 508 629 628
422 10 8 mech
519 520 641 640 508 509 630 629
423 10 8 mech
520 521 642 641 509 510 631 630
424 10 8 mech
521 522 643 642 510 511 632 631
425 10 8 mech
522 523 644 643 511 512 633 632
426 10 8 mech
523 524 645 644 512 513 634 633
427 10 8 mech
524 525 646 645 513 514 635 634
428 10 8 mech
525 526 647 646 514 515 636 635
429 10 8 mech
526 527 648 647 515 516 637 636
430 10 8 mech
527 528 649 648 516 517 638 637
431 10 8 mech
529 530 651 650 518 519 640 639
432 10 8 mech
530 531 652 651 519 520 641 640
433 10 8 mech
531 532 653 652 520 521 642 641
434 10 8 mech
532 533 654 653 521 522 643 642
435 10 8 mech
533 534 655 654 522 523 644 643
436 10 8 mech
534 535 656 655 523 524 645 644
437 10 8 mech
535 536 657 656 524 525 646 645
438 10 8 mech
536 537 658 657 525 526 647 646
439 10 8 mech
537 538 659 658 526 527 648 647
440 10 8 mech
538 539 660 659 527 528 649 648
441 10 8 mech
540 541 662 661 529 530 651 650
442 10 8 mech
541 542 663 662 530 531 652 651
443 10 8 mech
542 543 664 663 531 532 653 652
444 10 8 mech
543 544 665 664 532 533 654 653
445 10 8 mech
544 545 666 665 533 534 655 654
446 10 8 mech
545 546 667 666 534 535 656 655
447 10 8 mech
546 547 668 667 535 536 657 656
448 10 8 mech
547 548 669 668 536 537 658 657
449 10 8 mech
548 549 670 669 537 538 659 658
450 10 8 mech
549 550 671 670 538 539 660 659
451 10 8 mech
551 552 673 672 540 541 662 661
452 10 8 mech
552 553 674 673 541 542 663 662
453 10 8 mech
553 554 675 674 542 543 664 663
454 10 8 mech
554 555 676 675 543 544 665 664
455 10 8 mech
555 556 677 676 544 545 666 665
456 10 8 mech
556 557 678 677 545 546 667 666
457 10 8 mech
557 558 679 678 546 547 668 667
458 10 8 mech
558 559 680 679 547 548 669 668
459 10 8 mech
559 560 681 680 548 549 670 669
460 10 8 mech
560 561 682 681 549 550 671 670
461 10 8 mech
562 563 684 683 551 552 673 672
462 10 8 mech
563 564 685 684 552 553 674 673
463 10 8 mech
564 565 686 685 553 554 675 674
464 10 8 mech
565 566 687 686 554 555 676 675
465 10 8 mech
566 567 688 687 555 556 677 676
466 10 8 mech
567 568 689 688 556 557 678 677
467 10 8 mech
568 569 690 689 557 558 679 678
468 10 8 mech
569 570 691 690 558 559 680 679
469 10 8 mech
570 571 692 691 559 560 681 680
470 10 8 mech
571 572 693 692 560 561 682 681
471 10 8 mech
573 574 695 694 562 563 684 683
472 10 8 mech
574 575 696 695 563 564 685 684
473 10 8 mech
575 576 697 696 564 565 686 685
474 10 8 mech
576 577 698 697 565 566 687 686
475 10 8 mech
577 578 699 698 566 567 688 687
476 10 8 mech
578 579 700 699 567 568 689 688
477 10 8 mech
579 580 701 700 568 569 690 689
478 10 8 mech
580 581 702 701 569 570 691 690
479 10 8 mech
581 582 703 702 570 571 692 691
480 10 8 mech
582 583 704 703 571 572 693 692
481 10 8 mech
584 585 706 705 573 574 695 694
482 10 8 mech
585 586 707 706 574 575 696 695
483 10 8 mech
586 587 708 707 575 576 697 696
484 10 8 mech
587 588 709 708 576 577 698 697
485 10 8 mech
588 589 710 709 577 578 699 698
486 10 8 mech
589 590 711 710 578 579 700 699
487 10 8 mech
590 591 712 711 579 580 701 700
488 10 8 mech
591 592 713 712 580 581 702 701
489 10 8 mech
592 593 714 713 581 582 703 702
490 10 8 mech
593 594 715 714 582 583 704 703
491 10 8 mech
595 596 717 716 584 585 706 705
492 10 8 mech
596 597 718 717 585 586 707 706
493 10 8 mech
597 598 719 718 586 587 708 707
494 10 8 mech
598 599 720 719 587 588 709 708
495 10 8 mech
599 600 721 720 588 589 710 709
496 10 8 mech
600 601 722 721 589 590 711 710
497 10 8 mech
601 602 723 722 590 591 712 711
498 10 8 mech
602 603 724 723 591 592 713 712
499 10 8 mech
603 604 725 724 592 593 714 713
500 10 8 mech
604 605 726 725 593 594 715 714
501 10 8 mech
617 618 739 738 606 607 728 727
502 10 8 mech
618 619 740 739 607 608 729 728
503 10 8 mech
619 620 741 740 608 609 730 729
504 10 8 mech
620 621 742 741 609 610 731 730
505 10 8 mech
621 622 743 742 610 611 732 731
506 10 8 mech
622 623 744 743 611 612 733 732
507 10 8 mech
623 624 745 744 612 613 734 733
508 10 8 mech
624 625 746 745 613 614 735 734
509 10 8 mech
625 626 747 746 614 615 736 735
510 10 8 mech
626 627 748 747 615 616 737 736
511 10 8 mech
628 629 750 749 617 618 739 738
512 10 8 mech
629 630 751 750 618 619 740 739
513 10 8 mech
630 631 752 751 619 620 741 740
514 10 8 mech
631 632 753 752 620 621 742 741
515 10 8 mech
632 633 754 753 621 622 743 742
516 10 8 mech
633 634 755 754 622 623 744 743
517 10 8 mech
634 635 756 755 623 624 745 744
518 10 8 mech
635 636 757 756 624 625 746 745
519 10 8 mech
636 637 758 757 625 626 747 746
520 10 8 mech
637 638 759 758 626 627 748 747
521 10 8 mech
639 640 761 760 628 629 750 749
522 10 8 mech
640 641 762 761 629 630 751 750
523 10 8 mech
641 642 763 762 630 631 752 751
524 10 8 mech
642 643 764 763 631 632 753 752
525 10 8 mech
643 644 765 764 632 633 754 753
526 10 8 mech
644 645 766 765 633 634 755 754
527 10 8 mech
645 646 767 766 634 635 756 755
528 10 8 mech
646 647 768 767 635 636 757 756
529 10 8 mech
647 648 769 768 636 637 758 757
530 10 8 mech
648 649 770 769 637 638 759 758
531 10 8 mech
650 651 772 771 639 640 761 760
532 10 8 mech
651 652 773 772 640 641 762 761
533 10 8 mech
652 653 774 773 641 642 763 762
534 10 8 mech
653 654 775 774 642 643 764 763
535 10 8 mech
654 655 776 775 643 644 765 764
536 10 8 mech
655 656 777 776 644 645 766 765
537 10 8 mech
656 657 778 777 645 646 767 766
538 10 8 mech
657 658 779 778 646 647 768 767
539 10 8 mech
658 659 780 779 647 648 769 768
540 10 8 mech
659 660 781 780 648 649 770 769
541 10 8 mech
661 662 783 782 650 651 772 771
542 10 8 mech
662 663 784 783 651 652 773 772
543 10 8 mech
663 664 785 784 652 653 774 773
544 10 8 mech
664 665 786 785 653 654 775 774
545 10 8 mech
665 666 787 786 654 655 776 775
546 10 8 mech
666 667 788 787 655 656 777 776
547 10 8 mech
667 668 789 788 656 657 778 777
548 10 8 mech
668 669 790 789 657 658 779 778
549 10 8 mech
669 670 791 790 658 659 780 779
550 10 8 mech
670 671 792 791 659 660 781 780
551 10 8 mech
672 673 794 793 661 662 783 782
552 10 8 mech
673 674 795 794 662 663 784 783
553 10 8 mech
674 675 796 795 663 664 785 784
554 10 8 mech
675 676 797 796 664 665 786 785
555 10 8 mech
676 677 798 797 665 666 787 786
556 10 8 mech
677 678 799 798 666 667 788 787
557 10 8 mech
678 679 800 799 667 668 789 788
558 10 8 mech
679 680 801 800 668 669 790 789
559 10 8 mech
680 681 802 801 669 670 791 790
560 10 8 mech
681 682 803 802 670 671 792 791
561 10 8 mech
683 684 805 804 672 673 794 793
562 10 8 mech
684 685 806 805 673 674 795 794
563 10 8 mech
685 686 807 806 674 675 796 795
564 10 8 mech
686 687 808 807 675 676 797 796
565 10 8 mech
687 688 809 808 676 677 798 797
566 10 8 mech
688 689 810 809 677 678 799 798
567 10 8 mech
689 690 811 810 678 679 800 799
568 10 8 mech
690 691 812 811 679 680 801 800
569 10 8 mech
691 692 813 812 680 681 802 801
570 10 8 mech
692 693 814 813 681 682 803 802
571 10 8 mech
694 695 816 815 683 684 805 804
572 10 8 mech
695 696 817 816 684 685 806 805
573 10 8 mech
696 697 818 817 685 686 807 806
574 10 8 mech
697 698 819 818 686 687 808 807
575 10 8 mech
698 699 820 819 687 688 809 808
576 10 8 mech
699 700 821 820 688 689 810 809
577 10 8 mech
700 701 822 821 689 690 811 810
578 10 8 mech
701 702 823 822 690 691 812 811
579 10 8 mech
702 703 824 823 691 692 813 812
580 10 8 mech
703 704 825 824 692 693 814 813
581 10 8 mech
705 706 827 826 694 695 816 815
582 10 8 mech
706 707 828 827 695 696 817 816
583 10 8 mech
707 708 829 828 696 697 818 817
584 10 8 mech
708 709 830 829 697 698 819 818
585 10 8 mech
709 710 831 830 698 699 820 819
586 10 8 mech
710 711 832 831 699 700 821 820
587 10 8 mech
711 712 833 832 700 701 822 821
588 10 8 mech
712 713 834 833 701 702 823 822
589 10 8 mech
713 714 835 834 702 703 824 823
590 10 8 mech
714 715 836 835 703 704 825 824
591 10 8 mech
716 717 838 837 705 706 827 826
592 10 8 mech
717 718 839 838 706 707 828 827
593 10 8 mech
718 719 840 839 707 708 829 828
594 10 8 mech
719 720 841 840 708 709 830 829
595 10 8 mech
720 721 842 841 709 710 831 830
596 10 8 mech
721 722 843 842 710 711 832 831
597 10 8 mech
722 723 844 843 711 712 833 832
598 10 8 mech
723 724 845 844 712 713 834 833
599 10 8 mech
724 725 846 845 713 714 835 834
600 10 8 mech
725 726 847 846 714 715 836 835
601 10 8 mech
738 739 860 859 727 728 849 848
602 10 8 mech
739 740 861 860 728 729 850 849
603 10 8 mech
740 741 862 861 729 730 851 850
604 10 8 mech
741 742 863 862 730 731 852 851
605 10 8 mech
742 743 864 863 731 732 853 852
606 10 8 mech
743 744 865 864 732 733 854 853
607 10 8 mech
744 745 866 865 733 734 855 854
608 10 8 mech
745 746 867 866 734 735 856 855
609 10 8 mech
746 747 868 867 735 736 857 856
610 10 8 mech
747 748 869 868 736 737 858 857
611 10 8 mech
749 750 871 870 738 739 860 859
612 10 8 mech
750 751 872 871 739 740 861 860
613 10 8 mech
751 752 873 872 740 741 862 861
614 10 8 mech
752 753 874 873 741 742 863 862
615 10 8 mech
753 754 875 874 742 743 864 863
616 10 8 mech
754 755 876 875 743 744 865 864
617 10 8 mech
755 756 877 876 744 745 866 865
618 10 8 mech
756 757 878 877 745 746 867 866
619 10 8 mech
757 758 879 878 746 747 868 867
620 10 8 mech
758 759 880 879 747 748 869 868
621 10 8 mech
760 761 882 881 749 750 871 870
622 10 8 mech
761 762 883 882 750 751 872 871
623 10 8 mech
762 763 884 883 751 752 873 872
624 10 8 mech
763 764 885 884 752 753 874 873
625 10 8 mech
764 765 886 885 753 754 875 874
626 10 8 mech
765 766 887 886 754 755 876 875
627 10 8 mech
766 767 888 887 755 756 877 876
628 10 8 mech
767 768 889 888 756 757 878 877
629 10 8 mech
768 769 890 889 757 758 879 878
630 10 8 mech
769 770 891 890 758 759 880 879
631 10 8 mech
771 772 893 892 760 761 882 881
632 10 8 mech
772 773 894 893 761 762 883 882
633 10 8 mech
773 774 895 894 762 763 884 883
634 10 8 mech
774 775 896 895 763 764 885 884
635 10 8 mech
775 776 897 896 764 765 886 885
636 10 8 mech
776 777 898 897 765 766 887 886
637 10 8 mech
777 778 899 898 766 767 888 887
638 10 8 mech
778 779 900 899 767 768 889 888
639 10 8 mech
779 780 901 900 768 769 890 889
640 10 8 mech
780 781 902 901 769 770 891 890
641 10 8 mech
782 783 904 903 771 772 893 892
642 10 8 mech
783 784 905 904 772 773 894 893
643 10 8 mech
784 785 906 905 773 774 895 894
644 10 8 mech
785 786 907 906 774 775 896 895
645 10 8 mech
786 787 908 907 775 776 897 896
646 10 8 mech
787 788 909 908 776 777 898 897
647 10 8 mech
788 789 910 909 777 778 899 898
648 10 8 mech
789 790 911 910 778 779 900 899
649 10 8 mech
790 791 912 911 779 780 901 900
650 10 8 mech
791 792 913 912 780 781 902 901
651 10 8 mech
793 794 915 914 782 783 904 903
652 10 8 mech
794 795 916 915 783 784 905 904
653 10 8 mech
795 796 917 916 784 785 906 905
654 10 8 mech
796 797 918 917 785 786 907 906
655 10 8 mech
797 798 919 918 786 787 908 907
656 10 8 mech
798 799 920 919 787 788 909 908
657 10 8 mech
799 800 921 920 788 789 910 909
658 10 8 mech
800 801 922 921 789 790 911 910
659 10 8 mech
801 802 923 922 790 791 912 911
660 10 8 mech
802 803 924 923 791 792 913 912
661 10 8 mech
804 805 926 925 793 794 915 914
662 10 8 mech
805 806 927 926 794 795 916 915
663 10 8 mech
806 807 928 927 795 796 917 916
664 10 8 mech
807 808 929 928 796 797 918 917
665 10 8 mech
808 809 930 929 797 798 919 918
666 10 8 mech
809 810 931 930 798 799 920 919
667 10 8 mech
810 811 932 931 799 800 921 920
668 10 8 mech
811 812 933 932 800 801 922 921
669 10 8 mech
812 813 934 933 801 802 923 922
670 10 8 mech
813 814 935 934 802 803 924 923
671 10 8 mech
815 816 937 936 804 805 926 925
672 10 8 mech
816 817 938 937 805 806 927 926
673 10 8 mech
817 818 939 938 806 807 928 927
674 10 8 mech
818 819 940 939 807 808 929 928
675 10 8 mech
819 820 941 940 808 809 930 929
676 10 8 mech
820 821 942 941 809 810 931 930
677 10 8 mech
821 822 943 942 810 811 932 931
678 10 8 mech
822 823 944 943 811 812 933 932
679 10 8 mech
823 824 945 944 812 813 934 933
680 10 8 mech
824 825 946 945 813 814 935 934
681 10 8 mech
826 827 948 947 815 816 937 936
682 10 8 mech
827 828 949 948 816 817 938 937
683 10 8 mech
828 829 950 949 817 818 939 938
684 10 8 mech
829 830 951 950 818 819 940 939
685 10 8 mech
830 831 952 951 819 820 941 940
686 10 8 mech
831 832 953 952 820 821 942 941
687 10 8 mech
832 833 954 953 821 822 943 942
688 10 8 mech
833 834 955 954 822 823 944 943
689 10 8 mech
834 835 956 955 823 824 945 944
690 10 8 mech
835 836 957 956 824 825 946 945
691 10 8 mech
837 838 959 958 826 827 948 947
692 10 8 mech
838 839 960 959 827 828 949 948
693 10 8 mech
839 840 961 960 828 829 950 949
694 10 8 mech
840 841 962 961 829 830 951 950
695 10 8 mech
841 842 963 962 830 831 952 951
696 10 8 mech
842 843 964 963 831 832 953 952
697 10 8 mech
843 844 965 964 832 833 954 953
698 10 8 mech
844 845 966 965 833 834 955 954
699 10 8 mech
845 846 967 966 834 835 956 955
700 10 8 mech
846 847 968 967 835 836 957 956
701 10 8 mech
859 860 981 980 848 849 970 969
702 10 8 mech
860 861 982 981 849 850 971 970
703 10 8 mech
861 862 983 982 850 851 972 971
704 10 8 mech
862 863 984 983 851 852 973 972
705 10 8 mech
863 864 985 984 852 853 974 973
706 10 8 mech
864 865 986 985 853 854 975 974
707 10 8 mech
865 866 987 986 854 855 976 975
708 10 8 mech
866 867 988 987 855 856 977 976
709 10 8 mech
867 868 989 988 856 857 978 977
710 10 8 mech
868 869 990 989 857 858 979 978
711 10 8 mech
870 871 992 991 859 860 981 980
712 10 8 mech
871 872 993 992 860 861 982 981
713 10 8 mech
872 873 994 993 861 862 983 982
714 10 8 mech
873 874 995 994 862 863 984 983
715 10 8 mech
874 875 996 995 863 864 985 984
716 10 8 mech
875 876 997 996 864 865 986 985
717 10 8 mech
876 877 998 997 865 866 987 986
718 10 8 mech
877 878 999 998 866 867 988 987
719 10 8 mech
878 879 1000 999 867 868 989 988
720 10 8 mech
879 880 1001 1000 868 869 990 989
721 10 8 mech
881 882 1003 1002 870 871 992 991
722 10 8 mech
882 883 1004 1003 871 872 993 992
723 10 8 mech
883 884 1005 1004 872 873 994 993
724 10 8 mech
884 885 1006 1005 873 874 995 994
725 10 8 mech
885 886 1007 1006 874 875 996 995
726 10 8 mech
886 887 1008 1007 875 876 997 996
727 10 8 mech
887 888 1009 1008 876 877 998 997
728 10 8 mech
888 889 1010 1009 877 878 999 998
729 10 8 mech
889 890 1011 1010 878 879 1000 999
730 10 8 mech
890 891 1012 1011 879 880 1001 1000
731 10 8 mech
892 893 1014 1013 881 882 1003 1002
732 10 8 mech
893 894 1015 1014 882 883 1004 1003
733 10 8 mech
894 895 1016 1015 883 884 1005 1004
734 10 8 mech
895 896 1017 1016 884 885 1006 1005
735 10 8 mech
896 897 1018 1017 885 886 1007 1006
736 10 8 mech
897 898 1019 1018 886 887 1008 1007
737 10 8 mech
898 899 1020 1019 887 888 1009 1008
738 10 8 mech
899 900 1021 1020 888 889 1010 1009
739 10 8 mech
900 901 1022 1021 889 890 1011 1010
740 10 8 mech
901 902 1023 1022 890 891 1012 1011
741 10 8 mech
903 904 1025 1024 892 893 1014 1013
742 10 8 mech
904 905 1026 1025 893 894 1015 1014
743 10 8 mech
905 906 1027 1026 894 895 1016 1015
744 10 8 mech
906 907 1028 1027 895 896 1017 1016
745 10 8 mech
907 908 1029 1028 896 897 1018 1017
746 10 8 mech
908 909 1030 1029 897 898 1019 1018
747 10 8 mech
909 910 1031 1030 898 899 1020 1019
748 10 8 mech
910 911 1032 1031 899 900 1021 1020
749 10 8 mech
911 912 1033 1032 900 901 1022 1021
750 10 8 mech
912 913 1034 1033 901 902 1023 1022
751 10 8 mech
914 915 1036 1035 903 904 1025 1024
752 10 8 mech
915 916 1037 1036 904 905 1026 1025
753 10 8 mech
916 917 1038 1037 905 906 1027 1026
754 10 8 mech
917 918 1039 1038 906 907 1028 1027
755 10 8 mech
918 919 1040 1039 907 908 1029 1028
756 10 8 mech
919 920 1041 1040 908 909 1030 1029
757 10 8 mech
920 921 1042 1041 909 910 1031 1030
758 10 8 mech
921 922 1043 1042 910 911 1032 1031
759 10 8 mech
922 923 1044 1043 911 912 1033 1032
760 10 8 mech
923 924 1045 1044 912 913 1034 1033
761 10 8 mech
925 926 1047 1046 914 915 1036 1035
762 10 8 mech
926 927 1048 1047 915 916 1037 1036
763 10 8 mech
927 928 1049 1048 916 917 1038 1037
764 10 8 mech
928 929 1050 1049 917 918 1039 1038
765 10 8 mech
929 930 1051 1050 918 919 1040 1039
766 10 8 mech
930 931 1052 1051 919 920 1041 1040
767 10 8 mech
931 932 1053 1052 920 921 1042 1041
768 10 8 mech
932 933 1054 1053 921 922 1043 1042
769 10 8 mech
933 934 1055 1054 922 923 1044 1043
770 10 8 mech
934 935 1056 1055 923 924 1045 1044
771 10 8 mech
936 937 1058 1057 925 926 1047 1046
772 10 8 mech
937 938 1059 1058 926 927 1048 1047
773 10 8 mech
938 939 1060 1059 927 928 1049 1048
774 10 8 mech
939 940 1061 1060 928 929 1050 1049
775 10 8 mech
940 941 1062 1061 929 930 1051 1050
776 10 8 mech
941 942 1063 1062 930 931 1052 1051
777 10 8 mech
942 943 1064 1063 931 932 1053 1052
778 10 8 mech
943 944 1065 1064 932 933 1054 1053
779 10 8 mech
944 945 1066 1065 933 934 1055 1054
780 10 8 mech
945 946 1067 1066 934 935 1056 1055
781 10 8 mech
947 948 1069 1068 936 937 1058 1057
782 10 8 mech
948 949 1070 1069 937 938 1059 1058
783 10 8 mech
949 950 1071 1070 938 939 1060 1059
784 10 8 mech
950 951 1072 1071 939 940 1061 1060
785 10 8 mech
951 952 1073 1072 940 941 1062 1061
786 10 8 mech
952 953 1074 1073 941 942 1063 1062
787 10 8 mech
953 954 1075 1074 942 943 1064 1063
788 10 8 mech
954 955 1076 1075 943 944 1065 1064
789 10 8 mech
955 956 1077 1076 944 945 1066 1065
790 10 8 mech
956 957 1078 1077 945 946 1067 1066
791 10 8 mech
958 959 1080 1079 947 948 1069 1068
792 10 8 mech
959 960 1081 1080 948 949 1070 1069
793 10 8 mech
960 961 1082 1081 949 950 1071 1070
794 10 8 mech
961 962 1083 1082 950 951 1072 1071
795 10 8 mech
962 963 1084 1083 951 952 1073 1072
796 10 8 mech
963 964 1085 1084 952 953 1074 1073
797 10 8 mech
964 965 1086 1085 953 954 1075 1074
798 10 8 mech
965 966 1087 1086 954 955 1076 1075
799 10 8 mech
966 967 1088 1087 955 956 1077 1076
800 10 8 mech
967 968 1089 1088 956 957 1078 1077
801 10 8 mech
980 981 1102 1101 969 970 1091 1090
802 10 8 mech
981 982 1103 1102 970 971 1092 1091
803 10 8 mech
982 983 1104 1103 971 972 1093 1092
804 10 8 mech
983 984 1105 1104 972 973 1094 1093
805 10 8 mech
984 985 1106 1105 973 974 1095 1094
806 10 8 mech
985 986 1107 1106 974 975 1096 1095
807 10 8 mech
986 987 1108 1107 975 976 1097 1096
808 10 8 mech
987 988 1109 1108 976 977 1098 1097
809 10 8 mech
988 989 1110 1109 977 978 1099 1098
810 10 8 mech
989 990 1111 1110 978 979 1100 1099
811 10 8 mech
991 992 1113 1112 980 981 1102 1101
812 10 8 mech
992 993 1114 1113 981 982 1103 1102
813 10 8 mech
993 994 1115 1114 982 983 1104 1103
814 10 8 mech
994 995 1116 1115 983 984 1105 1104
815 10 8 mech
995 996 1117 1116 984 985 1106 1105
816 10 8 mech
996 997 1118 1117 985 986 1107 1106
817 10 8 mech
997 998 1119 1118 986 987 1108 1107
818 10 8 mech
998 999 1120 1119 987 988 1109 1108
819 10 8 mech
999 1000 1121 1120 988 989 1110 1109
820 10 8 mech
1000 1001 1122 1121 989 990 1111 1110
821 10 8 mech
1002 1003 1124 1123 991 992 1113 1112
822 10 8 mech
1003 1004 1125 1124 992 993 1114 1113
823 10 8 mech
1004 1005 1126 1125 993 994 1115 1114
824 10 8 mech
1005 1006 1127 1126 994 995 1116 1115
825 10 8 mech
1006 1007 1128 1127 995 996 1117 1116
826 10 8 mech
1007 1008 1129 1128 996 997 1118 1117
827 10 8 mech
1008 1009 1130 1129 997 998 1119 1118
828 10 8 mech
1009 1010 1131 1130 998 999 1120 1119
829 10 8 mech
1010 1011 1132 1131 999 1000 1121 1120
830 10 8 mech
1011 1012 1133 1132 1000 1001 1122 1121
831 10 8 mech
1013 1014 1135 1134 1002 1003 1124 1123
832 10 8 mech
1014 1015 1136 1135 1003 1004 1125 1124
833 10 8 mech
1015 1016 1137 1136 1004 1005 1126 1125
834 10 8 mech
1016 1017 1138 1137 1005 1006 1127 1126
835 10 8 mech
1017 1018 1139 1138 1006 1007 1128 1127
836 10 8 mech
1018 1019 1140 1139 1007 1008 1129 1128
837 10 8 mech
1019 1020 1141 1140 1008 1009 1130 1129
838 10 8 mech
1020 1021 1142 1141 1009 1010 1131 1130
839 10 8 mech
1021 1022 1143 1142 1010 1011 1132 1131
840 10 8 mech
1022 1023 1144 1143 1011 1012 1133 1132
841 10 8 mech
1024 1025 1146 1145 1013 1014 1135 1134
842 10 8 mech
1025 1026 1147 1146 1014 1015 1136 1135
843 10 8 mech
1026 1027 1148 1147 1015 1016 1137 1136
844 10 8 mech
1027 1028 1149 1148 1016 1017 1138 1137
845 10 8 mech
1028 1029 1150 1149 1017 1018 1139 1138
846 10 8 mech
1029 1030 1151 1150 1018 1019 1140 1139
847 10 8 mech
1030 1031 1152 1151 1019 1020 1141 1140
848 10 8 mech
1031 1032 1153 1152 1020 1021 1142 1141
849 10 8 mech
1032 1033 1154 1153 1021 1022 1143 1142
850 10 8 mech
1033 1034 1155 1154 1022 1023 1144 1143
851 10 8 mech
1035 1036 1157 1156 1024 1025 1146 1145
852 10 8 mech
1036 1037 1158 1157 1025 1026 1147 1146
853 10 8 mech
1037 1038 1159 1158 1026 1027 1148 1147
854 10 8 mech
1038 1039 1160 1159 1027 1028 1149 1148
855 10 8 mech
1039 1040 1161 1160 1028 1029 1150 1149
856 10 8 mech
1040 1041 1162 1161 1029 1030 1151 1150
857 10 8 mech
1041 1042 1163 1162 1030 1031 1152 1151
858 10 8 mech
1042 1043 1164 1163 1031 1032 1153 1152
859 10 8 mech
1043 1044 1165 1164 1032 1033 1154 1153
860 10 8 mech
1044 1045 1166 1165 1033 1034 1155 1154
861 10 8 mech
1046 1047 1168 1167 1035 1036 1157 1156
862 10 8 mech
1047 1048 1169 1168 1036 1037 1158 1157
863 10 8 mech
1048 1049 1170 1169 1037 1038 1159 1158
864 10 8 mech
1049 1050 1171 1170 1038 1039 1160 1159
865 10 8 mech
1050 1051 1172 1171 1039 1040 1161 1160
866 10 8 mech
1051 1052 1173 1172 1040 1041 1162 1161
867 10 8 mech
1052 1053 1174 1173 1041 1042 1163 1162
868 10 8 mech
1053 1054 1175 1174 1042 1043 1164 1163
869 10 8 mech
1054 1055 1176 1175 1043 1044 1165 1164
870 10 8 mech
1055 1056 1177 1176 1044 1045 1166 1165
871 10 8 mech
1057 1058 1179 1178 1046 1047 1168 1167
872 10 8 mech
1058 1059 1180 1179 1047 1048 1169 1168
873 10 8 mech
1059 1060 1181 1180 1048 1049 1170 1169
874 10 8 mech
1060 1061 1182 1181 1049 1050 1171 1170
875 10 8 mech
1061 1062 1183 1182 1050 1051 1172 1171
876 10 8 mech
1062 1063 1184 1183 1051 1052 1173 1172
877 10 8 mech
1063 1064 1185 1184 1052 1053 1174 1173
878 10 8 mech
1064 1065 1186 1185 1053 1054 1175 1174
879 10 8 mech
1065 1066 1187 1186 1054 1055 1176 1175
880 10 8 mech
1066 1067 1188 1187 1055 1056 1177 1176
881 10 8 mech
1068 1069 1190 1189 1057 1058 1179 1178
882 10 8 mech
1069 1070 1191 1190 1058 1059 1180 1179
883 10 8 mech
1070 1071 1192 1191 1059 1060 1181 1180
884 10 8 mech
1071 1072 1193 1192 1060 1061 1182 1181
885 10 8 mech
1072 1073 1194 1193 1061 1062 1183 1182
886 10 8 mech
1073 1074 1195 1194 1062 1063 1184 1183
887 10 8 mech
1074 1075 1196 1195 1063 1064 1185 1184
888 10 8 mech
1075 1076 1197 1196 1064 1065 1186 1185
889 10 8 mech
1076 1077 1198 1197 1065 1066 1187 1186
890 10 8 mech
1077 1078 1199 1198 1066 1067 1188 1187
891 10 8 mech
1079 1080 1201 1200 1068 1069 1190 1189
892 10 8 mech
1080 1081 1202 1201 1069 1070 1191 1190
893 10 8 mech
1081 1082 1203 1202 1070 1071 1192 1191
894 10 8 mech
1082 1083 1204 1203 1071 1072 1193 1192
895 10 8 mech
1083 1084 1205 1204 1072 1073 1194 1193
896 10 8 mech
1084 1085 1206 1205 1073 1074 1195 1194
897 10 8 mech
1085 1086 1207 1206 1074 1075 1196 1195
898 10 8 mech
1086 1087 1208 1207 1075 1076 1197 1196
899 10 8 mech
1087 1088 1209 1208 1076 1077 1198 1197
900 10 8 mech
1088 1089 1210 1209 1077 1078 1199 1198
901 10 8 mech
1101 1102 1223 1222 1090 1091 1212 1211
902 10 8 mech
1102 1103 1224 1223 1091 1092 1213 1212
903 10 8 mech
1103 1104 1225 1224 1092 1093 1214 1213
904 10 8 mech
1104 1105 1226 1225 1093 1094 1215 1214
905 10 8 mech
1105 1106 1227 1226 1094 1095 1216 1215
906 10 8 mech
1106 1107 1228 1227 1095 1096 1217 1216
907 10 8 mech
1107 1108 1229 1228 1096 1097 1218 1217
908 10 8 mech
1108 1109 1230 1229 1097 1098 1219 1218
909 10 8 mech
1109 1110 1231 1230 1098 1099 1220 1219
910 10 8 mech
1110 1111 1232 1231 1099 1100 1221 1220
911 10 8 mech
1112 1113 1234 1233 1101 1102 1223 1222
912 10 8 mech
1113 1114 1235 1234 1102 1103 1224 1223
913 10 8 mech
1114 1115 1236 1235 1103 1104 1225 1224
914 10 8 mech
1115 1116 1237 1236 1104 1105 1226 1225
915 10 8 mech
1116 1117 1238 1237 1105 1106 1227 1226
916 10 8 mech
1117 1118 1239 1238 1106 1107 1228 1227
917 10 8 mech
1118 1119 1240 1239 1107 1108 1229 1228
918 10 8 mech
1119 1120 1241 1240 1108 1109 1230 1229
919 10 8 mech
1120 1121 1242 1241 1109 1110 1231 1230
920 10 8 mech
1121 1122 1243 1242 1110 1111 1232 1231
921 10 8 mech
1123 1124 1245 1244 1112 1113 1234 1233
922 10 8 mech
1124 1125 1246 1245 1113 1114 1235 1234
923 10 8 mech
1125 1126 1247 1246 1114 1115 1236 1235
924 10 8 mech
1126 1127 1248 1247 1115 1116 1237 1236
925 10 8 mech
1127 1128 1249 1248 1116 1117 1238 1237
926 10 8 mech
1128 1129 1250 1249 1117 1118 1239 1238
927 10 8 mech
1129 1130 1251 1250 1118 1119 1240 1239
928 10 8 mech
1130 1131 1252 1251 1119 1120 1241 1240
929 10 8 mech
1131 1132 1253 1252 1120 1121 1242 1241
930 10 8 mech
1132 1133 1254 1253 1121 1122 1243 1242
931 10 8 mech
1134 1135 1256 1255 1123 1124 1245 1244
932 10 8 mech
1135 1136 1257 1256 1124 1125 1246 1245
933 10 8 mech
1136 1137 1258 1257 1125 1126 1247 1246
934 10 8 mech
1137 1138 1259 1258 1126 1127 1248 1247
935 10 8 mech
1138 1139 1260 1259 1127 1128 1249 1248
936 10 8 mech
1139 1140 1261 1260 1128 1129 1250 1249
937 10 8 mech
1140 1141 1262 1261 1129 1130 1251 1250
938 10 8 mech
1141 1142 1263 1262 1130 1131 1252 1251
939 10 8 mech
1142 1143 1264 1263 1131 1132 1253 1252
940 10 8 mech
1143 1144 1265 1264 1132 1133 1254 1253
941 10 8 mech
1145 1146 1267 1266 1134 1135 1256 1255
942 10 8 mech
1146 1147 1268 1267 1135 1136 1257 1256
943 10 8 mech
1147 1148 1269 1268 1136 1137 1258 1257
944 10 8 mech
1148 1149 1270 1269 1137 1138 1259 1258
945 10 8 mech
1149 1150 1271 1270 1138 1139 1260 1259
946 10 8 mech
1150 1151 1272 1271 1139 1140 1261 1260
947 10 8 mech
1151 1152 1273 1272 1140 1141 1262 1261
948 10 8 mech
1152 1153 1274 1273 1141 1142 1263 1262
949 10 8 mech
1153 1154 1275 1274 1142 1143 1264 1263
950 10 8 mech
1154 1155 1276 1275 1143 1144 1265 1264
951 10 8 mech
1156 1157 1278 1277 1145 1146 1267 1266
952 10 8 mech
1157 1158 1279 1278 1146 1147 1268 1267
953 10 8 mech
1158 1159 1280 1279 1147 1148 1269 1268
954 10 8 mech
1159 1160 1281 1280 1148 1149 1270 1269
955 10 8 mech
1160 1161 1282 1281 1149 1150 1271 1270
956 10 8 mech
1161 1162 1283 1282 1150 1151 1272 1271
957 10 8 mech
1162 1163 1284 1283 1151 1152 1273 1272
958 10 8 mech
1163 1164 1285 1284 1152 1153 1274 1273
959 10 8 mech
1164 1165 1286 1285 1153 1154 1275 1274
960 10 8 mech
1165 1166 1287 1286 1154 1155 1276 1275
961 10 8 mech
1167 1168 1289 1288 1156 1157 1278 1277
962 10 8 mech
1168 1169 1290 1289 1157 1158 1279 1278
963 10 8 mech
1169 1170 1291 1290 1158 1159 1280 1279
964 10 8 mech
1170 1171 1292 1291 1159 1160 1281 1280
965 10 8 mech
1171 1172 1293 1292 1160 1161 1282 1281
966 10 8 mech
1172 1173 1294 1293 1161 1162 1283 1282
967 10 8 mech
1173 1174 1295 1294 1162 1163 1284 1283
968 10 8 mech
1174 1175 1296 1295 1163 1164 1285 1284
969 10 8 mech
1175 1176 1297 1296 1164 1165 1286 1285
970 10 8 mech
1176 1177 1298 1297 1165 1166 1287 1286
971 10 8 mech
1178 1179 1300 1299 1167 1168 1289 1288
972 10 8 mech
1179 1180 1301 1300 1168 1169 1290 1289
973 10 8 mech
1180 1181 1302 1301 1169 1170 1291 1290
974 10 8 mech
1181 1182 1303 1302 1170 1171 1292 1291
975 10 8 mech
1182 1183 1304 1303 1171 1172 1293 1292
976 10 8 mech
1183 1184 1305 1304 1172 1173 1294 1293
977 10 8 mech
1184 1185 1306 1305 1173 1174 1295 1294
978 10 8 mech
1185 1186 1307 1306 1174 1175 1296 1295
979 10 8 mech
1186 1187 1308 1307 1175 1176 1297 1296
980 10 8 mech
1187 1188 1309 1308 1176 1177 1298 1297
981 10 8 mech
1189 1190 1311 1310 1178 1179 1300 1299
982 10 8 mech
1190 1191 1312 1311 1179 1180 1301 1300
983 10 8 mech
1191 1192 1313 1312 1180 1181 1302 1301
984 10 8 mech
1192 1193 1314 1313 1181 1182 1303 1302
985 10 8 mech
1193 1194 1315 1314 1182 1183 1304 1303
986 10 8 mech
1194 1195 1316 1315 1183 1184 1305 1304
987 10 8 mech
1195 1196 1317 1316 1184 1185 1306 1305
988 10 8 mech
1196 1197 1318 1317 1185 1186 1307 1306
989 10 8 mech
1197 1198 1319 1318 1186 1187 1308 1307
990 10 8 mech
1198 1199 1320 1319 1187 1188 1309 1308
991 10 8 mech
1200 1201 1322 1321 1189 1190 1311 1310
992 10 8 mech
1201 1202 1323 1322 1190 1191 1312 1311
993 10 8 mech
1202 1203 1324 1323 1191 1192 1313 1312
994 10 8 mech
1203 1204 1325 1324 1192 1193 1314 1313
995 10 8 mech
1204 1205 1326 1325 1193 1194 1315 1314
996 10 8 mech
1205 1206 1327 1326 1194 1195 1316 1315
997 10 8 mech
1206 1207 1328 1327 1195 1196 1317 1316
998 10 8 mech
1207 1208 1329 1328 1196 1197 1318 1317
999 10 8 mech
1208 1209 1330 1329 1197 1198 1319 1318
1000 10 8 mech
1209 1210 1331 1330 1198 1199 1320 1319

[Node BC]
#NodeNr Level
1 left
12 left
23 left
34 left
45 left
56 left
67 left
78 left
89 left
100 left
111 left
122 left
133 left
144 left
155 left
166 left
177 left
188 left
199 left
210 left
221 left
232 left
243 left
254 left
265 left
276 left
287 left
298 left
309 left
320 left
331 left
342 left
353 left
364 left
375 left
386 left
397 left
408 left
419 left
430 left
441 left
452 left
463 left
474 left
485 left
496 left
507 left
518 left
529 left
540 left
551 left
562 left
573 left
584 left
595 left
606 left
617 left
628 left
639 left
650 left
661 left
672 left
683 left
694 left
705 left
716 left
727 left
738 left
749 left
760 left
771 left
782 left
793 left
804 left
815 left
826 left
837 left
848 left
859 left
870 left
881 left
892 left
903 left
914 left
925 left
936 left
947 left
958 left
969 left
980 left
991 left
1002 left
1013 left
1024 left
1035 left
1046 left
1057 left
1068 left
1079 left
1090 left
1101 left
1112 left
1123 left
1134 left
1145 left
1156 left
1167 left
1178 left
1189 left
1200 left
1211 left
1222 left
1233 left
1244 left
1255 left
1266 left
1277 left
1288 left
1299 left
1310 left
1321 left
11 right
22 right
33 right
44 right
55 right
66 right
77 right
88 right
99 right
110 right
121 right
132 right
143 right
154 right
165 right
176 right
187 right
198 right
209 right
220 right
231 right
242 right
253 right
264 right
275 right
286 right
297 right
308 right
319 right
330 right
341 right
352 right
363 right
374 right
385 right
396 right
407 right
418 right
429 right
440 right
451 right
462 right
473 right
484 right
495 right
506 right
517 right
528 right
539 right
550 right
561 right
572 right
583 right
594 right
605 right
616 right
627 right
638 right
649 right
660 right
671 right
682 right
693 right
704 right
715 right
726 right
737 right
748 right
759 right
770 right
781 right
792 right
803 right
814 right
825 right
836 right
847 right
858 right
869 right
880 right
891 right
902 right
913 right
924 right
935 right
946 right
957 right
968 right
979 right
990 right
1001 right
1012 right
1023 right
1034 right
1045 right
1056 right
1067 right
1078 right
1089 right
1100 right
1111 right
1122 right
1133 right
1144 right
1155 right
1166 right
1177 right
1188 right
1199 right
1210 right
1221 right
1232 right
1243 right
1254 right
1265 right
1276 right
1287 right
1298 right
1309 right
1320 right
1331 right
1 bottom
2 bottom
3 bottom
4 bottom
5 bottom
6 bottom
7 bottom
8 bottom
9 bottom
10 bottom
11 bottom
122 bottom
123 bottom
124 bottom
125 bottom
126 bottom
127 bottom
128 bottom
129 bottom
130 bottom
131 bottom
132 bottom
243 bottom
244 bottom
245 bottom
246 bottom
247 bottom
248 bottom
249 bottom
250 bottom
251 bottom
252 bottom
253 bottom
364 bottom
365 bottom
366 bottom
367 bottom
368 bottom
369 bottom
370 bottom
371 bottom
372 bottom
373 bottom
374 bottom
485 bottom
486 bottom
487 bottom
488 bottom
489 bottom
490 bottom
491 bottom
492 bottom
493 bottom
494 bottom
495 bottom
606 bottom
607 bottom
608 bottom
609 bottom
610 bottom
611 bottom
612 bottom
613 bottom
614 bottom
615 bottom
616 bottom
727 bottom
728 bottom
729 bottom
730 bottom
731 bottom
732 bottom
733 bottom
734 bottom
735 bottom
736 bottom
737 bottom
848 bottom
849 bottom
850 bottom
851 bottom
852 bottom
853 bottom
854 bottom
855 bottom
856 bottom
857 bottom
858 bottom
969 bottom
970 bottom
971 bottom
972 bottom
973 bottom
974 bottom
975 bottom
976 bottom
977 bottom
978 bottom
979 bottom
1090 bottom
1091 bottom
1092 bottom
1093 bottom
1094 bottom
1095 bottom
1096 bottom
1097 bottom
1098 bottom
1099 bottom
1100 bottom
1211 bottom
1212 bottom
1213 bottom
1214 bottom
1215 bottom
1216 bottom
1217 bottom
1218 bottom
1219 bottom
1220 bottom
1221 bottom
111 top
112 top
113 top
114 top
115 top
116 top
117 top
118 top
119 top
120 top
121 top
232 top
233 top
234 top
235 top
236 top
237 top
238 top
239 top
240 top
241 top
242 top
353 top
354 top
355 top
356 top
357 top
358 top
359 top
360 top
361 top
362 top
363 top
474 top
475 top
476 top
477 top
478 top
479 top
480 top
481 top
482 top
483 top
484 top
595 top
596 top
597 top
598 top
599 top
600 top
601 top
602 top
603 top
604 top
605 top
716 top
717 top
718 top
719 top
720 top
721 top
722 top
723 top
724 top
725 top
726 top
837 top
838 top
839 top
840 top
841 top
842 top
843 top
844 top
845 top
846 top
847 top
958 top
959 top
960 top
961 top
962 top
963 top
964 top
965 top
966 top
967 top
968 top
1079 top
1080 top
1081 top
1082 top
1083 top
1084 top
1085 top
1086 top
1087 top
1088 top
1089 top
1200 top
1201 top
1202 top
1203 top
1204 top
1205 top
1206 top
1207 top
1208 top
1209 top
1210 top
1321 top
1322 top
1323 top
1324 top
1325 top
1326 top
1327 top
1328 top
1329 top
1330 top
1331 top
1 back
2 back
3 back
4 back
5 back
6 back
7 back
8 back
9 back
10 back
11 back
12 back
13 back
14 back
15 back
16 back
17 back
18 back
19 back
20 back
21 back
22 back
23 back
24 back
25 back
26 back
27 back
28 back
29 back
30 back
31 back
32 back
33 back
34 back
35 back
36 back
37 back
38 back
39 back
40 back
41 back
42 back
43 back
44 back
45 back
46 back
47 back
48 back
49 back
50 back
51 back
52 back
53 back
54 back
55 back
56 back
57 back
58 back
59 back
60 back
61 back
62 back
63 back
64 back
65 back
66 back
67 back
68 back
69 back
70 back
71 back
72 back
73 back
74 back
75 back
76 back
77 back
78 back
79 back
80 back
81 back
82 back
83 back
84 back
85 back
86 back
87 back
88 back
89 back
90 back
91 back
92 back
93 back
94 back
95 back
96 back
97 back
98 back
99 back
100 back
101 back
102 back
103 back
104 back
105 back
106 back
107 back
108 back
109 back
110 back
111 back
112 back
113 back
114 back
115 back
116 back
117 back
118 back
119 back
120 back
121 back
1211 front
1212 front
1213 front
1214 front
1215 front
1216 front
1217 front
1218 front
1219 front
1220 front
1221 front
1222 front
1223 front
1224 front
1225 front
1226 front
1227 front
1228 front
1229 front
1230 front
1231 front
1232 front
1233 front
1234 front
1235 front
1236 front
1237 front
1238 front
1239 front
1240 front
1241 front
1242 front
1243 front
1244 front
1245 front
1246 front
1247 front
1248 front
1249 front
1250 front
1251 front
1252 front
1253 front
1254 front
1255 front
1256 front
1257 front
1258 front
1259 front
1260 front
1261 front
1262 front
1263 front
1264 front
1265 front
1266 front
1267 front
1268 front
1269 front
1270 front
1271 front
1272 front
1273 front
1274 front
1275 front
1276 front
1277 front
1278 front
1279 front
1280 front
1281 front
1282 front
1283 front
1284 front
1285 front
1286 front
1287 front
1288 front
1289 front
1290 front
1291 front
1292 front
1293 front
1294 front
1295 front
1296 front
1297 front
1298 front
1299 front
1300 front
1301 front
1302 front
1303 front
1304 front
1305 front
1306 front
1307 front
1308 front
1309 front
1310 front
1311 front
1312 front
1313 front
1314 front
1315 front
1316 front
1317 front
1318 front
1319 front
1320 front
1321 front
1322 front
1323 front
1324 front
1325 front
1326 front
1327 front
1328 front
1329 front
1330 front
1331 front
1 left_bottom_back
11 right_bottom_back
111 left_top_back
121 right_top_back
1211 left_bottom_front
1221 right_bottom_front
1321 left_top_front
1331 right_top_front

[Save Nodes]
#NodeNr Level

[Save Elements]
#ElemNr Level


