$MeshFormat
2.2 0 8
$EndMeshFormat
$PhysicalNames
12
0 10 "fix-xy"
0 11 "fix-x"
0 12 "fix-y"
1 9 "length"
2 1 "sym-xz"
2 2 "sym-yz"
2 3 "outer-xz"
2 4 "outer-yz"
2 7 "excite"
2 8 "end"
3 5 "prop"
3 6 "pml"
$EndPhysicalNames
$Nodes
124
1 1 1 0
2 0 1 0
3 0 0 0
4 1 0 0
5 1 1 1
6 0 1 1
7 0 0 1
8 1 0 1
9 1 1 3
10 0 1 3
11 0 0 3
12 1 0 3
13 1 1 0.1
14 1 1 0.2
15 1 1 0.3
16 1 1 0.4
17 1 1 0.5
18 1 1 0.6
19 1 1 0.7
20 1 1 0.8
21 1 1 0.9
22 0 1 0.1
23 0 1 0.2
24 0 1 0.3
25 0 1 0.4
26 0 1 0.5
27 0 1 0.6
28 0 1 0.7
29 0 1 0.8
30 0 1 0.9
31 0 0 0.1
32 0 0 0.2
33 0 0 0.3
34 0 0 0.4
35 0 0 0.5
36 0 0 0.6
37 0 0 0.7
38 0 0 0.8
39 0 0 0.9
40 1 0 0.1
41 1 0 0.2
42 1 0 0.3
43 1 0 0.4
44 1 0 0.5
45 1 0 0.6
46 1 0 0.7
47 1 0 0.8
48 1 0 0.9
49 1 1 1.1
50 1 1 1.2
51 1 1 1.3
52 1 1 1.4
53 1 1 1.5
54 1 1 1.6
55 1 1 1.7
56 1 1 1.8
57 1 1 1.9
58 1 1 2
59 1 1 2.1
60 1 1 2.2
61 1 1 2.3
62 1 1 2.4
63 1 1 2.5
64 1 1 2.6
65 1 1 2.7
66 1 1 2.8
67 1 1 2.9
68 0 1 1.1
69 0 1 1.2
70 0 1 1.3
71 0 1 1.4
72 0 1 1.5
73 0 1 1.6
74 0 1 1.7
75 0 1 1.8
76 0 1 1.9
77 0 1 2
78 0 1 2.1
79 0 1 2.2
80 0 1 2.3
81 0 1 2.4
82 0 1 2.5
83 0 1 2.6
84 0 1 2.7
85 0 1 2.8
86 0 1 2.9
87 0 0 1.1
88 0 0 1.2
89 0 0 1.3
90 0 0 1.4
91 0 0 1.5
92 0 0 1.6
93 0 0 1.7
94 0 0 1.8
95 0 0 1.9
96 0 0 2
97 0 0 2.1
98 0 0 2.2
99 0 0 2.3
100 0 0 2.4
101 0 0 2.5
102 0 0 2.6
103 0 0 2.7
104 0 0 2.8
105 0 0 2.9
106 1 0 1.1
107 1 0 1.2
108 1 0 1.3
109 1 0 1.4
110 1 0 1.5
111 1 0 1.6
112 1 0 1.7
113 1 0 1.8
114 1 0 1.9
115 1 0 2
116 1 0 2.1
117 1 0 2.2
118 1 0 2.3
119 1 0 2.4
120 1 0 2.5
121 1 0 2.6
122 1 0 2.7
123 1 0 2.8
124 1 0 2.9
$EndNodes
$Elements
185
1 15 2 10 1 1
2 15 2 12 2 2
3 15 2 11 4 4
4 1 2 9 11 1 13
5 1 2 9 11 13 14
6 1 2 9 11 14 15
7 1 2 9 11 15 16
8 1 2 9 11 16 17
9 1 2 9 11 17 18
10 1 2 9 11 18 19
11 1 2 9 11 19 20
12 1 2 9 11 20 21
13 1 2 9 11 21 5
14 1 2 9 33 5 49
15 1 2 9 33 49 50
16 1 2 9 33 50 51
17 1 2 9 33 51 52
18 1 2 9 33 52 53
19 1 2 9 33 53 54
20 1 2 9 33 54 55
21 1 2 9 33 55 56
22 1 2 9 33 56 57
23 1 2 9 33 57 58
24 1 2 9 33 58 59
25 1 2 9 33 59 60
26 1 2 9 33 60 61
27 1 2 9 33 61 62
28 1 2 9 33 62 63
29 1 2 9 33 63 64
30 1 2 9 33 64 65
31 1 2 9 33 65 66
32 1 2 9 33 66 67
33 1 2 9 33 67 9
34 3 2 7 1 1 2 3 4
35 3 2 3 13 1 2 22 13
36 3 2 3 13 13 22 23 14
37 3 2 3 13 14 23 24 15
38 3 2 3 13 15 24 25 16
39 3 2 3 13 16 25 26 17
40 3 2 3 13 17 26 27 18
41 3 2 3 13 18 27 28 19
42 3 2 3 13 19 28 29 20
43 3 2 3 13 20 29 30 21
44 3 2 3 13 21 30 6 5
45 3 2 2 17 2 3 31 22
46 3 2 2 17 22 31 32 23
47 3 2 2 17 23 32 33 24
48 3 2 2 17 24 33 34 25
49 3 2 2 17 25 34 35 26
50 3 2 2 17 26 35 36 27
51 3 2 2 17 27 36 37 28
52 3 2 2 17 28 37 38 29
53 3 2 2 17 29 38 39 30
54 3 2 2 17 30 39 7 6
55 3 2 1 21 3 4 40 31
56 3 2 1 21 31 40 41 32
57 3 2 1 21 32 41 42 33
58 3 2 1 21 33 42 43 34
59 3 2 1 21 34 43 44 35
60 3 2 1 21 35 44 45 36
61 3 2 1 21 36 45 46 37
62 3 2 1 21 37 46 47 38
63 3 2 1 21 38 47 48 39
64 3 2 1 21 39 48 8 7
65 3 2 4 25 4 1 13 40
66 3 2 4 25 40 13 14 41
67 3 2 4 25 41 14 15 42
68 3 2 4 25 42 15 16 43
69 3 2 4 25 43 16 17 44
70 3 2 4 25 44 17 18 45
71 3 2 4 25 45 18 19 46
72 3 2 4 25 46 19 20 47
73 3 2 4 25 47 20 21 48
74 3 2 4 25 48 21 5 8
75 3 2 3 35 5 6 68 49
76 3 2 3 35 49 68 69 50
77 3 2 3 35 50 69 70 51
78 3 2 3 35 51 70 71 52
79 3 2 3 35 52 71 72 53
80 3 2 3 35 53 72 73 54
81 3 2 3 35 54 73 74 55
82 3 2 3 35 55 74 75 56
83 3 2 3 35 56 75 76 57
84 3 2 3 35 57 76 77 58
85 3 2 3 35 58 77 78 59
86 3 2 3 35 59 78 79 60
87 3 2 3 35 60 79 80 61
88 3 2 3 35 61 80 81 62
89 3 2 3 35 62 81 82 63
90 3 2 3 35 63 82 83 64
91 3 2 3 35 64 83 84 65
92 3 2 3 35 65 84 85 66
93 3 2 3 35 66 85 86 67
94 3 2 3 35 67 86 10 9
95 3 2 2 39 6 7 87 68
96 3 2 2 39 68 87 88 69
97 3 2 2 39 69 88 89 70
98 3 2 2 39 70 89 90 71
99 3 2 2 39 71 90 91 72
100 3 2 2 39 72 91 92 73
101 3 2 2 39 73 92 93 74
102 3 2 2 39 74 93 94 75
103 3 2 2 39 75 94 95 76
104 3 2 2 39 76 95 96 77
105 3 2 2 39 77 96 97 78
106 3 2 2 39 78 97 98 79
107 3 2 2 39 79 98 99 80
108 3 2 2 39 80 99 100 81
109 3 2 2 39 81 100 101 82
110 3 2 2 39 82 101 102 83
111 3 2 2 39 83 102 103 84
112 3 2 2 39 84 103 104 85
113 3 2 2 39 85 104 105 86
114 3 2 2 39 86 105 11 10
115 3 2 1 43 7 8 106 87
116 3 2 1 43 87 106 107 88
117 3 2 1 43 88 107 108 89
118 3 2 1 43 89 108 109 90
119 3 2 1 43 90 109 110 91
120 3 2 1 43 91 110 111 92
121 3 2 1 43 92 111 112 93
122 3 2 1 43 93 112 113 94
123 3 2 1 43 94 113 114 95
124 3 2 1 43 95 114 115 96
125 3 2 1 43 96 115 116 97
126 3 2 1 43 97 116 117 98
127 3 2 1 43 98 117 118 99
128 3 2 1 43 99 118 119 100
129 3 2 1 43 100 119 120 101
130 3 2 1 43 101 120 121 102
131 3 2 1 43 102 121 122 103
132 3 2 1 43 103 122 123 104
133 3 2 1 43 104 123 124 105
134 3 2 1 43 105 124 12 11
135 3 2 4 47 8 5 49 106
136 3 2 4 47 106 49 50 107
137 3 2 4 47 107 50 51 108
138 3 2 4 47 108 51 52 109
139 3 2 4 47 109 52 53 110
140 3 2 4 47 110 53 54 111
141 3 2 4 47 111 54 55 112
142 3 2 4 47 112 55 56 113
143 3 2 4 47 113 56 57 114
144 3 2 4 47 114 57 58 115
145 3 2 4 47 115 58 59 116
146 3 2 4 47 116 59 60 117
147 3 2 4 47 117 60 61 118
148 3 2 4 47 118 61 62 119
149 3 2 4 47 119 62 63 120
150 3 2 4 47 120 63 64 121
151 3 2 4 47 121 64 65 122
152 3 2 4 47 122 65 66 123
153 3 2 4 47 123 66 67 124
154 3 2 4 47 124 67 9 12
155 3 2 8 48 9 10 11 12
156 5 2 5 1 1 2 3 4 13 22 31 40
157 5 2 5 1 13 22 31 40 14 23 32 41
158 5 2 5 1 14 23 32 41 15 24 33 42
159 5 2 5 1 15 24 33 42 16 25 34 43
160 5 2 5 1 16 25 34 43 17 26 35 44
161 5 2 5 1 17 26 35 44 18 27 36 45
162 5 2 5 1 18 27 36 45 19 28 37 46
163 5 2 5 1 19 28 37 46 20 29 38 47
164 5 2 5 1 20 29 38 47 21 30 39 48
165 5 2 5 1 21 30 39 48 5 6 7 8
166 5 2 6 2 5 6 7 8 49 68 87 106
167 5 2 6 2 49 68 87 106 50 69 88 107
168 5 2 6 2 50 69 88 107 51 70 89 108
169 5 2 6 2 51 70 89 108 52 71 90 109
170 5 2 6 2 52 71 90 109 53 72 91 110
171 5 2 6 2 53 72 91 110 54 73 92 111
172 5 2 6 2 54 73 92 111 55 74 93 112
173 5 2 6 2 55 74 93 112 56 75 94 113
174 5 2 6 2 56 75 94 113 57 76 95 114
175 5 2 6 2 57 76 95 114 58 77 96 115
176 5 2 6 2 58 77 96 115 59 78 97 116
177 5 2 6 2 59 78 97 116 60 79 98 117
178 5 2 6 2 60 79 98 117 61 80 99 118
179 5 2 6 2 61 80 99 118 62 81 100 119
180 5 2 6 2 62 81 100 119 63 82 101 120
181 5 2 6 2 63 82 101 120 64 83 102 121
182 5 2 6 2 64 83 102 121 65 84 103 122
183 5 2 6 2 65 84 103 122 66 85 104 123
184 5 2 6 2 66 85 104 123 67 86 105 124
185 5 2 6 2 67 86 105 124 9 10 11 12
$EndElements
