
0                         0
2.0000000000000003E-6     1.1847439021291961E-6
4.000000000000001E-6      2.255670480825749E-6
6.0E-6                    3.217231572676518E-6
8.000000000000001E-6      4.07444694068164E-6
1.0E-5                    4.832767429865291E-6
1.2E-5                    5.497952951616721E-6
1.4000000000000001E-5     6.075964524303013E-6
1.6000000000000003E-5     6.572869553439175E-6
1.8000000000000004E-5     6.994759505814695E-6
2.0E-5                    7.347679116576996E-6
2.2E-5                    7.63756626459931E-6
2.4E-5                    7.870201657872615E-6
2.6000000000000002E-5     8.051167485643362E-6
2.8000000000000003E-5     8.18581421617198E-6
3.0000000000000008E-5     8.279234747039776E-6
3.2000000000000005E-5     8.336245147722266E-6
3.4000000000000007E-5     8.36137127063026E-6
3.600000000000001E-5      8.358840546056769E-6
3.8E-5                    8.332578317625316E-6
4.0E-5                    8.286208117170036E-6
4.2E-5                    8.223055320851926E-6
4.4E-5                    8.146153671157113E-6
4.6E-5                    8.058254191761325E-6
4.8E-5                    7.96183606366056E-6
5.0E-5                    7.85911907113178E-6
5.2000000000000004E-5     7.752077264704678E-6
5.4000000000000005E-5     7.642453525191257E-6
5.6000000000000006E-5     7.53177474773976E-6
5.800000000000001E-5      7.421367397740675E-6
6.0000000000000015E-5     7.31237322111743E-6
6.200000000000002E-5      7.2057649200327636E-6
6.400000000000001E-5      7.102361631309475E-6
6.600000000000002E-5      7.002844068907466E-6
6.800000000000001E-5      6.907769213643081E-6
7.0E-5                    6.8175844530310006E-6
7.200000000000002E-5      6.7326410917358554E-6
7.4E-5                    6.653207168718861E-6
7.6E-5                    6.579479530843122E-6
7.800000000000001E-5      6.5115951245580144E-6
8.0E-5                    6.449641477423912E-6
8.200000000000001E-5      6.393666349773886E-6
8.4E-5                    6.343686543854978E-6
8.600000000000002E-5      6.299695863464744E-6
8.8E-5                    6.261672221519836E-6
9.000000000000002E-5      6.22958389628225E-6
9.2E-5                    6.203394939247351E-6
9.4E-5                    6.183069739086266E-6
9.6E-5                    6.1685767466549714E-6
9.8E-5                    6.159891366052473E-6
1.0E-4                    6.1569980161512E-6
