
0                         5.996113566685587E-4
8.33E-4                   5.958353585253156E-4
0.001667                  5.918443722334125E-4
0.0025                    5.878504145619043E-4
0.003333                  5.838803458451184E-4
0.004167                  5.79931584328535E-4
0.005                     5.76014112209252E-4
0.005833                  5.721229924585342E-4
0.006667                  5.682534027308684E-4
0.0075                    5.644144296524187E-4
0.008333                  5.606012700934319E-4
0.009167                  5.568091728846155E-4
0.01                      5.530470485811977E-4
0.010833                  5.493101891848202E-4
0.011667                  5.455939394979105E-4
0.0125                    5.419070323153492E-4
0.013333                  5.382448544684158E-4
0.014167                  5.346028444076818E-4
0.015                     5.309895611914621E-4
0.015833                  5.274004845832799E-4
0.016667                  5.238311448532111E-4
0.0175                    5.202899311353605E-4
0.018333                  5.167724142985732E-4
0.019167                  5.132742146387187E-4
0.02                      5.098035550791539E-4
0.020833                  5.063560958070829E-4
0.021667                  5.029275453894066E-4
0.0225                    4.995259641500864E-4
0.023333                  4.961470998441915E-4
0.024167                  4.927867475947866E-4
0.025                     4.89452808632599E-4
0.025833                  4.8614111656665395E-4
0.026667                  4.8284755139838854E-4
0.0275                    4.795798586608949E-4
0.028333                  4.7633395614194536E-4
0.029167                  4.7310580707741405E-4
0.03                      4.699030045910748E-4
0.030833                  4.66721549004953E-4
0.031667                  4.6355748518017546E-4
0.0325                    4.6041825700853965E-4
0.033333                  4.572999457351817E-4
0.034167                  4.5419867626928607E-4
0.035                     4.511217463355442E-4
0.035833                  4.480653165224911E-4
0.036667                  4.4502559023994106E-4
0.0375                    4.4200972199824905E-4
0.038333                  4.390139501791258E-4
0.039167                  4.3603455517692306E-4
0.04                      4.3307855112632084E-4
0.040833                  4.301422526794012E-4
0.041667                  4.272220157268268E-4
0.0425                    4.243247167549237E-4
0.043333                  4.2144674519205223E-4
0.044167                  4.185845309604791E-4
0.045                     4.157448155168435E-4
0.045833                  4.1292406159542874E-4
0.046667                  4.1011877171225194E-4
0.0475                    4.0733555480253756E-4
0.048333                  4.0457094546252515E-4
0.049167                  4.018215173859601E-4
0.05                      3.9909374939055986E-4
0.050833                  3.9638424651246485E-4
0.051667                  3.9368965222980496E-4
0.0525                    3.910163175431088E-4
0.053333                  3.8836091652973305E-4
0.054167                  3.8572016107919164E-4
0.055                     3.8310027657716475E-4
0.055833                  3.8049800476520895E-4
0.056667                  3.7791012458863056E-4
0.0575                    3.753427379290212E-4
0.058333                  3.727926528336059E-4
0.059167                  3.70256713968454E-4
0.06                      3.6774090173244135E-4
0.060833                  3.65242089140154E-4
0.061667                  3.627571852589917E-4
0.0625                    3.6029205094587096E-4
0.063333                  3.578436228629444E-4
0.064167                  3.5540887317642714E-4
0.065                     3.5299354506647607E-4
0.065833                  3.5059463754113466E-4
0.066667                  3.4820918457812415E-4
0.0675                    3.4584281347857396E-4
0.068333                  3.4349258431281464E-4
0.069167                  3.4115559159683017E-4
0.07                      3.388373484921411E-4
0.070833                  3.3653497486279415E-4
0.071667                  3.342456245061976E-4
0.0725                    3.319746981310211E-4
0.073333                  3.2971937414467023E-4
0.074167                  3.2747686438206125E-4
0.075                     3.2525245874317436E-4
0.075833                  3.23043392946365E-4
0.076667                  3.20846935633325E-4
0.0775                    3.1866826750666334E-4
0.078333                  3.165046803780452E-4
0.079167                  3.1435349848034946E-4
0.08                      3.122197949057903E-4
0.080833                  3.101009163592039E-4
0.081667                  3.0799424146378757E-4
0.0825                    3.059047372718937E-4
0.083333                  3.038298041993251E-4
0.084167                  3.017668740718375E-4
0.085                     2.997208094687804E-4
0.085833                  2.976890633512043E-4
0.086667                  2.956691195765184E-4
0.0875                    2.9366573781779273E-4
0.088333                  2.916764224365059E-4
0.089167                  2.8969870816538827E-4
0.09                      2.877372533530578E-4
0.090833                  2.857896126314939E-4
0.091667                  2.838533704720112E-4
0.0925                    2.819330854985999E-4
0.093333                  2.800263615066024E-4
0.094167                  2.781308315844514E-4
0.095                     2.762509562612563E-4
0.095833                  2.743843874074121E-4
0.096667                  2.7252880562878814E-4
0.0975                    2.7068857502271786E-4
0.098333                  2.6886139447022326E-4
0.099167                  2.6704499101170724E-4
0.1                       2.65243634021157E-4
0.100833                  2.634550683451697E-4
0.101667                  2.61677066400946E-4
0.1025                    2.599138045924715E-4
0.103333                  2.5816307271262255E-4
0.104167                  2.5642268751863866E-4
0.105                     2.5469673425159285E-4
0.105833                  2.529830466546698E-4
0.106667                  2.5127948481356416E-4
0.1075                    2.4959004466874424E-4
0.108333                  2.4791260294368037E-4
0.109167                  2.46245062065932E-4
0.11                      2.445913305964174E-4
0.110833                  2.429493272947438E-4
0.111667                  2.4131699597155031E-4
0.1125                    2.396981597876403E-4
0.113333                  2.3809077862256022E-4
0.114167                  2.3649283673724564E-4
0.115                     2.3490807393348022E-4
0.115833                  2.3333449032031232E-4
0.116667                  2.3177010970747882E-4
0.1175                    2.3021859063397505E-4
0.118333                  2.2867797257785651E-4
0.119167                  2.2714631802461406E-4
0.12                      2.256272064028858E-4
0.120833                  2.241187157270754E-4
0.121667                  2.2261894631681525E-4
0.1225                    2.2113140069265425E-4
0.123333                  2.1965419460154124E-4
0.124167                  2.1818546538672872E-4
0.125                     2.1672864090756805E-4
0.125833                  2.1528187386910452E-4
0.126667                  2.138433378594573E-4
0.1275                    2.1241638836137303E-4
0.128333                  2.10999214292196E-4
0.129167                  2.0959002473786267E-4
0.13                      2.0819210511884438E-4
0.130833                  2.0680367984693586E-4
0.131667                  2.054229927910644E-4
0.1325                    2.040532616436352E-4
0.133333                  2.026927456221364E-4
0.134167                  2.0133972269523978E-4
0.135                     1.9999734517036613E-4
0.135833                  1.9866390640921214E-4
0.136667                  1.9733771782759225E-4
0.1375                    1.960218686908574E-4
0.138333                  1.9471468586965964E-4
0.139167                  1.9341451360607243E-4
0.14                      1.9212438045034606E-4
0.140833                  1.9084264617409626E-4
0.141667                  1.8956768725341192E-4
0.1425                    1.8830247382582035E-4
0.143333                  1.8704539797827566E-4
0.144167                  1.857948678601971E-4
0.145                     1.8455379745674485E-4
0.145833                  1.8332061061135794E-4
0.146667                  1.8209374661101285E-4
0.1475                    1.8087606549682368E-4
0.148333                  1.796660223315254E-4
0.149167                  1.7846208703204121E-4
0.15                      1.7726706783678265E-4
0.150833                  1.7607945051161238E-4
0.151667                  1.7489773512063792E-4
0.1525                    1.7372468016059705E-4
0.153333                  1.7255880160556742E-4
0.154167                  1.7139862920740134E-4
0.155                     1.702468736893553E-4
0.155833                  1.6910208075649732E-4
0.156667                  1.679628094125762E-4
0.1575                    1.6683172446845353E-4
0.158333                  1.657074009007109E-4
0.159167                  1.6458842654926205E-4
0.16                      1.6347742205650336E-4
0.160833                  1.6237299122697106E-4
0.161667                  1.6127375033962225E-4
0.1625                    1.601822774825945E-4
0.163333                  1.5909720485964772E-4
0.164167                  1.5801717680818733E-4
0.165                     1.569447303375351E-4
0.165833                  1.558785256342535E-4
0.166667                  1.5481723472942477E-4
0.1675                    1.5376335487922042E-4
0.168333                  1.527155738480993E-4
0.169167                  1.5167259100830127E-4
0.17                      1.5063686503276956E-4
0.170833                  1.496071108682505E-4
0.171667                  1.4858205488573766E-4
0.1725                    1.4756411818143768E-4
0.173333                  1.465520424971189E-4
0.174167                  1.4554458086813015E-4
0.175                     1.4454411765190434E-4
0.175833                  1.4354942100249795E-4
0.176667                  1.4255927029165248E-4
0.1775                    1.415760138042968E-4
0.178333                  1.4059844572780975E-4
0.179167                  1.3962537144441268E-4
0.18                      1.3865910365792967E-4
0.180833                  1.376984622121733E-4
0.181667                  1.367422781736105E-4
0.1825                    1.3579282898257288E-4
0.183333                  1.3484895976078104E-4
0.184167                  1.3390952692987588E-4
0.185                     1.3297677281034004E-4
0.185833                  1.3204956742045906E-4
0.186667                  1.3112679220056065E-4
0.1875                    1.302106543266822E-4
0.188333                  1.2930004832482548E-4
0.189167                  1.2839388030874894E-4
0.19                      1.2749432211907972E-4
0.190833                  1.2660029239301777E-4
0.191667                  1.257107215585765E-4
0.1925                    1.248277457727534E-4
0.193333                  1.2395030737525218E-4
0.194167                  1.2307736073289999E-4
0.195                     1.2221100582185304E-4
0.195833                  1.213502082612552E-4
0.196667                  1.204939459606891E-4
0.1975                    1.1964428208082126E-4
0.198333                  1.1880020508031719E-4
0.199167                  1.179607159920942E-4
0.2                       1.1712784040135611E-4
0.200833                  1.1630058914615285E-4
0.201667                  1.1547798593782733E-4
0.2025                    1.1466201791621327E-4
0.203333                  1.1385171781765028E-4
0.204167                  1.1304613155707041E-4
0.205                     1.1224720686638743E-4
0.205833                  1.114539978752978E-4
0.206667                  1.1066557219614035E-4
0.2075                    1.0988383711804081E-4
0.208333                  1.0910786763371478E-4
0.209167                  1.0833675251466396E-4
0.21                      1.075723575190315E-4
0.210833                  1.0681377794742482E-4
0.211667                  1.0606012315833364E-4
0.2125                    1.0531321626277905E-4
0.213333                  1.045721722883043E-4
0.214167                  1.0383612057505871E-4
0.215                     1.0310684046682648E-4
0.215833                  1.0238346611350738E-4
0.216667                  1.0166514619902439E-4
0.2175                    1.0095361520345896E-4
0.218333                  1.0024802577182408E-4
0.219167                  9.954754526506205E-5
0.22                      9.885386225384924E-5
0.220833                  9.816614723249628E-5
0.221667                  9.748358554525614E-5
0.2225                    9.680781888963629E-5
0.223333                  9.613803494813504E-5
0.224167                  9.547343633374111E-5
0.225                     9.481561701734856E-5
0.225833                  9.416378119997569E-5
0.226667                  9.351714803270753E-5
0.2275                    9.287726304835621E-5
0.228333                  9.224334629301633E-5
0.229167                  9.161463271770543E-5
0.23                      9.099261887647371E-5
0.230833                  9.037653999141132E-5
0.231667                  8.976564607451883E-5
0.2325                    8.916138436131591E-5
0.233333                  8.856300459222672E-5
0.234167                  8.796977110978247E-5
0.235                     8.738308171821906E-5
0.235833                  8.680220003926429E-5
0.236667                  8.622640403253365E-5
0.2375                    8.565704221052633E-5
0.238333                  8.509339146626891E-5
0.239167                  8.453474269008853E-5
0.24                      8.398239551578971E-5
0.240833                  8.343563953324967E-5
0.241667                  8.289377791224994E-5
0.2425                    8.2358062110803E-5
0.243333                  8.18277938840314E-5
0.244167                  8.130228807304577E-5
0.245                     8.07827489654468E-5
0.245833                  8.026848999836316E-5
0.246667                  7.975883712611795E-5
0.2475                    7.9254948780398E-5
0.248333                  7.875614964944903E-5
0.249167                  7.826177629827926E-5
0.25                      7.777294292678242E-5
0.250833                  7.728898509885258E-5
0.251667                  7.680924954697189E-5
0.2525                    7.633480816645257E-5
0.253333                  7.586500707803436E-5
0.254167                  7.539920279832056E-5
0.255                     7.493842713779285E-5
0.255833                  7.448203651027719E-5
0.256667                  7.40293968941984E-5
0.2575                    7.358150250653302E-5
0.258333                  7.313771984311157E-5
0.259167                  7.269742408026929E-5
0.26                      7.226157458193519E-5
0.260833                  7.182954776084672E-5
0.261667                  7.140072778335614E-5
0.2625                    7.097604211829128E-5
0.263333                  7.055487697365723E-5
0.264167                  7.013662534451014E-5
0.265                     6.972218594777525E-5
0.265833                  6.931095469869016E-5
0.266667                  6.8902333304469E-5
0.2675                    6.84971950171647E-5
0.268333                  6.809494539908312E-5
0.269167                  6.769499478886435E-5
0.27                      6.729819436602283E-5
0.270833                  6.690395929747965E-5
0.271667                  6.651170850262992E-5
0.2725                    6.612227454242135E-5
0.273333                  6.573508215957459E-5
0.274167                  6.534955882367633E-5
0.275                     6.496652195101492E-5
0.275833                  6.458540583614714E-5
0.276667                  6.420564648611811E-5
0.2775                    6.38280496213469E-5
0.278333                  6.34520590652157E-5
0.279167                  6.30771193605955E-5
0.28                      6.270402791683391E-5
0.280833                  6.23322380585697E-5
0.281667                  6.19612028716079E-5
0.2825                    6.159171473482246E-5
0.283333                  6.122323644157505E-5
0.284167                  6.0855229633274404E-5
0.285                     6.048848479856386E-5
0.285833                  6.0122474161949516E-5
0.286667                  5.975666793873982E-5
0.2875                    5.939185769522192E-5
0.288333                  5.902752504390543E-5
0.289167                  5.866314880149585E-5
0.29                      5.829952437592341E-5
0.290833                  5.7936142725329184E-5
0.291667                  5.757249130417111E-5
0.2925                    5.7209371899494525E-5
0.293333                  5.684628477565269E-5
0.294167                  5.648272607791731E-5
0.295                     5.611950625845426E-5
0.295833                  5.575613485970756E-5
0.296667                  5.539211679149708E-5
0.2975                    5.5028273189223294E-5
0.298333                  5.4664122862820534E-5
0.299167                  5.42991795883652E-5
0.3                       5.393427691954762E-5
0.300833                  5.356894294883393E-5
0.301667                  5.320270045603698E-5
0.3025                    5.2836396852452674E-5
0.303333                  5.246956956320899E-5
0.304167                  5.210175055308305E-5
0.305                     5.173380222533912E-5
0.305833                  5.136527143155664E-5
0.306667                  5.0995699553235105E-5
0.3075                    5.062596480960585E-5
0.308333                  5.025562362335381E-5
0.309167                  4.98842270846378E-5
0.31                      4.951266973453658E-5
0.310833                  4.91405177726978E-5
0.311667                  4.876733235412876E-5
0.3125                    4.839402452795474E-5
0.313333                  4.802017054254334E-5
0.314167                  4.764534204637066E-5
0.315                     4.727046645802181E-5
0.315833                  4.6895130417987984E-5
0.316667                  4.6518916572258525E-5
0.3175                    4.614276824303319E-5
0.318333                  4.576628288213981E-5
0.319167                  4.5389054713089225E-5
0.32                      4.501204216486783E-5
0.320833                  4.4634853994805156E-5
0.321667                  4.425709666053479E-5
0.3225                    4.3879742564084547E-5
0.323333                  4.350241233493256E-5
0.324167                  4.3124725391310843E-5
0.325                     4.2747666631026716E-5
0.325833                  4.2370869187085766E-5
0.326667                  4.199396622495344E-5
0.3275                    4.161795330733008E-5
0.328333                  4.124247675311498E-5
0.329167                  4.086718430622189E-5
0.33                      4.0493079994022575E-5
0.330833                  4.011982403652416E-5
0.331667                  3.9747079606647735E-5
0.3325                    3.9375856610155694E-5
0.333333                  3.900582988558442E-5
0.334167                  3.8636678873905334E-5
0.335                     3.8269416361347224E-5
0.335833                  3.790373248842014E-5
0.336667                  3.753932374697889E-5
0.3375                    3.7177202364907695E-5
0.338333                  3.681707438465917E-5
0.339167                  3.645865402155197E-5
0.34                      3.610294902938851E-5
0.340833                  3.574968180844087E-5
0.341667                  3.539858479238325E-5
0.3425                    3.5050656828300494E-5
0.343333                  3.4705636913883695E-5
0.344167                  3.436327593798619E-5
0.345                     3.402455885038238E-5
0.345833                  3.368924118604525E-5
0.346667                  3.335709217855639E-5
0.3475                    3.302907729341366E-5
0.348333                  3.2704968153392834E-5
0.349167                  3.2384551783138E-5
0.35                      3.2068767953266305E-5
0.350833                  3.175740344594278E-5
0.351667                  3.145026198608766E-5
0.3525                    3.11482508117572E-5
0.353333                  3.085117037697409E-5
0.354167                  3.0558839399564967E-5
0.355                     3.0272125153138725E-5
0.355833                  2.9990839661564114E-5
0.356667                  2.971481426237999E-5
0.3575                    2.9444868327139942E-5
0.358333                  2.9180822720539785E-5
0.359167                  2.8922518357839188E-5
0.36                      2.8670718429318892E-5
0.360833                  2.842524933081286E-5
0.361667                  2.818595791260239E-5
0.3625                    2.7953542814182073E-5
0.363333                  2.7727832198128274E-5
0.364167                  2.750867475332097E-5
0.365                     2.7296696460428355E-5
0.365833                  2.709172323829244E-5
0.366667                  2.68936013030973E-5
0.3675                    2.670287656838677E-5
0.368333                  2.6519368743949872E-5
0.369167                  2.634291736137547E-5
0.37                      2.6173982062312993E-5
0.370833                  2.6012372773380683E-5
0.371667                  2.585791859350549E-5
0.3725                    2.5710988407809724E-5
0.373333                  2.5571379538219544E-5
0.374167                  2.5438907731703947E-5
0.375                     2.5313848817333498E-5
0.375833                  2.5195985762807958E-5
0.376667                  2.5085119180445472E-5
0.3775                    2.4981432070345716E-5
0.378333                  2.488469258692619E-5
0.379167                  2.4794685754041365E-5
0.38                      2.471150465337045E-5
0.380833                  2.463490352984726E-5
0.381667                  2.4564652731101927E-5
0.3825                    2.4500760948141635E-5
0.383333                  2.444297069013802E-5
0.384167                  2.439103977650064E-5
0.385                     2.434490036990659E-5
0.385833                  2.4304286437581885E-5
0.386667                  2.4268946380481054E-5
0.3875                    2.4238745565982298E-5
0.388333                  2.421341327546516E-5
0.389167                  2.4192692191291062E-5
0.39                      2.417639191549285E-5
0.390833                  2.4164241153074436E-5
0.391667                  2.4155980754235093E-5
0.3925                    2.4151376276907246E-5
0.393333                  2.4150159818308802E-5
0.394167                  2.415207409528547E-5
0.395                     2.4156852468791345E-5
0.395833                  2.4164233928940998E-5
0.396667                  2.417396627014103E-5
0.3975                    2.4185762158323408E-5
0.398333                  2.419937027949096E-5
0.399167                  2.421454602908829E-5
0.4                       2.423099218438204E-5
0.400833                  2.4248469109551838E-5
0.401667                  2.426674154043773E-5
0.4025                    2.4285512249709415E-5
0.403333                  2.4304554416539635E-5
0.404167                  2.4323643064674784E-5
0.405                     2.4342489810282162E-5
0.405833                  2.4360880987818047E-5
0.406667                  2.4378602126491658E-5
0.4075                    2.439538147011193E-5
0.408333                  2.4411018154835407E-5
0.409167                  2.4425307805868868E-5
0.41                      2.4438002050152595E-5
0.410833                  2.444891190589038E-5
0.411667                  2.4457842183597627E-5
0.4125                    2.446457369282647E-5
0.413333                  2.4468927984245572E-5
0.414167                  2.4470717770410746E-5
0.415                     2.4469757978332317E-5
0.415833                  2.446587904207872E-5
0.416667                  2.4458900040197928E-5
0.4175                    2.444867418472313E-5
0.418333                  2.4435038959487186E-5
0.419167                  2.441781812633657E-5
0.42                      2.4396906674599838E-5
0.420833                  2.437214721688481E-5
0.421667                  2.434336645609901E-5
0.4225                    2.4310504059575532E-5
0.423333                  2.4273405838137405E-5
0.424167                  2.4231899702612405E-5
0.425                     2.4185972380525772E-5
0.425833                  2.4135470999933708E-5
0.426667                  2.4080223007984695E-5
0.4275                    2.4020264116604117E-5
0.428333                  2.395544098302482E-5
0.429167                  2.3885579018817423E-5
0.43                      2.3810764436597865E-5
0.430833                  2.3730841758317924E-5
0.431667                  2.3645632912111404E-5
0.4325                    2.3555275761554847E-5
0.433333                  2.345961117085938E-5
0.434167                  2.3358456278437222E-5
0.435                     2.325200141487897E-5
0.435833                  2.3140082418539792E-5
0.436667                  2.3022510480482945E-5
0.4375                    2.28995289082958E-5
0.438333                  2.277096730444929E-5
0.439167                  2.2636629908216606E-5
0.44                      2.2496813228545695E-5
0.440833                  2.2351339581184342E-5
0.441667                  2.2200005400693613E-5
0.4425                    2.2043160355113488E-5
0.443333                  2.188061857846491E-5
0.444167                  2.17121679959126E-5
0.445                     2.153821114005452E-5
0.445833                  2.135855321924495E-5
0.446667                  2.1172973087509964E-5
0.4475                    2.0981925608097162E-5
0.448333                  2.0785206464479765E-5
0.449167                  2.058258501374137E-5
0.45                      2.0374567688014962E-5
0.450833                  2.0160940184000542E-5
0.451667                  1.9941462064941994E-5
0.4525                    1.9716690352927502E-5
0.453333                  1.9486400425078023E-5
0.454167                  1.9250341875381276E-5
0.455                     1.900912112830213E-5
0.455833                  1.876250303128484E-5
0.456667                  1.851022714652924E-5
0.4575                    1.8252947915194594E-5
0.458333                  1.7990419558192464E-5
0.459167                  1.7722371649620493E-5
0.46                      1.744950507162622E-5
0.460833                  1.717156342845764E-5
0.461667                  1.6888266447807812E-5
0.4625                    1.660035969645469E-5
0.463333                  1.6307576270814675E-5
0.464167                  1.6009626284591403E-5
0.465                     1.5707298061259597E-5
0.465833                  1.5400314389838946E-5
0.466667                  1.5088376086619865E-5
0.4675                    1.477231214114484E-5
0.468333                  1.445183532045858E-5
0.469167                  1.4126637536812527E-5
0.47                      1.379758620220092E-5
0.470833                  1.3464384425229487E-5
0.471667                  1.3126715678050205E-5
0.4725                    1.278548340782709E-5
0.473333                  1.244038150023972E-5
0.474167                  1.209108551527588E-5
0.475                     1.1738532414299776E-5
0.475833                  1.1382407361162879E-5
0.476667                  1.1022378589649838E-5
0.4775                    1.0659413930757011E-5
0.478333                  1.029319038732021E-5
0.479167                  9.923369504821547E-6
0.48                      9.550947225977859E-6
0.480833                  9.17559300737523E-6
0.481667                  8.796962390495446E-6
0.4825                    8.416076569006773E-6
0.483333                  8.032598116336138E-6
0.484167                  7.64617729471731E-6
0.485                     7.257857596265336E-6
0.485833                  6.8672954170162995E-6
0.486667                  6.474136499981496E-6
0.4875                    6.079443602087156E-6
0.488333                  5.682867685326665E-6
0.489167                  5.284050763091012E-6
0.49                      4.884071753907181E-6
0.490833                  4.482576961135494E-6
0.491667                  4.079205482758511E-6
0.4925                    3.6750492375690454E-6
0.493333                  3.269750674289423E-6
0.494167                  2.8629468199120904E-6
0.495                     2.4557394575564214E-6
0.495833                  2.0477684926412003E-6
0.496667                  1.6386729165286552E-6
0.4975                    1.2295819450366305E-6
0.498333                  8.202657415458506E-7
0.499167                  4.111712626602136E-7
0.5                       1.1655578367469842E-8
