
0                         0.00252571707533653
8.33E-4                   0.0025056346372858934
0.001667                  0.002489296607205368
0.0025                    0.0024728877940402797
0.003333                  0.0024562666666885463
0.004167                  0.002439650729155597
0.005                     0.0024231229297138916
0.005833                  0.0024067030178122097
0.006667                  0.002390397652041847
0.0075                    0.0023741999660945776
0.008333                  0.0023581125523943667
0.009167                  0.002342138069252431
0.01                      0.0023262693461552565
0.010833                  0.002310508797561676
0.011667                  0.002294859019602388
0.0125                    0.0022793129838526043
0.013333                  0.002263873051889848
0.014167                  0.00224854176221461
0.015                     0.0022333122299518925
0.015833                  0.002218186763667479
0.016667                  0.0022031678448506237
0.0175                    0.0021882487290369097
0.018333                  0.0021734316720968543
0.019167                  0.0021587190989215813
0.02                      0.002144104402407979
0.020833                  0.0021295897860703853
0.021667                  0.0021151776186749626
0.0225                    0.002100861427452567
0.023333                  0.002086643363961373
0.024167                  0.0020725257413778293
0.025                     0.002058502218278169
0.025833                  0.0020445748947270502
0.026667                  0.0020307460289176586
0.0275                    0.002017009407817256
0.028333                  0.0020033670805448787
0.029167                  0.0019898212509909577
0.03                      0.0019763658316047793
0.030833                  0.0019630028211857367
0.031667                  0.0019497343700921738
0.0325                    0.0019365545133883748
0.033333                  0.0019234652002742517
0.034167                  0.0019104685284441906
0.035                     0.0018975586527548096
0.035833                  0.0018847374736248004
0.036667                  0.001872007037052833
0.0375                    0.001859361614915213
0.038333                  0.0018468030597820768
0.039167                  0.0018343333670213305
0.04                      0.0018219469228100823
0.040833                  0.0018096455329015908
0.041667                  0.0017974311432143184
0.0425                    0.0017852982515632223
0.043333                  0.0017732486180286942
0.044167                  0.001761284140370554
0.045                     0.0017493994254361108
0.045833                  0.0017375961888913176
0.046667                  0.0017258762817307224
0.0475                    0.0017142344172950904
0.048333                  0.0017026722682068603
0.049167                  0.0016911916401881736
0.05                      0.0016797873506089916
0.050833                  0.001668461030515498
0.051667                  0.0016572144419688079
0.0525                    0.0016460425039586306
0.053333                  0.0016349468075375299
0.054167                  0.0016239290727941898
0.055                     0.0016129843180202187
0.055833                  0.0016021140959434675
0.056667                  0.001591320086461021
0.0575                    0.0015805974049225133
0.058333                  0.0015699475674891418
0.059167                  0.001559372215725453
0.06                      0.0015488665598712619
0.060833                  0.0015384320813567574
0.061667                  0.0015280703853395182
0.0625                    0.0015177767748687568
0.063333                  0.0015075526985446127
0.064167                  0.0014973997270859509
0.065                     0.0014873132543699154
0.065833                  0.001477294698098434
0.066667                  0.0014673455965863653
0.0675                    0.0014574614326146723
0.068333                  0.0014476435949833623
0.069167                  0.0014378935916315862
0.07                      0.0014282069924326157
0.070833                  0.0014185851592807244
0.071667                  0.0014090295718066877
0.0725                    0.0013995358852108332
0.073333                  0.0013901054365185739
0.074167                  0.001380739679054002
0.075                     0.0013714343517418884
0.075833                  0.0013621907686963246
0.076667                  0.0013530103589624101
0.0775                    0.001343888943613985
0.078333                  0.001334827815826716
0.079167                  0.0013258283823087379
0.08                      0.0013168865448289861
0.080833                  0.0013080035775131346
0.081667                  0.001299180866635524
0.0825                    0.0012904143932602914
0.083333                  0.001281705414309709
0.084167                  0.001273055297408486
0.085                     0.0012644601016341727
0.085833                  0.0012559210684214709
0.086667                  0.001247439548463526
0.0875                    0.0012390116776119457
0.088333                  0.001230638683455042
0.089167                  0.0012223219013114835
0.09                      0.0012140575426753783
0.090833                  0.0012058468227711316
0.091667                  0.0011976910629886383
0.0925                    0.0011895865493770457
0.093333                  0.0011815344861571678
0.094167                  0.0011735361820556628
0.095                     0.0011655879966758112
0.095833                  0.0011576911244123892
0.096667                  0.0011498468624410437
0.0975                    0.0011420516429592152
0.098333                  0.0011343066515531561
0.099167                  0.0011266131747572072
0.1                       0.001118967716475689
0.100833                  0.0011113714542930308
0.101667                  0.0011038256648319576
0.1025                    0.0010963269228428895
0.103333                  0.0010888763985342834
0.104167                  0.0010814753591182331
0.105                     0.0010741204493954425
0.105833                  0.001066812832585675
0.106667                  0.0010595537668015565
0.1075                    0.00105233996609705
0.108333                  0.0010451725869050112
0.109167                  0.0010380528782954243
0.11                      0.0010309776228391166
0.110833                  0.0010239479701225733
0.111667                  0.001016965160040176
0.1125                    0.0010100260429243928
0.113333                  0.0010031317612600199
0.114167                  9.962835453812516E-4
0.115                     9.894783126553012E-4
0.115833                  9.827171979588387E-4
0.116667                  9.760014214848576E-4
0.1175                    9.693279668788423E-4
0.118333                  9.626979607099346E-4
0.119167                  9.561126121947862E-4
0.12                      9.495689705240312E-4
0.120833                  9.430681530030214E-4
0.121667                  9.366113568656549E-4
0.1225                    9.30195696059479E-4
0.123333                  9.238222774879965E-4
0.124167                  9.174922851749046E-4
0.125                     9.112028970161367E-4
0.125833                  9.049552081728145E-4
0.126667                  8.987503880519656E-4
0.1275                    8.925856776426864E-4
0.128333                  8.864621588414302E-4
0.129167                  8.803809848550666E-4
0.13                      8.743394588734165E-4
0.130833                  8.683386478276501E-4
0.131667                  8.623796870064487E-4
0.1325                    8.564599408344481E-4
0.133333                  8.505804594471462E-4
0.134167                  8.447423583591505E-4
0.135                     8.389430622046176E-4
0.135833                  8.331836023653392E-4
0.136667                  8.274650726163613E-4
0.1375                    8.217849567150099E-4
0.138333                  8.161442652394098E-4
0.139167                  8.105440681849773E-4
0.14                      8.049819072666521E-4
0.140833                  7.994587701261524E-4
0.141667                  7.939757009120206E-4
0.1425                    7.885302980338368E-4
0.143333                  7.831235240509586E-4
0.144167                  7.777563951620981E-4
0.145                     7.724265651458233E-4
0.145833                  7.671349693148323E-4
0.146667                  7.618825938412782E-4
0.1475                    7.566671464615008E-4
0.148333                  7.514895331114204E-4
0.149167                  7.463507079149871E-4
0.15                      7.412484310732773E-4
0.150833                  7.361835770807012E-4
0.151667                  7.311570660834169E-4
0.1525                    7.261667091722523E-4
0.153333                  7.212133474522667E-4
0.154167                  7.162978652761093E-4
0.155                     7.114181229933811E-4
0.155833                  7.0657492649584E-4
0.156667                  7.017691227098298E-4
0.1575                    6.969986195324481E-4
0.158333                  6.922641860091076E-4
0.159167                  6.875666302014641E-4
0.16                      6.829039057907098E-4
0.160833                  6.782767435570485E-4
0.161667                  6.736859115005627E-4
0.1625                    6.691294072720683E-4
0.163333                  6.64607922230447E-4
0.164167                  6.60122183370678E-4
0.165                     6.556702304838692E-4
0.165833                  6.512527146209465E-4
0.166667                  6.468703211521114E-4
0.1675                    6.425211301414968E-4
0.168333                  6.382057517742175E-4
0.169167                  6.339248294976176E-4
0.17                      6.296764817817471E-4
0.170833                  6.254612777285175E-4
0.171667                  6.212798189233587E-4
0.1725                    6.171302603810763E-4
0.173333                  6.130131302801977E-4
0.174167                  6.089289887711494E-4
0.175                     6.048760255811E-4
0.175833                  6.008547285056426E-4
0.176667                  5.968656170817076E-4
0.1775                    5.929069139624607E-4
0.178333                  5.88979067490771E-4
0.179167                  5.850825578202868E-4
0.18                      5.81215638787002E-4
0.180833                  5.773787206289776E-4
0.181667                  5.735722457396652E-4
0.1825                    5.697944974658757E-4
0.183333                  5.66045849700611E-4
0.184167                  5.623267090918701E-4
0.185                     5.586353869152567E-4
0.185833                  5.549722228644153E-4
0.186667                  5.513375902588133E-4
0.1875                    5.477298268047802E-4
0.188333                  5.441492405385258E-4
0.189167                  5.405961742295023E-4
0.19                      5.370689906271543E-4
0.190833                  5.335679690143288E-4
0.191667                  5.300934247350633E-4
0.1925                    5.266437443051982E-4
0.193333                  5.23219181501636E-4
0.194167                  5.198200276859096E-4
0.195                     5.164446919774355E-4
0.195833                  5.130934062055731E-4
0.196667                  5.09766441461251E-4
0.1975                    5.064622284449696E-4
0.198333                  5.031809808503178E-4
0.199167                  4.999229534602244E-4
0.2                       4.966865976498865E-4
0.200833                  4.934721130203028E-4
0.201667                  4.902797421936229E-4
0.2025                    4.8710795644714444E-4
0.203333                  4.8395694551422986E-4
0.204167                  4.808269441247785E-4
0.205                     4.7771644283419113E-4
0.205833                  4.746256258525846E-4
0.206667                  4.715547243963537E-4
0.2075                    4.6850224777755735E-4
0.208333                  4.654683790864979E-4
0.209167                  4.624533504465587E-4
0.21                      4.5945568955535937E-4
0.210833                  4.5647558281299374E-4
0.211667                  4.5351326761349674E-4
0.2125                    4.505672898113718E-4
0.213333                  4.4763784349644063E-4
0.214167                  4.4472517563195726E-4
0.215                     4.4182785012415027E-4
0.215833                  4.389460730411784E-4
0.216667                  4.3608010506899727E-4
0.2175                    4.3322852820167686E-4
0.218333                  4.3039156461250233E-4
0.219167                  4.2756949268599295E-4
0.22                      4.2476091266469625E-4
0.220833                  4.219660667537236E-4
0.221667                  4.191852547674405E-4
0.2225                    4.1641709549433047E-4
0.223333                  4.1366185484049354E-4
0.224167                  4.109198574970242E-4
0.225                     4.081897412251545E-4
0.225833                  4.054717990074099E-4
0.226667                  4.0276638351765875E-4
0.2275                    4.000721520603422E-4
0.228333                  3.973894277141542E-4
0.229167                  3.9471859388418305E-4
0.23                      3.920583281117718E-4
0.230833                  3.894089862168408E-4
0.231667                  3.8677098467075106E-4
0.2325                    3.841430220816527E-4
0.233333                  3.815254892344057E-4
0.234167                  3.789188375663362E-4
0.235                     3.7632178771155515E-4
0.235833                  3.7373476720273263E-4
0.236667                  3.7115826386648347E-4
0.2375                    3.6859102145770853E-4
0.238333                  3.6603350555255965E-4
0.239167                  3.63486241315015E-4
0.24                      3.609479968277159E-4
0.240833                  3.58419276514161E-4
0.241667                  3.559006433058287E-4
0.2425                    3.5339089094151574E-4
0.243333                  3.5089056297405797E-4
0.244167                  3.4840026000523854E-4
0.245                     3.4591880286117356E-4
0.245833                  3.434467739693737E-4
0.246667                  3.409848109648756E-4
0.2475                    3.385317632721897E-4
0.248333                  3.360882514082165E-4
0.249167                  3.3365494883831484E-4
0.25                      3.3123073517013675E-4
0.250833                  3.2881626762077873E-4
0.251667                  3.2641225376138456E-4
0.2525                    3.2401760502323763E-4
0.253333                  3.21633013376394E-4
0.254167                  3.192592181433763E-4
0.255                     3.168951642436515E-4
0.255833                  3.145415758638213E-4
0.256667                  3.121992211989908E-4
0.2575                    3.098670802609638E-4
0.258333                  3.075459063500129E-4
0.259167                  3.0523649304501477E-4
0.26                      3.029378570117746E-4
0.260833                  3.0065077694844657E-4
0.261667                  2.983760677630055E-4
0.2625                    2.9611278421996995E-4
0.263333                  2.938617261030568E-4
0.264167                  2.9162372500182677E-4
0.265                     2.89397875078988E-4
0.265833                  2.871849922717082E-4
0.266667                  2.8498591965306244E-4
0.2675                    2.827997918244492E-4
0.268333                  2.8062743539170303E-4
0.269167                  2.784696991148939E-4
0.27                      2.763257588130068E-4
0.270833                  2.7419644566729017E-4
0.271667                  2.7208260780273185E-4
0.2725                    2.699834626740057E-4
0.273333                  2.678998393878463E-4
0.274167                  2.6583257857371734E-4
0.275                     2.6378093934967375E-4
0.275833                  2.617457415460574E-4
0.276667                  2.5972781096977193E-4
0.2775                    2.577264479321669E-4
0.278333                  2.5574245532557487E-4
0.279167                  2.5377663635024094E-4
0.28                      2.5182833153751495E-4
0.280833                  2.498983187400495E-4
0.281667                  2.479873704068726E-4
0.2825                    2.4609486576869554E-4
0.283333                  2.4422154916743546E-4
0.284167                  2.4236815391568266E-4
0.285                     2.4053409580493905E-4
0.285833                  2.3872007700111213E-4
0.286667                  2.369267830922259E-4
0.2875                    2.3515366375768783E-4
0.288333                  2.3340137017487325E-4
0.289167                  2.3167053164676395E-4
0.29                      2.2996062847712345E-4
0.290833                  2.2827225212834542E-4
0.291667                  2.2660596719262555E-4
0.2925                    2.2496128085616016E-4
0.293333                  2.233387163683681E-4
0.294167                  2.2173876556128334E-4
0.295                     2.2016095832650982E-4
0.295833                  2.1860574167773637E-4
0.296667                  2.1707352721546115E-4
0.2975                    2.1556386305432307E-4
0.298333                  2.140771126526379E-4
0.299167                  2.126136007298237E-4
0.3                       2.1117288897318378E-4
0.300833                  2.0975525091716777E-4
0.301667                  2.083609188323974E-4
0.3025                    2.069894632982525E-4
0.303333                  2.0564106277616532E-4
0.304167                  2.0431585283852934E-4
0.305                     2.0301340842480338E-4
0.305833                  2.017338092305588E-4
0.306667                  2.0047709141697987E-4
0.3075                    1.992428300735403E-4
0.308333                  1.9803100409397054E-4
0.309167                  1.9684154926872873E-4
0.31                      1.9567403708101305E-4
0.310833                  1.9452834543410183E-4
0.311667                  1.934043106619328E-4
0.3125                    1.9230149747517136E-4
0.313333                  1.9121968454708223E-4
0.314167                  1.901586116428526E-4
0.315                     1.8911783420257682E-4
0.315833                  1.8809703542950988E-4
0.316667                  1.8709586336988798E-4
0.3175                    1.861138624168655E-4
0.318333                  1.8515062602258647E-4
0.319167                  1.8420571727457586E-4
0.32                      1.8327866844388834E-4
0.320833                  1.8236899079882262E-4
0.321667                  1.8147617098441017E-4
0.3225                    1.8059972872635978E-4
0.323333                  1.7973910234450027E-4
0.324167                  1.7889371209723132E-4
0.325                     1.7806306529228181E-4
0.325833                  1.772465379523621E-4
0.326667                  1.764434952750631E-4
0.3275                    1.7565343270043978E-4
0.328333                  1.7487567572857385E-4
0.329167                  1.741095467833726E-4
0.33                      1.7335453025134882E-4
0.330833                  1.7260991368517412E-4
0.331667                  1.7187498965277445E-4
0.3325                    1.7114923241258367E-4
0.333333                  1.7043190461095764E-4
0.334167                  1.6972228217235007E-4
0.335                     1.6901983011535942E-4
0.335833                  1.68323799368704E-4
0.336667                  1.6763346240593896E-4
0.3375                    1.6694827571942756E-4
0.338333                  1.6626749155572836E-4
0.339167                  1.6559039182924442E-4
0.34                      1.6491642494731942E-4
0.340833                  1.6424485709291064E-4
0.341667                  1.6357499196386995E-4
0.3425                    1.6290626998355877E-4
0.343333                  1.6223798325783463E-4
0.344167                  1.6156946886586082E-4
0.345                     1.6090015897044773E-4
0.345833                  1.6022938278669092E-4
0.346667                  1.595565214793809E-4
0.3475                    1.5888099830006425E-4
0.348333                  1.5820218983832228E-4
0.349167                  1.5751953105720516E-4
0.35                      1.5683243530413468E-4
0.350833                  1.5614033580827415E-4
0.351667                  1.5544272999192053E-4
0.3525                    1.54739020021132E-4
0.353333                  1.5402870399794938E-4
0.354167                  1.5331134939636077E-4
0.355                     1.5258634571766065E-4
0.355833                  1.5185326313011958E-4
0.356667                  1.511117456974586E-4
0.3575                    1.5036116865858428E-4
0.358333                  1.4960118043689757E-4
0.359167                  1.488315071954767E-4
0.36                      1.480515083119239E-4
0.360833                  1.4726091567268E-4
0.361667                  1.4645954210063306E-4
0.3625                    1.4564672959776004E-4
0.363333                  1.4482229783409454E-4
0.364167                  1.4398614994152214E-4
0.365                     1.4313760925372456E-4
0.365833                  1.4227658670051057E-4
0.366667                  1.4140307856358358E-4
0.3675                    1.4051638852751556E-4
0.368333                  1.3961652151115572E-4
0.369167                  1.3870356905074089E-4
0.37                      1.3777681463180455E-4
0.370833                  1.3683635922381716E-4
0.371667                  1.3588239107552994E-4
0.3725                    1.3491417346712757E-4
0.373333                  1.3393190489643052E-4
0.374167                  1.3293587123892265E-4
0.375                     1.3192531620121023E-4
0.375833                  1.309005368176305E-4
0.376667                  1.2986191704013631E-4
0.3775                    1.2880868239661367E-4
0.378333                  1.277412290808288E-4
0.379167                  1.266600392276067E-4
0.38                      1.25564322464778E-4
0.380833                  1.2445457448354908E-4
0.381667                  1.2333137546943998E-4
0.3825                    1.2219392243841812E-4
0.383333                  1.2104281078073821E-4
0.384167                  1.1987871845827582E-4
0.385                     1.187008343429342E-4
0.385833                  1.1750985368924324E-4
0.386667                  1.1630655198993943E-4
0.3875                    1.1509011577642914E-4
0.388333                  1.1386134046194821E-4
0.389167                  1.1262109899843712E-4
0.39                      1.1136858293056015E-4
0.390833                  1.1010468843464947E-4
0.391667                  1.0883038619103354E-4
0.3925                    1.0754488192949682E-4
0.393333                  1.0624917369696933E-4
0.394167                  1.0494433076455633E-4
0.395                     1.0362958429124419E-4
0.395833                  1.0230603609377945E-4
0.396667                  1.0097485568460957E-4
0.3975                    9.963531339645557E-5
0.398333                  9.828861773364542E-5
0.399167                  9.693604123717303E-5
0.4                       9.557691003020142E-5
0.400833                  9.421254359930748E-5
0.401667                  9.28443217200527E-5
0.4025                    9.147164630145982E-5
0.403333                  9.009595381949112E-5
0.404167                  8.871873722615156E-5
0.405                     8.733949810387179E-5
0.405833                  8.595979791762379E-5
0.406667                  8.458125077913198E-5
0.4075                    8.320348614639606E-5
0.408333                  8.182820065958052E-5
0.409167                  8.045713967360026E-5
0.41                      7.909009329037888E-5
0.410833                  7.772890557610216E-5
0.411667                  7.637546494485761E-5
0.4125                    7.502975925782321E-5
0.413333                  7.369379343383719E-5
0.414167                  7.236961138488977E-5
0.415                     7.105743887050434E-5
0.415833                  6.975945423121806E-5
0.416667                  6.847786721281037E-5
0.4175                    6.721318156357371E-5
0.418333                  6.596775647970776E-5
0.419167                  6.474397064535242E-5
0.42                      6.354263965498227E-5
0.420833                  6.236629832954075E-5
0.421667                  6.121748126008778E-5
0.4225                    6.009733305530258E-5
0.423333                  5.900853417586878E-5
0.424167                  5.795373247724166E-5
0.425                     5.693438637988961E-5
0.425833                  5.595325060005017E-5
0.426667                  5.501299652026882E-5
0.4275                    5.411532925752506E-5
0.428333                  5.326294668760029E-5
0.429167                  5.245838985363304E-5
0.43                      5.170347420449073E-5
0.430833                  5.10006383020796E-5
0.431667                  5.035206881878887E-5
0.4325                    4.9759483198204216E-5
0.433333                  4.922479621297568E-5
0.434167                  4.874956618175857E-5
0.435                     4.833515955568152E-5
0.435833                  4.7982685164500625E-5
0.436667                  4.769280586004349E-5
0.4375                    4.7466302941121084E-5
0.438333                  4.730325687684653E-5
0.439167                  4.7203257563336065E-5
0.44                      4.7166366330791116E-5
0.440833                  4.7191553157727905E-5
0.441667                  4.7277317310744664E-5
0.4425                    4.74230193751218E-5
0.443333                  4.762661417078718E-5
0.444167                  4.78856663303058E-5
0.445                     4.8199001557257E-5
0.445833                  4.8563800389211596E-5
0.446667                  4.89769690182457E-5
0.4475                    4.943704557169748E-5
0.448333                  4.99407416753618E-5
0.449167                  5.0484614154230354E-5
0.45                      5.106716030394E-5
0.450833                  5.168490973661417E-5
0.451667                  5.233433761561508E-5
0.4525                    5.3014088991471796E-5
0.453333                  5.3720729928835264E-5
0.454167                  5.4450844360606175E-5
0.455                     5.5203336111517904E-5
0.455833                  5.59749460565832E-5
0.456667                  5.6762479032938076E-5
0.4575                    5.7565140070380054E-5
0.458333                  5.837991584592514E-5
0.459167                  5.920388328391006E-5
0.46                      6.0036543188439865E-5
0.460833                  6.0875152546171674E-5
0.461667                  6.171707196275942E-5
0.4625                    6.256206523411199E-5
0.463333                  6.340765685065159E-5
0.464167                  6.425148082987921E-5
0.465                     6.509351914856085E-5
0.465833                  6.59315475784889E-5
0.466667                  6.676345344464475E-5
0.4675                    6.758938975448501E-5
0.468333                  6.840736251388857E-5
0.469167                  6.921548965978538E-5
0.47                      7.001405083837576E-5
0.470833                  7.080126122503966E-5
0.471667                  7.157544776036206E-5
0.4725                    7.233697745079165E-5
0.473333                  7.308425574532561E-5
0.474167                  7.381579972777044E-5
0.475                     7.45320302103012E-5
0.475833                  7.523152700476441E-5
0.476667                  7.591298167481593E-5
0.4775                    7.657684078627615E-5
0.478333                  7.722184564995674E-5
0.479167                  7.784684969467045E-5
0.48                      7.845230214536717E-5
0.480833                  7.903709565994495E-5
0.481667                  7.960023562360712E-5
0.4825                    8.014215509131079E-5
0.483333                  8.06618902356916E-5
0.484167                  8.115859073299587E-5
0.485                     8.163265823728414E-5
0.485833                  8.208326652463345E-5
0.486667                  8.250970370202489E-5
0.4875                    8.291232785066168E-5
0.488333                  8.3290445944642E-5
0.489167                  8.364348011715201E-5
0.49                      8.397173526868133E-5
0.490833                  8.427464837446015E-5
0.491667                  8.455177230855238E-5
0.4925                    8.480335132428338E-5
0.493333                  8.502894962770018E-5
0.494167                  8.522824523593374E-5
0.495                     8.540139610346823E-5
0.495833                  8.554797578053714E-5
0.496667                  8.566718473490212E-5
0.4975                    8.575663679961378E-5
0.498333                  8.581072398496335E-5
0.499167                  8.584853772925286E-5
0.5                       8.595013869034556E-5
