[Info]
Version 1
Dimension 2
NumNodes 48
Num3DElements 0
Num2DElements 22
Num1DElements 3
NumNodeBC 6
NumSaveNodes 0
NumSaveElements 0
Num 2d-line      : 3
Num 2d-line,quad : 0
Num 3d-line      : 0
Num 3d-line,quad : 0
Num triangle     : 0
Num triangle,quad: 0
Num quadr        : 22
Num quadr,quad   : 0
Num tetra        : 0
Num tetra,quad   : 0
Num brick        : 0
Num brick,quad   : 0
Num pyramid      : 0
Num pyramid,quad : 0
Num wedge        : 0
Num wedge,quad   : 0

[Nodes]
#NodeNr x-coord y-coord z-coord
       1  0.0000000000000e+00  0.0000000000000e+00  0.0000000000000e+00
       2  1.4500000000000e-01  0.0000000000000e+00  0.0000000000000e+00
       3  1.4500000000000e-01  2.9000000000000e+00  0.0000000000000e+00
       4  1.4500000000000e-01  1.4500000000000e-01  0.0000000000000e+00
       5  1.4500000000000e-01  2.9000000000000e-01  0.0000000000000e+00
       6  1.4500000000000e-01  4.3500000000000e-01  0.0000000000000e+00
       7  1.4500000000000e-01  5.8000000000000e-01  0.0000000000000e+00
       8  1.4500000000000e-01  7.2500000000000e-01  0.0000000000000e+00
       9  1.4500000000000e-01  8.7000000000000e-01  0.0000000000000e+00
      10  1.4500000000000e-01  1.0150000000000e+00  0.0000000000000e+00
      11  1.4500000000000e-01  1.1600000000000e+00  0.0000000000000e+00
      12  1.4500000000000e-01  1.3050000000000e+00  0.0000000000000e+00
      13  1.4500000000000e-01  1.4500000000000e+00  0.0000000000000e+00
      14  1.4500000000000e-01  1.5950000000000e+00  0.0000000000000e+00
      15  1.4500000000000e-01  1.7400000000000e+00  0.0000000000000e+00
      16  1.4500000000000e-01  1.8850000000000e+00  0.0000000000000e+00
      17  1.4500000000000e-01  2.0300000000000e+00  0.0000000000000e+00
      18  1.4500000000000e-01  2.1750000000000e+00  0.0000000000000e+00
      19  1.4500000000000e-01  2.3200000000000e+00  0.0000000000000e+00
      20  1.4500000000000e-01  2.4650000000000e+00  0.0000000000000e+00
      21  1.4500000000000e-01  2.6100000000000e+00  0.0000000000000e+00
      22  1.4500000000000e-01  2.7550000000000e+00  0.0000000000000e+00
      23  0.0000000000000e+00  2.9000000000000e+00  0.0000000000000e+00
      24  0.0000000000000e+00  2.7550000000000e+00  0.0000000000000e+00
      25  0.0000000000000e+00  2.6100000000000e+00  0.0000000000000e+00
      26  0.0000000000000e+00  2.4650000000000e+00  0.0000000000000e+00
      27  0.0000000000000e+00  2.3200000000000e+00  0.0000000000000e+00
      28  0.0000000000000e+00  2.1750000000000e+00  0.0000000000000e+00
      29  0.0000000000000e+00  2.0300000000000e+00  0.0000000000000e+00
      30  0.0000000000000e+00  1.8850000000000e+00  0.0000000000000e+00
      31  0.0000000000000e+00  1.7400000000000e+00  0.0000000000000e+00
      32  0.0000000000000e+00  1.5950000000000e+00  0.0000000000000e+00
      33  0.0000000000000e+00  1.4500000000000e+00  0.0000000000000e+00
      34  0.0000000000000e+00  1.3050000000000e+00  0.0000000000000e+00
      35  0.0000000000000e+00  1.1600000000000e+00  0.0000000000000e+00
      36  0.0000000000000e+00  1.0150000000000e+00  0.0000000000000e+00
      37  0.0000000000000e+00  8.7000000000000e-01  0.0000000000000e+00
      38  0.0000000000000e+00  7.2500000000000e-01  0.0000000000000e+00
      39  0.0000000000000e+00  5.8000000000000e-01  0.0000000000000e+00
      40  0.0000000000000e+00  4.3500000000000e-01  0.0000000000000e+00
      41  0.0000000000000e+00  2.9000000000000e-01  0.0000000000000e+00
      42  0.0000000000000e+00  1.4500000000000e-01  0.0000000000000e+00
      43  0.0000000000000e+00 -1.4500000000000e-01  0.0000000000000e+00
      44  1.4500000000000e-01 -1.4500000000000e-01  0.0000000000000e+00
      45  7.2500000000000e-02 -1.4500000000000e-01  0.0000000000000e+00
      46  1.4500000000000e-01  0.0000000000000e+00  0.0000000000000e+00
      47  0.0000000000000e+00  0.0000000000000e+00  0.0000000000000e+00
      48  7.2500000000000e-02  0.0000000000000e+00  0.0000000000000e+00

[3D Elements]
#ElemNr  ElemType  NrOfNodes  Level
#Node1 Node2 ... NodeNrOfNodes

[2D Elements]
#ElemNr  ElemType  NrOfNodes  Level
#Node1 Node2 ... NodeNrOfNodes
1 6 4 waterEl
1 2 4 42
2 6 4 waterEl
42 4 5 41
3 6 4 waterEl
41 5 6 40
4 6 4 waterEl
40 6 7 39
5 6 4 waterEl
39 7 8 38
6 6 4 waterEl
38 8 9 37
7 6 4 waterEl
37 9 10 36
8 6 4 waterEl
36 10 11 35
9 6 4 waterEl
35 11 12 34
10 6 4 waterEl
34 12 13 33
11 6 4 waterEl
33 13 14 32
12 6 4 waterEl
32 14 15 31
13 6 4 waterEl
31 15 16 30
14 6 4 waterEl
30 16 17 29
15 6 4 waterEl
29 17 18 28
16 6 4 waterEl
28 18 19 27
17 6 4 waterEl
27 19 20 26
18 6 4 waterEl
26 20 21 25
19 6 4 waterEl
25 21 22 24
20 6 4 waterEl
24 22 3 23
21 6 4 solid
43 45 48 47
22 6 4 solid
45 44 46 48

[1D Elements]
#ElemNr  ElemType  NrOfNodes  Level
#Node1 Node2 ... NodeNrOfNodes
24 100 2 master_interface
46 48
25 100 2 master_interface
48 47
23 100 2 slave_interface
1 2

[Node BC]
#NodeNr Level
      46 acouMech
      47 acouMech
      48 acouMech
      43 bottom
      44 bottom
      45 bottom

[Save Nodes]
#NodeNr Level

[Save Elements]
#ElemNr Level

