[Info]
Version 1
Dimension 3
NumNodes 216
Num3DElements 125
Num2DElements 0
Num1DElements 0
NumNodeBC 296
NumSaveNodes 0
NumSaveElements 0
Num 2d-line      : 0
Num 2d-line,quad : 0
Num 3d-line      : 0
Num 3d-line,quad : 0
Num triangle     : 0
Num triangle,quad: 0
Num quadr        : 0
Num quadr,quad   : 0
Num tetra        : 0
Num tetra,quad   : 0
Num brick        : 125
Num brick,quad   : 0
Num pyramid      : 0
Num pyramid,quad : 0
Num wedge        : 0
Num wedge,quad   : 0

[Nodes]
#NodeNr x-coord y-coord z-coord
1  0.0  0.0  0.0
2  0.2  0.0  0.0
3  0.4  0.0  0.0
4  0.6  0.0  0.0
5  0.8  0.0  0.0
6  1.0  0.0  0.0
7  0.0  0.2  0.0
8  0.2  0.2  0.0
9  0.4  0.2  0.0
10  0.6  0.2  0.0
11  0.8  0.2  0.0
12  1.0  0.2  0.0
13  0.0  0.4  0.0
14  0.2  0.4  0.0
15  0.4  0.4  0.0
16  0.6  0.4  0.0
17  0.8  0.4  0.0
18  1.0  0.4  0.0
19  0.0  0.6  0.0
20  0.2  0.6  0.0
21  0.4  0.6  0.0
22  0.6  0.6  0.0
23  0.8  0.6  0.0
24  1.0  0.6  0.0
25  0.0  0.8  0.0
26  0.2  0.8  0.0
27  0.4  0.8  0.0
28  0.6  0.8  0.0
29  0.8  0.8  0.0
30  1.0  0.8  0.0
31  0.0  1.0  0.0
32  0.2  1.0  0.0
33  0.4  1.0  0.0
34  0.6  1.0  0.0
35  0.8  1.0  0.0
36  1.0  1.0  0.0
37  0.0  0.0  0.2
38  0.2  0.0  0.2
39  0.4  0.0  0.2
40  0.6  0.0  0.2
41  0.8  0.0  0.2
42  1.0  0.0  0.2
43  0.0  0.2  0.2
44  0.2  0.2  0.2
45  0.4  0.2  0.2
46  0.6  0.2  0.2
47  0.8  0.2  0.2
48  1.0  0.2  0.2
49  0.0  0.4  0.2
50  0.2  0.4  0.2
51  0.4  0.4  0.2
52  0.6  0.4  0.2
53  0.8  0.4  0.2
54  1.0  0.4  0.2
55  0.0  0.6  0.2
56  0.2  0.6  0.2
57  0.4  0.6  0.2
58  0.6  0.6  0.2
59  0.8  0.6  0.2
60  1.0  0.6  0.2
61  0.0  0.8  0.2
62  0.2  0.8  0.2
63  0.4  0.8  0.2
64  0.6  0.8  0.2
65  0.8  0.8  0.2
66  1.0  0.8  0.2
67  0.0  1.0  0.2
68  0.2  1.0  0.2
69  0.4  1.0  0.2
70  0.6  1.0  0.2
71  0.8  1.0  0.2
72  1.0  1.0  0.2
73  0.0  0.0  0.4
74  0.2  0.0  0.4
75  0.4  0.0  0.4
76  0.6  0.0  0.4
77  0.8  0.0  0.4
78  1.0  0.0  0.4
79  0.0  0.2  0.4
80  0.2  0.2  0.4
81  0.4  0.2  0.4
82  0.6  0.2  0.4
83  0.8  0.2  0.4
84  1.0  0.2  0.4
85  0.0  0.4  0.4
86  0.2  0.4  0.4
87  0.4  0.4  0.4
88  0.6  0.4  0.4
89  0.8  0.4  0.4
90  1.0  0.4  0.4
91  0.0  0.6  0.4
92  0.2  0.6  0.4
93  0.4  0.6  0.4
94  0.6  0.6  0.4
95  0.8  0.6  0.4
96  1.0  0.6  0.4
97  0.0  0.8  0.4
98  0.2  0.8  0.4
99  0.4  0.8  0.4
100  0.6  0.8  0.4
101  0.8  0.8  0.4
102  1.0  0.8  0.4
103  0.0  1.0  0.4
104  0.2  1.0  0.4
105  0.4  1.0  0.4
106  0.6  1.0  0.4
107  0.8  1.0  0.4
108  1.0  1.0  0.4
109  0.0  0.0  0.6
110  0.2  0.0  0.6
111  0.4  0.0  0.6
112  0.6  0.0  0.6
113  0.8  0.0  0.6
114  1.0  0.0  0.6
115  0.0  0.2  0.6
116  0.2  0.2  0.6
117  0.4  0.2  0.6
118  0.6  0.2  0.6
119  0.8  0.2  0.6
120  1.0  0.2  0.6
121  0.0  0.4  0.6
122  0.2  0.4  0.6
123  0.4  0.4  0.6
124  0.6  0.4  0.6
125  0.8  0.4  0.6
126  1.0  0.4  0.6
127  0.0  0.6  0.6
128  0.2  0.6  0.6
129  0.4  0.6  0.6
130  0.6  0.6  0.6
131  0.8  0.6  0.6
132  1.0  0.6  0.6
133  0.0  0.8  0.6
134  0.2  0.8  0.6
135  0.4  0.8  0.6
136  0.6  0.8  0.6
137  0.8  0.8  0.6
138  1.0  0.8  0.6
139  0.0  1.0  0.6
140  0.2  1.0  0.6
141  0.4  1.0  0.6
142  0.6  1.0  0.6
143  0.8  1.0  0.6
144  1.0  1.0  0.6
145  0.0  0.0  0.8
146  0.2  0.0  0.8
147  0.4  0.0  0.8
148  0.6  0.0  0.8
149  0.8  0.0  0.8
150  1.0  0.0  0.8
151  0.0  0.2  0.8
152  0.2  0.2  0.8
153  0.4  0.2  0.8
154  0.6  0.2  0.8
155  0.8  0.2  0.8
156  1.0  0.2  0.8
157  0.0  0.4  0.8
158  0.2  0.4  0.8
159  0.4  0.4  0.8
160  0.6  0.4  0.8
161  0.8  0.4  0.8
162  1.0  0.4  0.8
163  0.0  0.6  0.8
164  0.2  0.6  0.8
165  0.4  0.6  0.8
166  0.6  0.6  0.8
167  0.8  0.6  0.8
168  1.0  0.6  0.8
169  0.0  0.8  0.8
170  0.2  0.8  0.8
171  0.4  0.8  0.8
172  0.6  0.8  0.8
173  0.8  0.8  0.8
174  1.0  0.8  0.8
175  0.0  1.0  0.8
176  0.2  1.0  0.8
177  0.4  1.0  0.8
178  0.6  1.0  0.8
179  0.8  1.0  0.8
180  1.0  1.0  0.8
181  0.0  0.0  1.0
182  0.2  0.0  1.0
183  0.4  0.0  1.0
184  0.6  0.0  1.0
185  0.8  0.0  1.0
186  1.0  0.0  1.0
187  0.0  0.2  1.0
188  0.2  0.2  1.0
189  0.4  0.2  1.0
190  0.6  0.2  1.0
191  0.8  0.2  1.0
192  1.0  0.2  1.0
193  0.0  0.4  1.0
194  0.2  0.4  1.0
195  0.4  0.4  1.0
196  0.6  0.4  1.0
197  0.8  0.4  1.0
198  1.0  0.4  1.0
199  0.0  0.6  1.0
200  0.2  0.6  1.0
201  0.4  0.6  1.0
202  0.6  0.6  1.0
203  0.8  0.6  1.0
204  1.0  0.6  1.0
205  0.0  0.8  1.0
206  0.2  0.8  1.0
207  0.4  0.8  1.0
208  0.6  0.8  1.0
209  0.8  0.8  1.0
210  1.0  0.8  1.0
211  0.0  1.0  1.0
212  0.2  1.0  1.0
213  0.4  1.0  1.0
214  0.6  1.0  1.0
215  0.8  1.0  1.0
216  1.0  1.0  1.0

[1D Elements]
#ElemNr  ElemType  NrOfNodes  Level
#Node1 Node2 ... NodeNrOfNodes

[2D Elements]
#ElemNr  ElemType  NrOfNodes  Level
#Node1 Node2 ... NodeNrOfNodes

[3D Elements]
#ElemNr  ElemType  NrOfNodes  Level
#Node1 Node2 ... NodeNrOfNodes
1 10 8 mech
1 2 8 7 37 38 44 43
2 10 8 mech
2 3 9 8 38 39 45 44
3 10 8 mech
3 4 10 9 39 40 46 45
4 10 8 mech
4 5 11 10 40 41 47 46
5 10 8 mech
5 6 12 11 41 42 48 47
6 10 8 mech
7 8 14 13 43 44 50 49
7 10 8 mech
8 9 15 14 44 45 51 50
8 10 8 mech
9 10 16 15 45 46 52 51
9 10 8 mech
10 11 17 16 46 47 53 52
10 10 8 mech
11 12 18 17 47 48 54 53
11 10 8 mech
13 14 20 19 49 50 56 55
12 10 8 mech
14 15 21 20 50 51 57 56
13 10 8 mech
15 16 22 21 51 52 58 57
14 10 8 mech
16 17 23 22 52 53 59 58
15 10 8 mech
17 18 24 23 53 54 60 59
16 10 8 mech
19 20 26 25 55 56 62 61
17 10 8 mech
20 21 27 26 56 57 63 62
18 10 8 mech
21 22 28 27 57 58 64 63
19 10 8 mech
22 23 29 28 58 59 65 64
20 10 8 mech
23 24 30 29 59 60 66 65
21 10 8 mech
25 26 32 31 61 62 68 67
22 10 8 mech
26 27 33 32 62 63 69 68
23 10 8 mech
27 28 34 33 63 64 70 69
24 10 8 mech
28 29 35 34 64 65 71 70
25 10 8 mech
29 30 36 35 65 66 72 71
26 10 8 mech
37 38 44 43 73 74 80 79
27 10 8 mech
38 39 45 44 74 75 81 80
28 10 8 mech
39 40 46 45 75 76 82 81
29 10 8 mech
40 41 47 46 76 77 83 82
30 10 8 mech
41 42 48 47 77 78 84 83
31 10 8 mech
43 44 50 49 79 80 86 85
32 10 8 mech
44 45 51 50 80 81 87 86
33 10 8 mech
45 46 52 51 81 82 88 87
34 10 8 mech
46 47 53 52 82 83 89 88
35 10 8 mech
47 48 54 53 83 84 90 89
36 10 8 mech
49 50 56 55 85 86 92 91
37 10 8 mech
50 51 57 56 86 87 93 92
38 10 8 mech
51 52 58 57 87 88 94 93
39 10 8 mech
52 53 59 58 88 89 95 94
40 10 8 mech
53 54 60 59 89 90 96 95
41 10 8 mech
55 56 62 61 91 92 98 97
42 10 8 mech
56 57 63 62 92 93 99 98
43 10 8 mech
57 58 64 63 93 94 100 99
44 10 8 mech
58 59 65 64 94 95 101 100
45 10 8 mech
59 60 66 65 95 96 102 101
46 10 8 mech
61 62 68 67 97 98 104 103
47 10 8 mech
62 63 69 68 98 99 105 104
48 10 8 mech
63 64 70 69 99 100 106 105
49 10 8 mech
64 65 71 70 100 101 107 106
50 10 8 mech
65 66 72 71 101 102 108 107
51 10 8 mech
73 74 80 79 109 110 116 115
52 10 8 mech
74 75 81 80 110 111 117 116
53 10 8 mech
75 76 82 81 111 112 118 117
54 10 8 mech
76 77 83 82 112 113 119 118
55 10 8 mech
77 78 84 83 113 114 120 119
56 10 8 mech
79 80 86 85 115 116 122 121
57 10 8 mech
80 81 87 86 116 117 123 122
58 10 8 mech
81 82 88 87 117 118 124 123
59 10 8 mech
82 83 89 88 118 119 125 124
60 10 8 mech
83 84 90 89 119 120 126 125
61 10 8 mech
85 86 92 91 121 122 128 127
62 10 8 mech
86 87 93 92 122 123 129 128
63 10 8 mech
87 88 94 93 123 124 130 129
64 10 8 mech
88 89 95 94 124 125 131 130
65 10 8 mech
89 90 96 95 125 126 132 131
66 10 8 mech
91 92 98 97 127 128 134 133
67 10 8 mech
92 93 99 98 128 129 135 134
68 10 8 mech
93 94 100 99 129 130 136 135
69 10 8 mech
94 95 101 100 130 131 137 136
70 10 8 mech
95 96 102 101 131 132 138 137
71 10 8 mech
97 98 104 103 133 134 140 139
72 10 8 mech
98 99 105 104 134 135 141 140
73 10 8 mech
99 100 106 105 135 136 142 141
74 10 8 mech
100 101 107 106 136 137 143 142
75 10 8 mech
101 102 108 107 137 138 144 143
76 10 8 mech
109 110 116 115 145 146 152 151
77 10 8 mech
110 111 117 116 146 147 153 152
78 10 8 mech
111 112 118 117 147 148 154 153
79 10 8 mech
112 113 119 118 148 149 155 154
80 10 8 mech
113 114 120 119 149 150 156 155
81 10 8 mech
115 116 122 121 151 152 158 157
82 10 8 mech
116 117 123 122 152 153 159 158
83 10 8 mech
117 118 124 123 153 154 160 159
84 10 8 mech
118 119 125 124 154 155 161 160
85 10 8 mech
119 120 126 125 155 156 162 161
86 10 8 mech
121 122 128 127 157 158 164 163
87 10 8 mech
122 123 129 128 158 159 165 164
88 10 8 mech
123 124 130 129 159 160 166 165
89 10 8 mech
124 125 131 130 160 161 167 166
90 10 8 mech
125 126 132 131 161 162 168 167
91 10 8 mech
127 128 134 133 163 164 170 169
92 10 8 mech
128 129 135 134 164 165 171 170
93 10 8 mech
129 130 136 135 165 166 172 171
94 10 8 mech
130 131 137 136 166 167 173 172
95 10 8 mech
131 132 138 137 167 168 174 173
96 10 8 mech
133 134 140 139 169 170 176 175
97 10 8 mech
134 135 141 140 170 171 177 176
98 10 8 mech
135 136 142 141 171 172 178 177
99 10 8 mech
136 137 143 142 172 173 179 178
100 10 8 mech
137 138 144 143 173 174 180 179
101 10 8 mech
145 146 152 151 181 182 188 187
102 10 8 mech
146 147 153 152 182 183 189 188
103 10 8 mech
147 148 154 153 183 184 190 189
104 10 8 mech
148 149 155 154 184 185 191 190
105 10 8 mech
149 150 156 155 185 186 192 191
106 10 8 mech
151 152 158 157 187 188 194 193
107 10 8 mech
152 153 159 158 188 189 195 194
108 10 8 mech
153 154 160 159 189 190 196 195
109 10 8 mech
154 155 161 160 190 191 197 196
110 10 8 mech
155 156 162 161 191 192 198 197
111 10 8 mech
157 158 164 163 193 194 200 199
112 10 8 mech
158 159 165 164 194 195 201 200
113 10 8 mech
159 160 166 165 195 196 202 201
114 10 8 mech
160 161 167 166 196 197 203 202
115 10 8 mech
161 162 168 167 197 198 204 203
116 10 8 mech
163 164 170 169 199 200 206 205
117 10 8 mech
164 165 171 170 200 201 207 206
118 10 8 mech
165 166 172 171 201 202 208 207
119 10 8 mech
166 167 173 172 202 203 209 208
120 10 8 mech
167 168 174 173 203 204 210 209
121 10 8 mech
169 170 176 175 205 206 212 211
122 10 8 mech
170 171 177 176 206 207 213 212
123 10 8 mech
171 172 178 177 207 208 214 213
124 10 8 mech
172 173 179 178 208 209 215 214
125 10 8 mech
173 174 180 179 209 210 216 215

[Node BC]
#NodeNr Level
1 left
7 left
13 left
19 left
25 left
31 left
37 left
43 left
49 left
55 left
61 left
67 left
73 left
79 left
85 left
91 left
97 left
103 left
109 left
115 left
121 left
127 left
133 left
139 left
145 left
151 left
157 left
163 left
169 left
175 left
181 left
187 left
193 left
199 left
205 left
211 left
6 right
12 right
18 right
24 right
30 right
36 right
42 right
48 right
54 right
60 right
66 right
72 right
78 right
84 right
90 right
96 right
102 right
108 right
114 right
120 right
126 right
132 right
138 right
144 right
150 right
156 right
162 right
168 right
174 right
180 right
186 right
192 right
198 right
204 right
210 right
216 right
1 bottom
2 bottom
3 bottom
4 bottom
5 bottom
6 bottom
37 bottom
38 bottom
39 bottom
40 bottom
41 bottom
42 bottom
73 bottom
74 bottom
75 bottom
76 bottom
77 bottom
78 bottom
109 bottom
110 bottom
111 bottom
112 bottom
113 bottom
114 bottom
145 bottom
146 bottom
147 bottom
148 bottom
149 bottom
150 bottom
181 bottom
182 bottom
183 bottom
184 bottom
185 bottom
186 bottom
31 top
32 top
33 top
34 top
35 top
36 top
67 top
68 top
69 top
70 top
71 top
72 top
103 top
104 top
105 top
106 top
107 top
108 top
139 top
140 top
141 top
142 top
143 top
144 top
175 top
176 top
177 top
178 top
179 top
180 top
211 top
212 top
213 top
214 top
215 top
216 top
1 back
2 back
3 back
4 back
5 back
6 back
7 back
8 back
9 back
10 back
11 back
12 back
13 back
14 back
15 back
16 back
17 back
18 back
19 back
20 back
21 back
22 back
23 back
24 back
25 back
26 back
27 back
28 back
29 back
30 back
31 back
32 back
33 back
34 back
35 back
36 back
181 front
182 front
183 front
184 front
185 front
186 front
187 front
188 front
189 front
190 front
191 front
192 front
193 front
194 front
195 front
196 front
197 front
198 front
199 front
200 front
201 front
202 front
203 front
204 front
205 front
206 front
207 front
208 front
209 front
210 front
211 front
212 front
213 front
214 front
215 front
216 front
1 left_bottom_back
6 right_bottom_back
31 left_top_back
36 right_top_back
181 left_bottom_front
186 right_bottom_front
211 left_top_front
216 right_top_front
1 bottom_back
2 bottom_back
3 bottom_back
4 bottom_back
5 bottom_back
6 bottom_back
181 bottom_front
182 bottom_front
183 bottom_front
184 bottom_front
185 bottom_front
186 bottom_front
1 bottom_left
37 bottom_left
73 bottom_left
109 bottom_left
145 bottom_left
181 bottom_left
6 bottom_right
42 bottom_right
78 bottom_right
114 bottom_right
150 bottom_right
186 bottom_right
31 top_back
32 top_back
33 top_back
34 top_back
35 top_back
36 top_back
211 top_front
212 top_front
213 top_front
214 top_front
215 top_front
216 top_front
31 top_left
67 top_left
103 top_left
139 top_left
175 top_left
211 top_left
36 top_right
72 top_right
108 top_right
144 top_right
180 top_right
216 top_right
1 back_left
7 back_left
13 back_left
19 back_left
25 back_left
31 back_left
6 back_right
12 back_right
18 back_right
24 back_right
30 back_right
36 back_right
181 front_left
187 front_left
193 front_left
199 front_left
205 front_left
211 front_left
186 front_right
192 front_right
198 front_right
204 front_right
210 front_right
216 front_right

[Save Nodes]
#NodeNr Level

[Save Elements]
#ElemNr Level

 
