$MeshFormat
2.2 0 8
$EndMeshFormat
$PhysicalNames
5
2 2 "left"
2 3 "right"
2 4 "top"
2 5 "bottom"
3 1 "mat"
$EndPhysicalNames
$Nodes
63
1 -0.1 -0.1 0
2 0.1 -0.1 0
3 0.1 0.1 0
4 -0.1 0.1 0
5 -0.1 0.1 -0.2
6 0.1 0.1 -0.2
7 -0.1 -0.1 -0.2
8 0.1 -0.1 -0.2
9 -0.1 0.1 -0.09999999999973684
10 0.1 0.1 -0.09999999999973684
11 -0.1 -0.1 -0.09999999999973684
12 0.1 -0.1 -0.09999999999973684
13 -2.657596365196468e-13 -0.1 0
14 0.1 -2.657596365196468e-13 0
15 2.657596365196468e-13 0.1 0
16 -0.1 2.657596365196468e-13 0
17 0.1 -2.657596365196468e-13 -0.2
18 -0.1 2.657596365196468e-13 -0.2
19 2.657596365196468e-13 -0.1 -0.2
20 2.657596365196468e-13 0.1 -0.2
21 -7.382983113757291e-15 -2.891205793294678e-19 0
22 0.05000000000008858 0.04999999999991141 0
23 0.04999999999986712 -0.05000000000013288 0
24 -0.04999999999991141 0.05000000000008858 0
25 -0.05000000000013288 -0.04999999999986712 0
26 0 0 -0.2
27 0.05000000000008858 0.04999999999991141 -0.2
28 -0.04999999999986712 0.05000000000013288 -0.2
29 0.05000000000013288 -0.05000000000013288 -0.2
30 -0.04999999999986712 -0.05000000000013288 -0.2
31 0.1 -8.858770198886627e-14 -0.0999999999999342
32 0.1 -0.0500000000001329 -0.1499999999998684
33 0.1 -0.05000000000010336 -0.04999999999990131
34 0.1 0.04999999999989665 -0.04999999999990087
35 0.1 0.04999999999989665 -0.1499999999999894
36 -0.1 0 -0.09999999999999999
37 -0.1 0.0500000000001329 -0.1499999999998684
38 -0.1 0.05000000000013289 -0.04999999999986842
39 -0.1 -0.04999999999991141 -0.04999999999991184
40 -0.1 -0.04999999999986713 -0.1500000000001329
41 7.751669676518229e-14 0.1 -0.09999999999993055
42 0.05000000000008861 0.1 -0.1499999999999123
43 0.0500000000001329 0.1 -0.04999999999986842
44 -0.04999999999991141 0.1 -0.04999999999991184
45 -0.04999999999991142 0.1 -0.1500000000000004
46 0 -0.1 -0.1
47 0.05000000000013288 -0.1 -0.1499999999998684
48 -0.0500000000001329 -0.1 -0.04999999999986842
49 0.04999999999991141 -0.1 -0.04999999999991184
50 -0.04999999999986712 -0.1 -0.1500000000001329
51 -2.775557561562891e-17 -2.1937023959884e-17 -0.1
52 0.05000000000000002 -1.3289066028137e-13 -0.15
53 0.05000000000000339 -1.362729373788341e-13 -0.04999999999996709
54 -0.05 -0.05000000000004342 -0.09999999999986842
55 -0.05000000000004431 1.329006349415351e-13 -0.05
56 8.86027362589914e-14 0.05 -0.05
57 6.645378691771953e-14 -0.05000000000006644 -0.1500000000000664
58 1.107239300246476e-13 0.05000000000002215 -0.1499999999999779
59 0.05000000000005873 -0.05000000000005874 -0.09999999999992717
60 -4.462402669602739e-14 -0.05000000000008826 -0.04999999999995603
61 0.05000000000009389 0.04999999999995569 -0.09999999999994516
62 -0.05000000000000001 1.329214516232469e-13 -0.15
63 -0.04999999999996711 0.05000000000009911 -0.09999999999996755
$EndNodes
$Elements
256
1 2 2 3 18 6 35 17
2 2 2 3 18 6 10 35
3 2 2 3 18 31 17 35
4 2 2 3 18 31 32 17
5 2 2 3 18 31 10 34
6 2 2 3 18 31 35 10
7 2 2 3 18 31 33 12
8 2 2 3 18 31 14 33
9 2 2 3 18 31 34 14
10 2 2 3 18 31 12 32
11 2 2 3 18 3 34 10
12 2 2 3 18 3 14 34
13 2 2 3 18 2 12 33
14 2 2 3 18 2 33 14
15 2 2 3 18 8 17 32
16 2 2 3 18 8 32 12
17 2 2 2 20 16 38 36
18 2 2 2 20 16 4 38
19 2 2 2 20 16 36 39
20 2 2 2 20 16 39 1
21 2 2 2 20 5 37 9
22 2 2 2 20 5 18 37
23 2 2 2 20 11 36 40
24 2 2 2 20 11 40 7
25 2 2 2 20 11 39 36
26 2 2 2 20 11 1 39
27 2 2 2 20 9 36 38
28 2 2 2 20 9 38 4
29 2 2 2 20 9 37 36
30 2 2 2 20 18 40 37
31 2 2 2 20 18 7 40
32 2 2 2 20 36 37 40
33 2 2 4 22 6 42 10
34 2 2 4 22 6 20 42
35 2 2 4 22 9 44 41
36 2 2 4 22 9 4 44
37 2 2 4 22 15 41 44
38 2 2 4 22 15 44 4
39 2 2 4 22 5 9 45
40 2 2 4 22 5 45 20
41 2 2 4 22 3 43 15
42 2 2 4 22 3 10 43
43 2 2 4 22 15 43 41
44 2 2 4 22 10 41 43
45 2 2 4 22 10 42 41
46 2 2 4 22 20 41 42
47 2 2 4 22 9 41 45
48 2 2 4 22 20 45 41
49 2 2 5 24 8 47 19
50 2 2 5 24 8 12 47
51 2 2 5 24 47 50 19
52 2 2 5 24 47 46 50
53 2 2 5 24 12 46 47
54 2 2 5 24 2 13 49
55 2 2 5 24 2 49 12
56 2 2 5 24 13 46 49
57 2 2 5 24 12 49 46
58 2 2 5 24 11 7 50
59 2 2 5 24 11 50 46
60 2 2 5 24 11 48 1
61 2 2 5 24 11 46 48
62 2 2 5 24 19 50 7
63 2 2 5 24 1 48 13
64 2 2 5 24 13 48 46
65 4 2 1 26 8 47 12 32
66 4 2 1 26 16 1 39 25
67 4 2 1 26 49 2 23 13
68 4 2 1 26 22 34 3 14
69 4 2 1 26 15 4 44 24
70 4 2 1 26 7 19 30 50
71 4 2 1 26 11 7 40 50
72 4 2 1 26 17 27 35 6
73 4 2 1 26 37 5 9 45
74 4 2 1 26 42 10 35 6
75 4 2 1 26 28 20 5 45
76 4 2 1 26 30 7 40 18
77 4 2 1 26 50 47 19 57
78 4 2 1 26 50 30 40 57
79 4 2 1 26 29 30 19 57
80 4 2 1 26 31 17 32 52
81 4 2 1 26 10 31 34 61
82 4 2 1 26 54 50 40 57
83 4 2 1 26 44 9 41 63
84 4 2 1 26 9 45 41 63
85 4 2 1 26 17 31 35 52
86 4 2 1 26 31 10 35 61
87 4 2 1 26 30 40 57 62
88 4 2 1 26 47 50 46 57
89 4 2 1 26 26 30 29 57
90 4 2 1 26 48 13 46 60
91 4 2 1 26 12 47 46 59
92 4 2 1 26 25 21 13 60
93 4 2 1 26 21 23 13 60
94 4 2 1 26 17 26 29 52
95 4 2 1 26 50 11 46 54
96 4 2 1 26 11 48 46 54
97 4 2 1 26 13 49 46 60
98 4 2 1 26 49 12 46 59
99 4 2 1 26 11 36 39 54
100 4 2 1 26 40 54 57 62
101 4 2 1 26 9 38 36 63
102 4 2 1 26 45 20 41 58
103 4 2 1 26 23 21 14 53
104 4 2 1 26 38 16 36 55
105 4 2 1 26 20 42 41 58
106 4 2 1 26 21 22 14 53
107 4 2 1 26 36 16 39 55
108 4 2 1 26 27 26 17 52
109 4 2 1 26 16 21 25 55
110 4 2 1 26 15 22 21 56
111 4 2 1 26 24 15 21 56
112 4 2 1 26 16 24 21 55
113 4 2 1 26 29 47 32 52
114 4 2 1 26 11 40 36 54
115 4 2 1 26 9 36 37 63
116 4 2 1 26 57 51 46 59
117 4 2 1 26 33 31 12 59
118 4 2 1 26 12 31 32 59
119 4 2 1 26 26 52 51 57
120 4 2 1 26 54 51 46 57
121 4 2 1 26 47 52 29 57
122 4 2 1 26 59 51 46 60
123 4 2 1 26 51 54 46 60
124 4 2 1 26 25 48 39 54
125 4 2 1 26 31 33 14 53
126 4 2 1 26 52 31 51 59
127 4 2 1 26 22 43 34 56
128 4 2 1 26 52 47 32 59
129 4 2 1 26 54 25 48 60
130 4 2 1 26 30 26 18 62
131 4 2 1 26 28 26 20 58
132 4 2 1 26 10 43 41 61
133 4 2 1 26 43 15 41 56
134 4 2 1 26 26 27 20 58
135 4 2 1 26 34 31 14 53
136 4 2 1 26 47 52 57 59
137 4 2 1 26 26 57 51 62
138 4 2 1 26 53 21 51 60
139 4 2 1 26 31 52 51 61
140 4 2 1 26 21 55 51 60
141 4 2 1 26 52 26 51 58
142 4 2 1 26 31 53 51 59
143 4 2 1 26 49 23 33 53
144 4 2 1 26 15 44 41 56
145 4 2 1 26 43 34 56 61
146 4 2 1 26 36 54 51 55
147 4 2 1 26 54 36 51 62
148 4 2 1 26 26 28 18 62
149 4 2 1 26 33 49 53 59
150 4 2 1 26 42 10 41 61
151 4 2 1 26 38 44 24 55
152 4 2 1 26 49 23 53 60
153 4 2 1 26 53 31 51 61
154 4 2 1 26 36 55 51 63
155 4 2 1 26 62 36 51 63
156 4 2 1 26 25 54 39 55
157 4 2 1 26 58 26 51 62
158 4 2 1 26 40 18 37 62
159 4 2 1 26 36 40 37 62
160 4 2 1 26 53 22 34 56
161 4 2 1 26 41 58 56 63
162 4 2 1 26 56 58 51 63
163 4 2 1 26 21 53 51 56
164 4 2 1 26 55 21 51 56
165 4 2 1 26 58 41 56 61
166 4 2 1 26 58 56 51 61
167 4 2 1 26 54 55 25 60
168 4 2 1 26 59 49 53 60
169 4 2 1 26 8 29 19 47
170 4 2 1 26 8 17 29 32
171 4 2 1 26 38 44 55 63
172 4 2 1 26 1 39 48 11
173 4 2 1 26 1 13 48 25
174 4 2 1 26 10 43 34 3
175 4 2 1 26 15 22 43 3
176 4 2 1 26 4 44 38 9
177 4 2 1 26 4 16 38 24
178 4 2 1 26 33 2 49 12
179 4 2 1 26 27 52 35 58
180 4 2 1 26 34 53 56 61
181 4 2 1 26 2 33 23 14
182 4 2 1 26 42 27 35 58
183 4 2 1 26 58 52 35 61
184 4 2 1 26 55 44 24 56
185 4 2 1 26 42 58 35 61
186 4 2 1 26 45 28 58 62
187 4 2 1 26 28 45 37 62
188 4 2 1 26 55 44 56 63
189 4 2 1 26 45 62 58 63
190 4 2 1 26 62 45 37 63
191 4 2 1 26 42 27 20 6
192 4 2 1 26 5 28 37 18
193 4 2 1 26 11 50 40 54
194 4 2 1 26 57 54 51 62
195 4 2 1 26 50 54 46 57
196 4 2 1 26 30 18 40 62
197 4 2 1 26 17 29 32 52
198 4 2 1 26 27 17 35 52
199 4 2 1 26 26 30 57 62
200 4 2 1 26 47 29 19 57
201 4 2 1 26 10 42 35 61
202 4 2 1 26 8 29 47 32
203 4 2 1 26 48 25 13 60
204 4 2 1 26 52 26 29 57
205 4 2 1 26 57 52 51 59
206 4 2 1 26 2 33 49 23
207 4 2 1 26 55 21 25 60
208 4 2 1 26 22 34 14 53
209 4 2 1 26 24 44 15 56
210 4 2 1 26 39 1 48 25
211 4 2 1 26 47 57 46 59
212 4 2 1 26 16 25 39 55
213 4 2 1 26 38 55 36 63
214 4 2 1 26 45 9 37 63
215 4 2 1 26 54 48 46 60
216 4 2 1 26 43 22 34 3
217 4 2 1 26 55 54 51 60
218 4 2 1 26 30 50 19 57
219 4 2 1 26 54 40 36 62
220 4 2 1 26 33 23 14 53
221 4 2 1 26 43 10 34 61
222 4 2 1 26 48 11 39 54
223 4 2 1 26 23 49 13 60
224 4 2 1 26 7 30 40 50
225 4 2 1 26 44 4 38 24
226 4 2 1 26 47 12 32 59
227 4 2 1 26 44 38 9 63
228 4 2 1 26 49 33 12 59
229 4 2 1 26 59 53 51 60
230 4 2 1 26 15 43 22 56
231 4 2 1 26 41 43 56 61
232 4 2 1 26 31 52 32 59
233 4 2 1 26 49 59 46 60
234 4 2 1 26 45 28 20 58
235 4 2 1 26 28 5 37 45
236 4 2 1 26 27 42 35 6
237 4 2 1 26 52 31 35 61
238 4 2 1 26 52 58 51 61
239 4 2 1 26 54 36 39 55
240 4 2 1 26 27 26 52 58
241 4 2 1 26 16 38 24 55
242 4 2 1 26 18 28 37 62
243 4 2 1 26 23 21 53 60
244 4 2 1 26 45 58 41 63
245 4 2 1 26 27 42 20 58
246 4 2 1 26 31 33 53 59
247 4 2 1 26 31 53 34 61
248 4 2 1 26 21 22 53 56
249 4 2 1 26 58 42 41 61
250 4 2 1 26 58 62 51 63
251 4 2 1 26 28 26 58 62
252 4 2 1 26 55 24 21 56
253 4 2 1 26 56 53 51 61
254 4 2 1 26 44 41 56 63
255 4 2 1 26 36 62 37 63
256 4 2 1 26 55 56 51 63
$EndElements
