[Info]
Version 1
Dimension 2
NumNodes 117
Num3DElements 0
Num2DElements 96
Num1DElements 0
NumNodeBC 48
NumSaveNodes 0
NumSaveElements 0
Num 2d-line      : 0
Num 2d-line,quad : 0
Num 3d-line      : 0
Num 3d-line,quad : 0
Num triangle     : 0
Num triangle,quad: 0
Num quadr        : 96
Num quadr,quad   : 0
Num tetra        : 0
Num tetra,quad   : 0
Num brick        : 0
Num brick,quad   : 0
Num pyramid      : 0
Num pyramid,quad : 0
Num wedge        : 0
Num wedge,quad   : 0

[Nodes]
#NodeNr x-coord y-coord z-coord
1  0.0  0.0  0.0
2  0.25  0.0  0.0
3  0.5  0.0  0.0
4  0.75  0.0  0.0
5  1.0  0.0  0.0
6  1.25  0.0  0.0
7  1.5  0.0  0.0
8  1.75  0.0  0.0
9  2.0  0.0  0.0
10  2.25  0.0  0.0
11  2.5  0.0  0.0
12  2.75  0.0  0.0
13  3.0  0.0  0.0
14  0.0  0.25  0.0
15  0.25  0.25  0.0
16  0.5  0.25  0.0
17  0.75  0.25  0.0
18  1.0  0.25  0.0
19  1.25  0.25  0.0
20  1.5  0.25  0.0
21  1.75  0.25  0.0
22  2.0  0.25  0.0
23  2.25  0.25  0.0
24  2.5  0.25  0.0
25  2.75  0.25  0.0
26  3.0  0.25  0.0
27  0.0  0.5  0.0
28  0.25  0.5  0.0
29  0.5  0.5  0.0
30  0.75  0.5  0.0
31  1.0  0.5  0.0
32  1.25  0.5  0.0
33  1.5  0.5  0.0
34  1.75  0.5  0.0
35  2.0  0.5  0.0
36  2.25  0.5  0.0
37  2.5  0.5  0.0
38  2.75  0.5  0.0
39  3.0  0.5  0.0
40  0.0  0.75  0.0
41  0.25  0.75  0.0
42  0.5  0.75  0.0
43  0.75  0.75  0.0
44  1.0  0.75  0.0
45  1.25  0.75  0.0
46  1.5  0.75  0.0
47  1.75  0.75  0.0
48  2.0  0.75  0.0
49  2.25  0.75  0.0
50  2.5  0.75  0.0
51  2.75  0.75  0.0
52  3.0  0.75  0.0
53  0.0  1.0  0.0
54  0.25  1.0  0.0
55  0.5  1.0  0.0
56  0.75  1.0  0.0
57  1.0  1.0  0.0
58  1.25  1.0  0.0
59  1.5  1.0  0.0
60  1.75  1.0  0.0
61  2.0  1.0  0.0
62  2.25  1.0  0.0
63  2.5  1.0  0.0
64  2.75  1.0  0.0
65  3.0  1.0  0.0
66  0.0  1.25  0.0
67  0.25  1.25  0.0
68  0.5  1.25  0.0
69  0.75  1.25  0.0
70  1.0  1.25  0.0
71  1.25  1.25  0.0
72  1.5  1.25  0.0
73  1.75  1.25  0.0
74  2.0  1.25  0.0
75  2.25  1.25  0.0
76  2.5  1.25  0.0
77  2.75  1.25  0.0
78  3.0  1.25  0.0
79  0.0  1.5  0.0
80  0.25  1.5  0.0
81  0.5  1.5  0.0
82  0.75  1.5  0.0
83  1.0  1.5  0.0
84  1.25  1.5  0.0
85  1.5  1.5  0.0
86  1.75  1.5  0.0
87  2.0  1.5  0.0
88  2.25  1.5  0.0
89  2.5  1.5  0.0
90  2.75  1.5  0.0
91  3.0  1.5  0.0
92  0.0  1.75  0.0
93  0.25  1.75  0.0
94  0.5  1.75  0.0
95  0.75  1.75  0.0
96  1.0  1.75  0.0
97  1.25  1.75  0.0
98  1.5  1.75  0.0
99  1.75  1.75  0.0
100  2.0  1.75  0.0
101  2.25  1.75  0.0
102  2.5  1.75  0.0
103  2.75  1.75  0.0
104  3.0  1.75  0.0
105  0.0  2.0  0.0
106  0.25  2.0  0.0
107  0.5  2.0  0.0
108  0.75  2.0  0.0
109  1.0  2.0  0.0
110  1.25  2.0  0.0
111  1.5  2.0  0.0
112  1.75  2.0  0.0
113  2.0  2.0  0.0
114  2.25  2.0  0.0
115  2.5  2.0  0.0
116  2.75  2.0  0.0
117  3.0  2.0  0.0

[1D Elements]
#ElemNr  ElemType  NrOfNodes  Level
#Node1 Node2 ... NodeNrOfNodes

[2D Elements]
#ElemNr  ElemType  NrOfNodes  Level
#Node1 Node2 ... NodeNrOfNodes
1 6 4 mech
1 2 15 14
2 6 4 mech
2 3 16 15
3 6 4 mech
3 4 17 16
4 6 4 mech
4 5 18 17
5 6 4 mech
5 6 19 18
6 6 4 mech
6 7 20 19
7 6 4 mech
7 8 21 20
8 6 4 mech
8 9 22 21
9 6 4 mech
9 10 23 22
10 6 4 mech
10 11 24 23
11 6 4 mech
11 12 25 24
12 6 4 mech
12 13 26 25
13 6 4 mech
14 15 28 27
14 6 4 mech
15 16 29 28
15 6 4 mech
16 17 30 29
16 6 4 mech
17 18 31 30
17 6 4 mech
18 19 32 31
18 6 4 mech
19 20 33 32
19 6 4 mech
20 21 34 33
20 6 4 mech
21 22 35 34
21 6 4 mech
22 23 36 35
22 6 4 mech
23 24 37 36
23 6 4 mech
24 25 38 37
24 6 4 mech
25 26 39 38
25 6 4 mech
27 28 41 40
26 6 4 mech
28 29 42 41
27 6 4 mech
29 30 43 42
28 6 4 mech
30 31 44 43
29 6 4 mech
31 32 45 44
30 6 4 mech
32 33 46 45
31 6 4 mech
33 34 47 46
32 6 4 mech
34 35 48 47
33 6 4 mech
35 36 49 48
34 6 4 mech
36 37 50 49
35 6 4 mech
37 38 51 50
36 6 4 mech
38 39 52 51
37 6 4 mech
40 41 54 53
38 6 4 mech
41 42 55 54
39 6 4 mech
42 43 56 55
40 6 4 mech
43 44 57 56
41 6 4 mech
44 45 58 57
42 6 4 mech
45 46 59 58
43 6 4 mech
46 47 60 59
44 6 4 mech
47 48 61 60
45 6 4 mech
48 49 62 61
46 6 4 mech
49 50 63 62
47 6 4 mech
50 51 64 63
48 6 4 mech
51 52 65 64
49 6 4 mech
53 54 67 66
50 6 4 mech
54 55 68 67
51 6 4 mech
55 56 69 68
52 6 4 mech
56 57 70 69
53 6 4 mech
57 58 71 70
54 6 4 mech
58 59 72 71
55 6 4 mech
59 60 73 72
56 6 4 mech
60 61 74 73
57 6 4 mech
61 62 75 74
58 6 4 mech
62 63 76 75
59 6 4 mech
63 64 77 76
60 6 4 mech
64 65 78 77
61 6 4 mech
66 67 80 79
62 6 4 mech
67 68 81 80
63 6 4 mech
68 69 82 81
64 6 4 mech
69 70 83 82
65 6 4 mech
70 71 84 83
66 6 4 mech
71 72 85 84
67 6 4 mech
72 73 86 85
68 6 4 mech
73 74 87 86
69 6 4 mech
74 75 88 87
70 6 4 mech
75 76 89 88
71 6 4 mech
76 77 90 89
72 6 4 mech
77 78 91 90
73 6 4 mech
79 80 93 92
74 6 4 mech
80 81 94 93
75 6 4 mech
81 82 95 94
76 6 4 mech
82 83 96 95
77 6 4 mech
83 84 97 96
78 6 4 mech
84 85 98 97
79 6 4 mech
85 86 99 98
80 6 4 mech
86 87 100 99
81 6 4 mech
87 88 101 100
82 6 4 mech
88 89 102 101
83 6 4 mech
89 90 103 102
84 6 4 mech
90 91 104 103
85 6 4 mech
92 93 106 105
86 6 4 mech
93 94 107 106
87 6 4 mech
94 95 108 107
88 6 4 mech
95 96 109 108
89 6 4 mech
96 97 110 109
90 6 4 mech
97 98 111 110
91 6 4 mech
98 99 112 111
92 6 4 mech
99 100 113 112
93 6 4 mech
100 101 114 113
94 6 4 mech
101 102 115 114
95 6 4 mech
102 103 116 115
96 6 4 mech
103 104 117 116

[3D Elements]
#ElemNr  ElemType  NrOfNodes  Level
#Node1 Node2 ... NodeNrOfNodes

[Node BC]
#NodeNr Level
1 south
2 south
3 south
4 south
5 south
6 south
7 south
8 south
9 south
10 south
11 south
12 south
13 south
105 north
106 north
107 north
108 north
109 north
110 north
111 north
112 north
113 north
114 north
115 north
116 north
117 north
1 west
14 west
27 west
40 west
53 west
66 west
79 west
92 west
105 west
13 east
26 east
39 east
52 east
65 east
78 east
91 east
104 east
117 east
1 south_west
13 south_east
105 north_west
117 north_east

[Save Nodes]
#NodeNr Level

[Save Elements]
#ElemNr Level

 
